<?xml version="1.0" encoding="utf-8"?>
<!DOCTYPE eagle SYSTEM "eagle.dtd">
<eagle version="9.2.2">
<drawing>
<settings>
<setting alwaysvectorfont="no"/>
<setting verticaltext="up"/>
</settings>
<grid distance="0.1" unitdist="inch" unit="inch" style="lines" multiple="1" display="no" altdistance="0.01" altunitdist="inch" altunit="inch"/>
<layers>
<layer number="1" name="Top" color="4" fill="1" visible="no" active="no"/>
<layer number="16" name="Bottom" color="1" fill="1" visible="no" active="no"/>
<layer number="17" name="Pads" color="2" fill="1" visible="no" active="no"/>
<layer number="18" name="Vias" color="2" fill="1" visible="no" active="no"/>
<layer number="19" name="Unrouted" color="6" fill="1" visible="no" active="no"/>
<layer number="20" name="Dimension" color="15" fill="1" visible="no" active="no"/>
<layer number="21" name="tPlace" color="7" fill="1" visible="no" active="no"/>
<layer number="22" name="bPlace" color="7" fill="1" visible="no" active="no"/>
<layer number="23" name="tOrigins" color="15" fill="1" visible="no" active="no"/>
<layer number="24" name="bOrigins" color="15" fill="1" visible="no" active="no"/>
<layer number="25" name="tNames" color="7" fill="1" visible="no" active="no"/>
<layer number="26" name="bNames" color="7" fill="1" visible="no" active="no"/>
<layer number="27" name="tValues" color="7" fill="1" visible="no" active="no"/>
<layer number="28" name="bValues" color="7" fill="1" visible="no" active="no"/>
<layer number="29" name="tStop" color="7" fill="3" visible="no" active="no"/>
<layer number="30" name="bStop" color="7" fill="6" visible="no" active="no"/>
<layer number="31" name="tCream" color="7" fill="4" visible="no" active="no"/>
<layer number="32" name="bCream" color="7" fill="5" visible="no" active="no"/>
<layer number="33" name="tFinish" color="6" fill="3" visible="no" active="no"/>
<layer number="34" name="bFinish" color="6" fill="6" visible="no" active="no"/>
<layer number="35" name="tGlue" color="7" fill="4" visible="no" active="no"/>
<layer number="36" name="bGlue" color="7" fill="5" visible="no" active="no"/>
<layer number="37" name="tTest" color="7" fill="1" visible="no" active="no"/>
<layer number="38" name="bTest" color="7" fill="1" visible="no" active="no"/>
<layer number="39" name="tKeepout" color="4" fill="11" visible="no" active="no"/>
<layer number="40" name="bKeepout" color="1" fill="11" visible="no" active="no"/>
<layer number="41" name="tRestrict" color="4" fill="10" visible="no" active="no"/>
<layer number="42" name="bRestrict" color="1" fill="10" visible="no" active="no"/>
<layer number="43" name="vRestrict" color="2" fill="10" visible="no" active="no"/>
<layer number="44" name="Drills" color="7" fill="1" visible="no" active="no"/>
<layer number="45" name="Holes" color="7" fill="1" visible="no" active="no"/>
<layer number="46" name="Milling" color="3" fill="1" visible="no" active="no"/>
<layer number="47" name="Measures" color="7" fill="1" visible="no" active="no"/>
<layer number="48" name="Document" color="7" fill="1" visible="no" active="no"/>
<layer number="49" name="Reference" color="7" fill="1" visible="no" active="no"/>
<layer number="50" name="dxf" color="7" fill="1" visible="no" active="no"/>
<layer number="51" name="tDocu" color="7" fill="1" visible="no" active="no"/>
<layer number="52" name="bDocu" color="7" fill="1" visible="no" active="no"/>
<layer number="53" name="tGND_GNDA" color="7" fill="9" visible="no" active="no"/>
<layer number="54" name="bGND_GNDA" color="1" fill="9" visible="no" active="no"/>
<layer number="56" name="wert" color="7" fill="1" visible="no" active="no"/>
<layer number="88" name="SimResults" color="9" fill="1" visible="yes" active="yes"/>
<layer number="89" name="SimProbes" color="9" fill="1" visible="yes" active="yes"/>
<layer number="90" name="Modules" color="5" fill="1" visible="yes" active="yes"/>
<layer number="91" name="Nets" color="2" fill="1" visible="yes" active="yes"/>
<layer number="92" name="Busses" color="1" fill="1" visible="yes" active="yes"/>
<layer number="93" name="Pins" color="2" fill="1" visible="no" active="yes"/>
<layer number="94" name="Symbols" color="4" fill="1" visible="yes" active="yes"/>
<layer number="95" name="Names" color="7" fill="1" visible="yes" active="yes"/>
<layer number="96" name="Values" color="7" fill="1" visible="yes" active="yes"/>
<layer number="97" name="Info" color="7" fill="1" visible="yes" active="yes"/>
<layer number="98" name="Guide" color="6" fill="1" visible="yes" active="yes"/>
<layer number="100" name="Muster" color="7" fill="1" visible="no" active="no"/>
<layer number="101" name="Patch_Top" color="12" fill="4" visible="no" active="yes"/>
<layer number="102" name="Vscore" color="7" fill="1" visible="no" active="yes"/>
<layer number="104" name="Name" color="7" fill="1" visible="no" active="yes"/>
<layer number="116" name="Patch_BOT" color="9" fill="4" visible="no" active="yes"/>
<layer number="121" name="_tsilk" color="7" fill="1" visible="no" active="yes"/>
<layer number="122" name="_bsilk" color="7" fill="1" visible="no" active="yes"/>
<layer number="151" name="HeatSink" color="7" fill="1" visible="no" active="yes"/>
<layer number="200" name="200bmp" color="1" fill="10" visible="no" active="yes"/>
<layer number="201" name="201bmp" color="2" fill="10" visible="no" active="yes"/>
<layer number="202" name="202bmp" color="3" fill="10" visible="no" active="yes"/>
<layer number="203" name="203bmp" color="4" fill="10" visible="no" active="yes"/>
<layer number="204" name="204bmp" color="5" fill="10" visible="no" active="yes"/>
<layer number="205" name="205bmp" color="6" fill="10" visible="no" active="yes"/>
<layer number="206" name="206bmp" color="7" fill="10" visible="no" active="yes"/>
<layer number="207" name="207bmp" color="8" fill="10" visible="no" active="yes"/>
<layer number="208" name="208bmp" color="9" fill="10" visible="no" active="yes"/>
<layer number="250" name="Descript" color="3" fill="1" visible="no" active="no"/>
<layer number="251" name="SMDround" color="12" fill="11" visible="no" active="no"/>
<layer number="254" name="cooling" color="7" fill="1" visible="no" active="yes"/>
</layers>
<schematic xreflabel="%F%N/%S.%C%R" xrefpart="/%S.%C%R">
<libraries>
<library name="FAB_Hello">
<packages>
<package name="SOIC14">
<description>&lt;b&gt;Small Outline Package&lt;/b&gt;</description>
<wire x1="-4.267" y1="-1.791" x2="4.267" y2="-1.791" width="0.1524" layer="51"/>
<wire x1="4.267" y1="-1.791" x2="4.267" y2="1.791" width="0.1524" layer="21"/>
<wire x1="4.267" y1="1.791" x2="-4.267" y2="1.791" width="0.1524" layer="51"/>
<wire x1="-4.267" y1="1.791" x2="-4.267" y2="-1.791" width="0.1524" layer="21"/>
<circle x="-3.5052" y="-0.7747" radius="0.5334" width="0.1524" layer="21"/>
<smd name="1" x="-3.81" y="-2.6035" dx="0.6096" dy="2.2098" layer="1"/>
<smd name="14" x="-3.81" y="2.6035" dx="0.6096" dy="2.2098" layer="1"/>
<smd name="2" x="-2.54" y="-2.6035" dx="0.6096" dy="2.2098" layer="1"/>
<smd name="3" x="-1.27" y="-2.6035" dx="0.6096" dy="2.2098" layer="1"/>
<smd name="13" x="-2.54" y="2.6035" dx="0.6096" dy="2.2098" layer="1"/>
<smd name="12" x="-1.27" y="2.6035" dx="0.6096" dy="2.2098" layer="1"/>
<smd name="4" x="0" y="-2.6035" dx="0.6096" dy="2.2098" layer="1"/>
<smd name="11" x="0" y="2.6035" dx="0.6096" dy="2.2098" layer="1"/>
<smd name="5" x="1.27" y="-2.6035" dx="0.6096" dy="2.2098" layer="1"/>
<smd name="6" x="2.54" y="-2.6035" dx="0.6096" dy="2.2098" layer="1"/>
<smd name="10" x="1.27" y="2.6035" dx="0.6096" dy="2.2098" layer="1"/>
<smd name="9" x="2.54" y="2.6035" dx="0.6096" dy="2.2098" layer="1"/>
<smd name="7" x="3.81" y="-2.6035" dx="0.6096" dy="2.2098" layer="1"/>
<smd name="8" x="3.81" y="2.6035" dx="0.6096" dy="2.2098" layer="1"/>
<text x="-4.5085" y="-2.032" size="1.27" layer="25" ratio="10" rot="R90">&gt;NAME</text>
<text x="-2.54" y="-0.6985" size="1.27" layer="27" ratio="10">&gt;VALUE</text>
<rectangle x1="-3.9878" y1="1.8415" x2="-3.6322" y2="2.8575" layer="51"/>
<rectangle x1="-2.7178" y1="1.8415" x2="-2.3622" y2="2.8575" layer="51"/>
<rectangle x1="-1.4478" y1="1.8415" x2="-1.0922" y2="2.8575" layer="51"/>
<rectangle x1="-0.1778" y1="1.8415" x2="0.1778" y2="2.8575" layer="51"/>
<rectangle x1="1.0922" y1="1.8415" x2="1.4478" y2="2.8575" layer="51"/>
<rectangle x1="2.3622" y1="1.8415" x2="2.7178" y2="2.8575" layer="51"/>
<rectangle x1="3.6322" y1="1.8415" x2="3.9878" y2="2.8575" layer="51"/>
<rectangle x1="3.6322" y1="-2.8575" x2="3.9878" y2="-1.8415" layer="51"/>
<rectangle x1="2.3622" y1="-2.8575" x2="2.7178" y2="-1.8415" layer="51"/>
<rectangle x1="1.0922" y1="-2.8575" x2="1.4478" y2="-1.8415" layer="51"/>
<rectangle x1="-0.1778" y1="-2.8575" x2="0.1778" y2="-1.8415" layer="51"/>
<rectangle x1="-1.4478" y1="-2.8575" x2="-1.0922" y2="-1.8415" layer="51"/>
<rectangle x1="-2.7178" y1="-2.8575" x2="-2.3622" y2="-1.8415" layer="51"/>
<rectangle x1="-3.9878" y1="-2.8575" x2="-3.6322" y2="-1.8415" layer="51"/>
</package>
<package name="DIL14">
<description>&lt;b&gt;Dual In Line Package&lt;/b&gt;</description>
<wire x1="8.89" y1="2.921" x2="-8.89" y2="2.921" width="0.1524" layer="21"/>
<wire x1="-8.89" y1="-2.921" x2="8.89" y2="-2.921" width="0.1524" layer="21"/>
<wire x1="8.89" y1="2.921" x2="8.89" y2="-2.921" width="0.1524" layer="21"/>
<wire x1="-8.89" y1="2.921" x2="-8.89" y2="1.016" width="0.1524" layer="21"/>
<wire x1="-8.89" y1="-2.921" x2="-8.89" y2="-1.016" width="0.1524" layer="21"/>
<wire x1="-8.89" y1="1.016" x2="-8.89" y2="-1.016" width="0.1524" layer="21" curve="-180"/>
<pad name="1" x="-7.62" y="-3.81" drill="0.8128" shape="long" rot="R90"/>
<pad name="2" x="-5.08" y="-3.81" drill="0.8128" shape="long" rot="R90"/>
<pad name="7" x="7.62" y="-3.81" drill="0.8128" shape="long" rot="R90"/>
<pad name="8" x="7.62" y="3.81" drill="0.8128" shape="long" rot="R90"/>
<pad name="3" x="-2.54" y="-3.81" drill="0.8128" shape="long" rot="R90"/>
<pad name="4" x="0" y="-3.81" drill="0.8128" shape="long" rot="R90"/>
<pad name="6" x="5.08" y="-3.81" drill="0.8128" shape="long" rot="R90"/>
<pad name="5" x="2.54" y="-3.81" drill="0.8128" shape="long" rot="R90"/>
<pad name="9" x="5.08" y="3.81" drill="0.8128" shape="long" rot="R90"/>
<pad name="10" x="2.54" y="3.81" drill="0.8128" shape="long" rot="R90"/>
<pad name="11" x="0" y="3.81" drill="0.8128" shape="long" rot="R90"/>
<pad name="12" x="-2.54" y="3.81" drill="0.8128" shape="long" rot="R90"/>
<pad name="13" x="-5.08" y="3.81" drill="0.8128" shape="long" rot="R90"/>
<pad name="14" x="-7.62" y="3.81" drill="0.8128" shape="long" rot="R90"/>
<text x="-9.271" y="-3.048" size="1.27" layer="25" ratio="10" rot="R90">&gt;NAME</text>
<text x="-6.731" y="-0.635" size="1.27" layer="27" ratio="10">&gt;VALUE</text>
</package>
<package name="QFN/MLF20">
<description>&lt;b&gt;HP-VFQFP-N20&lt;/b&gt; Micro Lead Frame package (MLF)</description>
<wire x1="-2.375" y1="2.05" x2="-2.05" y2="2.375" width="0.254" layer="21"/>
<wire x1="-2.05" y1="2.375" x2="2.05" y2="2.375" width="0.254" layer="51"/>
<wire x1="2.05" y1="-2.375" x2="-2.05" y2="-2.375" width="0.254" layer="51"/>
<wire x1="-2.05" y1="-2.375" x2="-2.375" y2="-2.05" width="0.254" layer="21"/>
<wire x1="-2.375" y1="-2.05" x2="-2.375" y2="2.05" width="0.254" layer="51"/>
<wire x1="2.375" y1="2.05" x2="2.375" y2="-2.05" width="0.254" layer="51"/>
<wire x1="2.05" y1="2.375" x2="2.375" y2="2.05" width="0.254" layer="21"/>
<wire x1="2.375" y1="-2.05" x2="2.05" y2="-2.375" width="0.254" layer="21"/>
<circle x="-1.55" y="1.55" radius="0.15" width="0.254" layer="21"/>
<smd name="1" x="-2.25" y="1.3" dx="0.9" dy="0.35" layer="1" roundness="50"/>
<smd name="2" x="-2.25" y="0.65" dx="0.9" dy="0.35" layer="1" roundness="50"/>
<smd name="3" x="-2.25" y="0" dx="0.9" dy="0.35" layer="1" roundness="50"/>
<smd name="4" x="-2.25" y="-0.65" dx="0.9" dy="0.35" layer="1" roundness="50"/>
<smd name="5" x="-2.25" y="-1.3" dx="0.9" dy="0.35" layer="1" roundness="50"/>
<smd name="6" x="-1.3" y="-2.25" dx="0.35" dy="0.9" layer="1" roundness="50"/>
<smd name="7" x="-0.65" y="-2.25" dx="0.35" dy="0.9" layer="1" roundness="50"/>
<smd name="8" x="0" y="-2.25" dx="0.35" dy="0.9" layer="1" roundness="50"/>
<smd name="9" x="0.65" y="-2.25" dx="0.35" dy="0.9" layer="1" roundness="50"/>
<smd name="10" x="1.3" y="-2.25" dx="0.35" dy="0.9" layer="1" roundness="50"/>
<smd name="11" x="2.25" y="-1.3" dx="0.9" dy="0.35" layer="1" roundness="50"/>
<smd name="12" x="2.25" y="-0.65" dx="0.9" dy="0.35" layer="1" roundness="50"/>
<smd name="13" x="2.25" y="0" dx="0.9" dy="0.35" layer="1" roundness="50"/>
<smd name="14" x="2.25" y="0.65" dx="0.9" dy="0.35" layer="1" roundness="50"/>
<smd name="15" x="2.25" y="1.3" dx="0.9" dy="0.35" layer="1" roundness="50"/>
<smd name="16" x="1.3" y="2.25" dx="0.35" dy="0.9" layer="1" roundness="50"/>
<smd name="17" x="0.65" y="2.25" dx="0.35" dy="0.9" layer="1" roundness="50"/>
<smd name="18" x="0" y="2.25" dx="0.35" dy="0.9" layer="1" roundness="50"/>
<smd name="19" x="-0.65" y="2.25" dx="0.35" dy="0.9" layer="1" roundness="50"/>
<smd name="20" x="-1.3" y="2.25" dx="0.35" dy="0.9" layer="1" roundness="50"/>
<text x="-2.54" y="3.175" size="1.27" layer="25">&gt;NAME</text>
<text x="-2.54" y="-4.445" size="1.27" layer="27">&gt;VALUE</text>
<rectangle x1="-2.35" y1="1.15" x2="-1.9" y2="1.45" layer="51"/>
<rectangle x1="-2.35" y1="0.5" x2="-1.9" y2="0.8" layer="51"/>
<rectangle x1="-2.35" y1="-0.15" x2="-1.9" y2="0.15" layer="51"/>
<rectangle x1="-2.35" y1="-0.8" x2="-1.9" y2="-0.5" layer="51"/>
<rectangle x1="-2.35" y1="-1.45" x2="-1.9" y2="-1.15" layer="51"/>
<rectangle x1="-1.45" y1="-2.35" x2="-1.15" y2="-1.9" layer="51"/>
<rectangle x1="-0.8" y1="-2.35" x2="-0.5" y2="-1.9" layer="51"/>
<rectangle x1="-0.15" y1="-2.35" x2="0.15" y2="-1.9" layer="51"/>
<rectangle x1="0.5" y1="-2.35" x2="0.8" y2="-1.9" layer="51"/>
<rectangle x1="1.15" y1="-2.35" x2="1.45" y2="-1.9" layer="51"/>
<rectangle x1="1.9" y1="-1.45" x2="2.35" y2="-1.15" layer="51"/>
<rectangle x1="1.9" y1="-0.8" x2="2.35" y2="-0.5" layer="51"/>
<rectangle x1="1.9" y1="-0.15" x2="2.35" y2="0.15" layer="51"/>
<rectangle x1="1.9" y1="0.5" x2="2.35" y2="0.8" layer="51"/>
<rectangle x1="1.9" y1="1.15" x2="2.35" y2="1.45" layer="51"/>
<rectangle x1="1.15" y1="1.9" x2="1.45" y2="2.35" layer="51"/>
<rectangle x1="0.5" y1="1.9" x2="0.8" y2="2.35" layer="51"/>
<rectangle x1="-0.15" y1="1.9" x2="0.15" y2="2.35" layer="51"/>
<rectangle x1="-0.8" y1="1.9" x2="-0.5" y2="2.35" layer="51"/>
<rectangle x1="-1.45" y1="1.9" x2="-1.15" y2="2.35" layer="51"/>
</package>
<package name="1206">
<description>&lt;b&gt;RESISTOR&lt;/b&gt;&lt;p&gt;
chip</description>
<wire x1="0.9525" y1="-0.8128" x2="-0.9652" y2="-0.8128" width="0.1524" layer="51"/>
<wire x1="0.9525" y1="0.8128" x2="-0.9652" y2="0.8128" width="0.1524" layer="51"/>
<wire x1="-2.3206" y1="0.983" x2="2.3206" y2="0.983" width="0.0508" layer="39"/>
<wire x1="2.3206" y1="0.983" x2="2.3206" y2="-0.983" width="0.0508" layer="39"/>
<wire x1="2.3206" y1="-0.983" x2="-2.3206" y2="-0.983" width="0.0508" layer="39"/>
<wire x1="-2.3206" y1="-0.983" x2="-2.3206" y2="0.983" width="0.0508" layer="39"/>
<smd name="2" x="1.422" y="0" dx="1.6" dy="1.803" layer="1"/>
<smd name="1" x="-1.422" y="0" dx="1.6" dy="1.803" layer="1"/>
<text x="-1.397" y="1.143" size="1.27" layer="25">&gt;NAME</text>
<text x="-1.397" y="-2.413" size="1.27" layer="27">&gt;VALUE</text>
<rectangle x1="-1.6891" y1="-0.8763" x2="-0.9525" y2="0.8763" layer="51"/>
<rectangle x1="0.9525" y1="-0.8763" x2="1.6891" y2="0.8763" layer="51"/>
<rectangle x1="-0.3" y1="-0.7" x2="0.3" y2="0.7" layer="35"/>
</package>
<package name="2X03SMD">
<smd name="1" x="-2.54" y="2.54" dx="2.54" dy="1.27" layer="1"/>
<smd name="3" x="-2.54" y="0" dx="2.54" dy="1.27" layer="1"/>
<smd name="5" x="-2.54" y="-2.54" dx="2.54" dy="1.27" layer="1"/>
<smd name="2" x="2.92" y="2.54" dx="2.54" dy="1.27" layer="1"/>
<smd name="4" x="2.92" y="0" dx="2.54" dy="1.27" layer="1"/>
<smd name="6" x="2.92" y="-2.54" dx="2.54" dy="1.27" layer="1"/>
<text x="-5.08" y="2.54" size="1.27" layer="27">1</text>
<text x="-3.81" y="3.81" size="1.27" layer="21">&gt;NAME</text>
<text x="-3.81" y="-5.08" size="1.27" layer="21">&gt;VALUE</text>
</package>
<package name="2X03">
<description>&lt;b&gt;PIN HEADER&lt;/b&gt;</description>
<wire x1="-3.81" y1="-1.905" x2="-3.175" y2="-2.54" width="0.1524" layer="21"/>
<wire x1="-1.905" y1="-2.54" x2="-1.27" y2="-1.905" width="0.1524" layer="21"/>
<wire x1="-1.27" y1="-1.905" x2="-0.635" y2="-2.54" width="0.1524" layer="21"/>
<wire x1="0.635" y1="-2.54" x2="1.27" y2="-1.905" width="0.1524" layer="21"/>
<wire x1="-3.81" y1="-1.905" x2="-3.81" y2="1.905" width="0.1524" layer="21"/>
<wire x1="-3.81" y1="1.905" x2="-3.175" y2="2.54" width="0.1524" layer="21"/>
<wire x1="-3.175" y1="2.54" x2="-1.905" y2="2.54" width="0.1524" layer="21"/>
<wire x1="-1.905" y1="2.54" x2="-1.27" y2="1.905" width="0.1524" layer="21"/>
<wire x1="-1.27" y1="1.905" x2="-0.635" y2="2.54" width="0.1524" layer="21"/>
<wire x1="-0.635" y1="2.54" x2="0.635" y2="2.54" width="0.1524" layer="21"/>
<wire x1="0.635" y1="2.54" x2="1.27" y2="1.905" width="0.1524" layer="21"/>
<wire x1="-1.27" y1="1.905" x2="-1.27" y2="-1.905" width="0.1524" layer="21"/>
<wire x1="1.27" y1="1.905" x2="1.27" y2="-1.905" width="0.1524" layer="21"/>
<wire x1="-0.635" y1="-2.54" x2="0.635" y2="-2.54" width="0.1524" layer="21"/>
<wire x1="-3.175" y1="-2.54" x2="-1.905" y2="-2.54" width="0.1524" layer="21"/>
<wire x1="1.27" y1="-1.905" x2="1.905" y2="-2.54" width="0.1524" layer="21"/>
<wire x1="3.175" y1="-2.54" x2="3.81" y2="-1.905" width="0.1524" layer="21"/>
<wire x1="1.27" y1="1.905" x2="1.905" y2="2.54" width="0.1524" layer="21"/>
<wire x1="1.905" y1="2.54" x2="3.175" y2="2.54" width="0.1524" layer="21"/>
<wire x1="3.175" y1="2.54" x2="3.81" y2="1.905" width="0.1524" layer="21"/>
<wire x1="3.81" y1="1.905" x2="3.81" y2="-1.905" width="0.1524" layer="21"/>
<wire x1="1.905" y1="-2.54" x2="3.175" y2="-2.54" width="0.1524" layer="21"/>
<pad name="1" x="-2.54" y="-1.27" drill="1.016" shape="octagon"/>
<pad name="2" x="-2.54" y="1.27" drill="1.016" shape="octagon"/>
<pad name="3" x="0" y="-1.27" drill="1.016" shape="octagon"/>
<pad name="4" x="0" y="1.27" drill="1.016" shape="octagon"/>
<pad name="5" x="2.54" y="-1.27" drill="1.016" shape="octagon"/>
<pad name="6" x="2.54" y="1.27" drill="1.016" shape="octagon"/>
<text x="-3.81" y="3.175" size="1.27" layer="25" ratio="10">&gt;NAME</text>
<text x="-3.81" y="-4.445" size="1.27" layer="27">&gt;VALUE</text>
<rectangle x1="-2.794" y1="-1.524" x2="-2.286" y2="-1.016" layer="51"/>
<rectangle x1="-2.794" y1="1.016" x2="-2.286" y2="1.524" layer="51"/>
<rectangle x1="-0.254" y1="1.016" x2="0.254" y2="1.524" layer="51"/>
<rectangle x1="-0.254" y1="-1.524" x2="0.254" y2="-1.016" layer="51"/>
<rectangle x1="2.286" y1="1.016" x2="2.794" y2="1.524" layer="51"/>
<rectangle x1="2.286" y1="-1.524" x2="2.794" y2="-1.016" layer="51"/>
</package>
<package name="CSM-7X-DU">
<description>&lt;b&gt;SMD CRYSTAL&lt;/b&gt;&lt;p&gt;
Source: www.ecsxtal.com .. Crystal 3.6864MHz CSM_7X_DU.PDF</description>
<wire x1="-5.575" y1="2.3" x2="-2.725" y2="2.3" width="0.2032" layer="51"/>
<wire x1="-2.725" y1="2.3" x2="2.75" y2="2.3" width="0.2032" layer="51"/>
<wire x1="2.75" y1="2.3" x2="5.55" y2="2.3" width="0.2032" layer="51"/>
<wire x1="5.55" y1="2.3" x2="5.55" y2="-2.3" width="0.2032" layer="51"/>
<wire x1="5.55" y1="-2.3" x2="-2.75" y2="-2.3" width="0.2032" layer="51"/>
<wire x1="-2.75" y1="-2.3" x2="-5.575" y2="-2.3" width="0.2032" layer="51"/>
<wire x1="-5.575" y1="-2.3" x2="-5.575" y2="2.3" width="0.2032" layer="51"/>
<wire x1="-2.75" y1="-2.3" x2="-2.725" y2="2.3" width="0.2032" layer="51" curve="-180"/>
<wire x1="2.75" y1="2.3" x2="2.725" y2="-2.3" width="0.2032" layer="51" curve="-180"/>
<smd name="1" x="-4.75" y="0" dx="5.5" dy="2" layer="1"/>
<smd name="2" x="4.75" y="0" dx="5.5" dy="2" layer="1"/>
<text x="-7.6288" y="2.5334" size="1.27" layer="25">&gt;NAME</text>
<text x="-7.6288" y="-4.3114" size="1.27" layer="27">&gt;VALUE</text>
</package>
<package name="SMT_PINS_3">
<wire x1="-2.54" y1="5.08" x2="-2.54" y2="0" width="0.127" layer="21"/>
<wire x1="-2.54" y1="0" x2="2.54" y2="0" width="0.127" layer="21"/>
<wire x1="2.54" y1="0" x2="2.54" y2="5.08" width="0.127" layer="21"/>
<wire x1="2.54" y1="5.08" x2="-2.54" y2="5.08" width="0.127" layer="21"/>
<smd name="1" x="0" y="0" dx="5.08" dy="0.635" layer="1"/>
<smd name="2" x="0" y="2.54" dx="5.08" dy="0.635" layer="1"/>
<smd name="3" x="0" y="5.08" dx="5.08" dy="0.635" layer="1" rot="R180"/>
<text x="-2.54" y="-2.54" size="1.27" layer="25">&gt;NAME</text>
</package>
<package name="0402">
<description>&lt;b&gt;RESISTOR&lt;/b&gt;</description>
<wire x1="-0.245" y1="0.224" x2="0.245" y2="0.224" width="0.1524" layer="51"/>
<wire x1="0.245" y1="-0.224" x2="-0.245" y2="-0.224" width="0.1524" layer="51"/>
<wire x1="-1.092" y1="0.5338" x2="1.092" y2="0.5338" width="0.0508" layer="39"/>
<wire x1="1.092" y1="0.5338" x2="1.092" y2="-0.5338" width="0.0508" layer="39"/>
<wire x1="1.092" y1="-0.5338" x2="-1.092" y2="-0.5338" width="0.0508" layer="39"/>
<wire x1="-1.092" y1="-0.5338" x2="-1.092" y2="0.5338" width="0.0508" layer="39"/>
<smd name="1" x="-0.65" y="0" dx="0.7" dy="0.9" layer="1"/>
<smd name="2" x="0.65" y="0" dx="0.7" dy="0.9" layer="1"/>
<text x="-0.635" y="0.635" size="1.27" layer="25">&gt;NAME</text>
<text x="-0.635" y="-1.905" size="1.27" layer="27">&gt;VALUE</text>
<rectangle x1="-0.554" y1="-0.3048" x2="-0.254" y2="0.2951" layer="51"/>
<rectangle x1="0.2588" y1="-0.3048" x2="0.5588" y2="0.2951" layer="51"/>
<rectangle x1="-0.1999" y1="-0.4001" x2="0.1999" y2="0.4001" layer="35"/>
</package>
<package name="6MM_SWITCH">
<description>&lt;b&gt;OMRON SWITCH&lt;/b&gt;</description>
<wire x1="3.302" y1="-0.762" x2="3.048" y2="-0.762" width="0.1524" layer="21"/>
<wire x1="3.302" y1="-0.762" x2="3.302" y2="0.762" width="0.1524" layer="21"/>
<wire x1="3.048" y1="0.762" x2="3.302" y2="0.762" width="0.1524" layer="21"/>
<wire x1="3.048" y1="1.016" x2="3.048" y2="2.54" width="0.1524" layer="51"/>
<wire x1="-3.302" y1="0.762" x2="-3.048" y2="0.762" width="0.1524" layer="21"/>
<wire x1="-3.302" y1="0.762" x2="-3.302" y2="-0.762" width="0.1524" layer="21"/>
<wire x1="-3.048" y1="-0.762" x2="-3.302" y2="-0.762" width="0.1524" layer="21"/>
<wire x1="3.048" y1="2.54" x2="2.54" y2="3.048" width="0.1524" layer="51"/>
<wire x1="2.54" y1="-3.048" x2="3.048" y2="-2.54" width="0.1524" layer="51"/>
<wire x1="3.048" y1="-2.54" x2="3.048" y2="-1.016" width="0.1524" layer="51"/>
<wire x1="-2.54" y1="3.048" x2="-3.048" y2="2.54" width="0.1524" layer="51"/>
<wire x1="-3.048" y1="2.54" x2="-3.048" y2="1.016" width="0.1524" layer="51"/>
<wire x1="-2.54" y1="-3.048" x2="-3.048" y2="-2.54" width="0.1524" layer="51"/>
<wire x1="-3.048" y1="-2.54" x2="-3.048" y2="-1.016" width="0.1524" layer="51"/>
<wire x1="-1.27" y1="1.27" x2="-1.27" y2="-1.27" width="0.0508" layer="51"/>
<wire x1="1.27" y1="-1.27" x2="-1.27" y2="-1.27" width="0.0508" layer="51"/>
<wire x1="1.27" y1="-1.27" x2="1.27" y2="1.27" width="0.0508" layer="51"/>
<wire x1="-1.27" y1="1.27" x2="1.27" y2="1.27" width="0.0508" layer="51"/>
<wire x1="-1.27" y1="3.048" x2="-1.27" y2="2.794" width="0.0508" layer="21"/>
<wire x1="1.27" y1="2.794" x2="-1.27" y2="2.794" width="0.0508" layer="21"/>
<wire x1="1.27" y1="2.794" x2="1.27" y2="3.048" width="0.0508" layer="21"/>
<wire x1="1.143" y1="-2.794" x2="-1.27" y2="-2.794" width="0.0508" layer="21"/>
<wire x1="1.143" y1="-2.794" x2="1.143" y2="-3.048" width="0.0508" layer="21"/>
<wire x1="-1.27" y1="-2.794" x2="-1.27" y2="-3.048" width="0.0508" layer="21"/>
<wire x1="2.54" y1="-3.048" x2="2.159" y2="-3.048" width="0.1524" layer="51"/>
<wire x1="-2.54" y1="-3.048" x2="-2.159" y2="-3.048" width="0.1524" layer="51"/>
<wire x1="-2.159" y1="-3.048" x2="-1.27" y2="-3.048" width="0.1524" layer="21"/>
<wire x1="-2.54" y1="3.048" x2="-2.159" y2="3.048" width="0.1524" layer="51"/>
<wire x1="2.54" y1="3.048" x2="2.159" y2="3.048" width="0.1524" layer="51"/>
<wire x1="2.159" y1="3.048" x2="1.27" y2="3.048" width="0.1524" layer="21"/>
<wire x1="1.27" y1="3.048" x2="-1.27" y2="3.048" width="0.1524" layer="21"/>
<wire x1="-1.27" y1="3.048" x2="-2.159" y2="3.048" width="0.1524" layer="21"/>
<wire x1="-1.27" y1="-3.048" x2="1.143" y2="-3.048" width="0.1524" layer="21"/>
<wire x1="1.143" y1="-3.048" x2="2.159" y2="-3.048" width="0.1524" layer="21"/>
<wire x1="3.048" y1="-0.762" x2="3.048" y2="-1.016" width="0.1524" layer="21"/>
<wire x1="3.048" y1="0.762" x2="3.048" y2="1.016" width="0.1524" layer="21"/>
<wire x1="-3.048" y1="-0.762" x2="-3.048" y2="-1.016" width="0.1524" layer="21"/>
<wire x1="-3.048" y1="0.762" x2="-3.048" y2="1.016" width="0.1524" layer="21"/>
<wire x1="-1.27" y1="-2.159" x2="1.27" y2="-2.159" width="0.1524" layer="51"/>
<wire x1="1.27" y1="2.286" x2="-1.27" y2="2.286" width="0.1524" layer="51"/>
<wire x1="-2.413" y1="1.27" x2="-2.413" y2="0.508" width="0.1524" layer="51"/>
<wire x1="-2.413" y1="-0.508" x2="-2.413" y2="-1.27" width="0.1524" layer="51"/>
<wire x1="-2.413" y1="0.508" x2="-2.159" y2="-0.381" width="0.1524" layer="51"/>
<circle x="0" y="0" radius="1.778" width="0.1524" layer="21"/>
<circle x="-2.159" y="-2.159" radius="0.508" width="0.1524" layer="51"/>
<circle x="2.159" y="-2.032" radius="0.508" width="0.1524" layer="51"/>
<circle x="2.159" y="2.159" radius="0.508" width="0.1524" layer="51"/>
<circle x="-2.159" y="2.159" radius="0.508" width="0.1524" layer="51"/>
<circle x="0" y="0" radius="0.635" width="0.0508" layer="51"/>
<circle x="0" y="0" radius="0.254" width="0.1524" layer="21"/>
<smd name="1" x="-3.302" y="2.286" dx="2.286" dy="1.524" layer="1"/>
<smd name="2" x="3.302" y="2.286" dx="2.286" dy="1.524" layer="1"/>
<smd name="3" x="-3.302" y="-2.286" dx="2.286" dy="1.524" layer="1"/>
<smd name="4" x="3.302" y="-2.286" dx="2.286" dy="1.524" layer="1"/>
<text x="-3.048" y="3.683" size="1.27" layer="25" ratio="10">&gt;NAME</text>
<text x="-3.048" y="-5.08" size="1.27" layer="27" ratio="10">&gt;VALUE</text>
<text x="-4.318" y="1.651" size="1.27" layer="51" ratio="10">1</text>
<text x="3.556" y="1.524" size="1.27" layer="51" ratio="10">2</text>
<text x="-4.572" y="-2.794" size="1.27" layer="51" ratio="10">3</text>
<text x="3.556" y="-2.794" size="1.27" layer="51" ratio="10">4</text>
</package>
<package name="5MM">
<description>5 mm, round</description>
<wire x1="2.54" y1="-1.905" x2="2.54" y2="1.905" width="0.2032" layer="21"/>
<wire x1="2.54" y1="-1.905" x2="2.54" y2="1.905" width="0.254" layer="21" curve="-286.260205" cap="flat"/>
<wire x1="-1.143" y1="0" x2="0" y2="1.143" width="0.1524" layer="51" curve="-90" cap="flat"/>
<wire x1="0" y1="-1.143" x2="1.143" y2="0" width="0.1524" layer="51" curve="90" cap="flat"/>
<wire x1="-1.651" y1="0" x2="0" y2="1.651" width="0.1524" layer="51" curve="-90" cap="flat"/>
<wire x1="0" y1="-1.651" x2="1.651" y2="0" width="0.1524" layer="51" curve="90" cap="flat"/>
<wire x1="-2.159" y1="0" x2="0" y2="2.159" width="0.1524" layer="51" curve="-90" cap="flat"/>
<wire x1="0" y1="-2.159" x2="2.159" y2="0" width="0.1524" layer="51" curve="90" cap="flat"/>
<circle x="0" y="0" radius="2.54" width="0.1524" layer="21"/>
<pad name="IN" x="-1.27" y="0" drill="0.8128" diameter="1.4224"/>
<pad name="OUT" x="1.27" y="0" drill="0.8128" diameter="1.4224"/>
<text x="3.175" y="0.5334" size="1.27" layer="25" ratio="10">&gt;NAME</text>
<text x="3.2004" y="-1.8034" size="1.27" layer="27" ratio="10">&gt;VALUE</text>
</package>
<package name="0603">
<description>&lt;b&gt;CAPACITOR&lt;/b&gt;</description>
<wire x1="-1.473" y1="0.5766" x2="1.473" y2="0.5766" width="0.0508" layer="39"/>
<wire x1="1.473" y1="0.5766" x2="1.473" y2="-0.5766" width="0.0508" layer="39"/>
<wire x1="1.473" y1="-0.5766" x2="-1.473" y2="-0.5766" width="0.0508" layer="39"/>
<wire x1="-1.473" y1="-0.5766" x2="-1.473" y2="0.5766" width="0.0508" layer="39"/>
<wire x1="-0.356" y1="0.432" x2="0.356" y2="0.432" width="0.1016" layer="51"/>
<wire x1="-0.356" y1="-0.419" x2="0.356" y2="-0.419" width="0.1016" layer="51"/>
<smd name="1" x="-0.85" y="0" dx="1.1" dy="1" layer="1"/>
<smd name="2" x="0.85" y="0" dx="1.1" dy="1" layer="1"/>
<text x="-0.635" y="0.635" size="1.27" layer="25">&gt;NAME</text>
<text x="-0.635" y="-1.905" size="1.27" layer="27">&gt;VALUE</text>
<rectangle x1="-0.8382" y1="-0.4699" x2="-0.3381" y2="0.4801" layer="51"/>
<rectangle x1="0.3302" y1="-0.4699" x2="0.8303" y2="0.4801" layer="51"/>
<rectangle x1="-0.1999" y1="-0.3" x2="0.1999" y2="0.3" layer="35"/>
</package>
</packages>
<symbols>
<symbol name="ATTINY24/44/84">
<wire x1="-2.54" y1="17.78" x2="45.72" y2="17.78" width="0.254" layer="94"/>
<wire x1="45.72" y1="17.78" x2="45.72" y2="-17.78" width="0.254" layer="94"/>
<wire x1="45.72" y1="-17.78" x2="-2.54" y2="-17.78" width="0.254" layer="94"/>
<wire x1="-2.54" y1="-17.78" x2="-2.54" y2="17.78" width="0.254" layer="94"/>
<text x="-2.54" y="-20.32" size="1.778" layer="96">&gt;VALUE</text>
<text x="-2.54" y="18.542" size="1.778" layer="95">&gt;NAME</text>
<pin name="GND" x="-7.62" y="-15.24" length="middle" direction="pwr"/>
<pin name="VCC" x="-7.62" y="-2.54" length="middle" direction="pwr"/>
<pin name="(PCINT7/ICP/OC0B/ADC7)PA7" x="50.8" y="2.54" length="middle" rot="R180"/>
<pin name="(PCINT6/OC1A/SDA/MOSI/ADC6)PA6" x="50.8" y="0" length="middle" rot="R180"/>
<pin name="(PCINT5/OC1B/MISO/DO/ADC5)PA5" x="50.8" y="-2.54" length="middle" rot="R180"/>
<pin name="(PCINT4/T1/SCL/USCK/ADC4)PA4" x="50.8" y="-5.08" length="middle" rot="R180"/>
<pin name="(PCINT3/T0/ADC3)PA3" x="50.8" y="-7.62" length="middle" rot="R180"/>
<pin name="(PCINT2/AIN1/ADC2)PA2" x="50.8" y="-10.16" length="middle" rot="R180"/>
<pin name="(PCINT1/AIN0/ADC1)PA1" x="50.8" y="-12.7" length="middle" rot="R180"/>
<pin name="(PCINT0/AREF/ADC0)PA0" x="50.8" y="-15.24" length="middle" rot="R180"/>
<pin name="(PCINT11/RESET/DW)PB3" x="50.8" y="15.24" length="middle" rot="R180"/>
<pin name="(PCINT10/INT0/OC0A/CKOUT)PB2" x="50.8" y="12.7" length="middle" rot="R180"/>
<pin name="(PCINT9/XTAL2)PB1" x="50.8" y="10.16" length="middle" rot="R180"/>
<pin name="(PCINT8/XTAL1/CLKI)PB0" x="50.8" y="7.62" length="middle" rot="R180"/>
</symbol>
<symbol name="AVRISP">
<wire x1="-6.35" y1="-5.08" x2="8.89" y2="-5.08" width="0.4064" layer="94"/>
<wire x1="8.89" y1="-5.08" x2="8.89" y2="5.08" width="0.4064" layer="94"/>
<wire x1="8.89" y1="5.08" x2="-6.35" y2="5.08" width="0.4064" layer="94"/>
<wire x1="-6.35" y1="5.08" x2="-6.35" y2="-5.08" width="0.4064" layer="94"/>
<text x="-6.35" y="5.715" size="1.778" layer="95">&gt;NAME</text>
<text x="-6.35" y="-7.62" size="1.778" layer="96">&gt;VALUE</text>
<text x="-5.08" y="3.175" size="1.27" layer="95">MISO</text>
<text x="-5.08" y="0.635" size="1.27" layer="95">SCK</text>
<text x="-5.08" y="-1.905" size="1.27" layer="95">RST</text>
<text x="7.62" y="3.175" size="1.27" layer="95" rot="MR0">VCC</text>
<text x="7.62" y="0.635" size="1.27" layer="95" rot="MR0">MOSI</text>
<text x="7.62" y="-1.905" size="1.27" layer="95" rot="MR0">GND</text>
<pin name="MISO" x="-2.54" y="2.54" visible="off" length="short" direction="pas" function="dot"/>
<pin name="VCC" x="5.08" y="2.54" visible="off" length="short" direction="pas" function="dot" rot="R180"/>
<pin name="SCK" x="-2.54" y="0" visible="off" length="short" direction="pas" function="dot"/>
<pin name="MOSI" x="5.08" y="0" visible="off" length="short" direction="pas" function="dot" rot="R180"/>
<pin name="RST" x="-2.54" y="-2.54" visible="off" length="short" direction="pas" function="dot"/>
<pin name="GND" x="5.08" y="-2.54" visible="off" length="short" direction="pas" function="dot" rot="R180"/>
</symbol>
<symbol name="CAP-NP">
<wire x1="-1.778" y1="1.524" x2="-1.778" y2="0" width="0.254" layer="94"/>
<wire x1="-1.778" y1="0" x2="-1.778" y2="-1.524" width="0.254" layer="94"/>
<wire x1="-0.762" y1="1.524" x2="-0.762" y2="0" width="0.254" layer="94"/>
<wire x1="-0.762" y1="0" x2="-0.762" y2="-1.524" width="0.254" layer="94"/>
<wire x1="-2.54" y1="0" x2="-1.778" y2="0" width="0.1524" layer="94"/>
<wire x1="-0.762" y1="0" x2="0" y2="0" width="0.1524" layer="94"/>
<text x="-3.81" y="2.54" size="1.778" layer="95">&gt;NAME</text>
<text x="-3.81" y="-3.81" size="1.778" layer="96">&gt;VALUE</text>
<pin name="1" x="-5.08" y="0" visible="off" length="short" direction="pas" swaplevel="1"/>
<pin name="2" x="2.54" y="0" visible="off" length="short" direction="pas" swaplevel="1" rot="R180"/>
</symbol>
<symbol name="Q">
<wire x1="1.016" y1="0" x2="2.54" y2="0" width="0.1524" layer="94"/>
<wire x1="-2.54" y1="0" x2="-1.016" y2="0" width="0.1524" layer="94"/>
<wire x1="-0.381" y1="1.524" x2="-0.381" y2="-1.524" width="0.254" layer="94"/>
<wire x1="-0.381" y1="-1.524" x2="0.381" y2="-1.524" width="0.254" layer="94"/>
<wire x1="0.381" y1="-1.524" x2="0.381" y2="1.524" width="0.254" layer="94"/>
<wire x1="0.381" y1="1.524" x2="-0.381" y2="1.524" width="0.254" layer="94"/>
<wire x1="1.016" y1="1.778" x2="1.016" y2="-1.778" width="0.254" layer="94"/>
<wire x1="-1.016" y1="1.778" x2="-1.016" y2="-1.778" width="0.254" layer="94"/>
<text x="2.54" y="1.016" size="1.778" layer="95">&gt;NAME</text>
<text x="2.54" y="-2.54" size="1.778" layer="96">&gt;VALUE</text>
<text x="-2.159" y="-1.143" size="0.8636" layer="93">1</text>
<text x="1.524" y="-1.143" size="0.8636" layer="93">2</text>
<pin name="2" x="2.54" y="0" visible="off" length="point" direction="pas" swaplevel="1" rot="R180"/>
<pin name="1" x="-2.54" y="0" visible="off" length="point" direction="pas" swaplevel="1"/>
</symbol>
<symbol name="SMT_PINS_3">
<wire x1="-5.08" y1="7.62" x2="-5.08" y2="-2.54" width="0.4064" layer="94"/>
<wire x1="-5.08" y1="-2.54" x2="2.54" y2="-2.54" width="0.4064" layer="94"/>
<wire x1="2.54" y1="-2.54" x2="2.54" y2="7.62" width="0.4064" layer="94"/>
<wire x1="2.54" y1="7.62" x2="-5.08" y2="7.62" width="0.4064" layer="94"/>
<wire x1="-2.54" y1="5.08" x2="-1.27" y2="5.08" width="0.254" layer="94"/>
<wire x1="-2.54" y1="2.54" x2="-1.27" y2="2.54" width="0.254" layer="94"/>
<wire x1="-2.54" y1="0" x2="-1.27" y2="0" width="0.254" layer="94"/>
<circle x="0" y="0" radius="1.016" width="0.254" layer="94"/>
<circle x="0" y="2.54" radius="1.016" width="0.254" layer="94"/>
<circle x="0" y="5.08" radius="1.016" width="0.254" layer="94"/>
<text x="-5.08" y="8.89" size="1.9304" layer="95">&gt;NAME</text>
<pin name="P$1" x="-2.54" y="0" visible="pad" length="point"/>
<pin name="P$2" x="-2.54" y="2.54" visible="pad" length="point"/>
<pin name="P$3" x="-2.54" y="5.08" visible="pad" length="point"/>
</symbol>
<symbol name="RESISTOR">
<wire x1="-2.54" y1="0" x2="-2.159" y2="1.016" width="0.2032" layer="94"/>
<wire x1="-2.159" y1="1.016" x2="-1.524" y2="-1.016" width="0.2032" layer="94"/>
<wire x1="-1.524" y1="-1.016" x2="-0.889" y2="1.016" width="0.2032" layer="94"/>
<wire x1="-0.889" y1="1.016" x2="-0.254" y2="-1.016" width="0.2032" layer="94"/>
<wire x1="-0.254" y1="-1.016" x2="0.381" y2="1.016" width="0.2032" layer="94"/>
<wire x1="0.381" y1="1.016" x2="1.016" y2="-1.016" width="0.2032" layer="94"/>
<wire x1="1.016" y1="-1.016" x2="1.651" y2="1.016" width="0.2032" layer="94"/>
<wire x1="1.651" y1="1.016" x2="2.286" y2="-1.016" width="0.2032" layer="94"/>
<wire x1="2.286" y1="-1.016" x2="2.54" y2="0" width="0.2032" layer="94"/>
<text x="-3.81" y="1.4986" size="1.778" layer="95">&gt;NAME</text>
<text x="-3.81" y="-3.302" size="1.778" layer="96">&gt;VALUE</text>
<pin name="2" x="5.08" y="0" visible="off" length="short" direction="pas" swaplevel="1" rot="R180"/>
<pin name="1" x="-5.08" y="0" visible="off" length="short" direction="pas" swaplevel="1"/>
</symbol>
<symbol name="TS2">
<wire x1="0" y1="1.905" x2="0" y2="2.54" width="0.254" layer="94"/>
<wire x1="-4.445" y1="1.905" x2="-3.175" y2="1.905" width="0.254" layer="94"/>
<wire x1="-4.445" y1="-1.905" x2="-3.175" y2="-1.905" width="0.254" layer="94"/>
<wire x1="-4.445" y1="1.905" x2="-4.445" y2="0" width="0.254" layer="94"/>
<wire x1="-4.445" y1="0" x2="-4.445" y2="-1.905" width="0.254" layer="94"/>
<wire x1="-2.54" y1="0" x2="-1.905" y2="0" width="0.1524" layer="94"/>
<wire x1="-1.27" y1="0" x2="-0.635" y2="0" width="0.1524" layer="94"/>
<wire x1="-4.445" y1="0" x2="-3.175" y2="0" width="0.1524" layer="94"/>
<wire x1="2.54" y1="2.54" x2="0" y2="2.54" width="0.1524" layer="94"/>
<wire x1="2.54" y1="-2.54" x2="0" y2="-2.54" width="0.1524" layer="94"/>
<wire x1="0" y1="-2.54" x2="-1.27" y2="1.905" width="0.254" layer="94"/>
<circle x="0" y="-2.54" radius="0.127" width="0.4064" layer="94"/>
<circle x="0" y="2.54" radius="0.127" width="0.4064" layer="94"/>
<text x="-6.35" y="-2.54" size="1.778" layer="95" rot="R90">&gt;NAME</text>
<text x="-3.81" y="3.175" size="1.778" layer="96" rot="R90">&gt;VALUE</text>
<pin name="P" x="0" y="-5.08" visible="pad" length="short" direction="pas" swaplevel="2" rot="R90"/>
<pin name="S" x="0" y="5.08" visible="pad" length="short" direction="pas" swaplevel="1" rot="R270"/>
<pin name="S1" x="2.54" y="5.08" visible="pad" length="short" direction="pas" swaplevel="1" rot="R270"/>
<pin name="P1" x="2.54" y="-5.08" visible="pad" length="short" direction="pas" swaplevel="2" rot="R90"/>
</symbol>
<symbol name="LED">
<wire x1="1.27" y1="2.54" x2="0" y2="0" width="0.254" layer="94"/>
<wire x1="0" y1="0" x2="-1.27" y2="2.54" width="0.254" layer="94"/>
<wire x1="1.27" y1="0" x2="0" y2="0" width="0.254" layer="94"/>
<wire x1="0" y1="0" x2="-1.27" y2="0" width="0.254" layer="94"/>
<wire x1="1.27" y1="2.54" x2="0" y2="2.54" width="0.254" layer="94"/>
<wire x1="0" y1="2.54" x2="-1.27" y2="2.54" width="0.254" layer="94"/>
<wire x1="0" y1="2.54" x2="0" y2="0" width="0.1524" layer="94"/>
<wire x1="-2.032" y1="1.778" x2="-3.429" y2="0.381" width="0.1524" layer="94"/>
<wire x1="-1.905" y1="0.635" x2="-3.302" y2="-0.762" width="0.1524" layer="94"/>
<text x="3.556" y="-2.032" size="1.778" layer="95" rot="R90">&gt;NAME</text>
<text x="5.715" y="-2.032" size="1.778" layer="96" rot="R90">&gt;VALUE</text>
<pin name="C" x="0" y="-2.54" visible="off" length="short" direction="pas" rot="R90"/>
<pin name="A" x="0" y="5.08" visible="off" length="short" direction="pas" rot="R270"/>
<polygon width="0.1524" layer="94">
<vertex x="-3.429" y="0.381"/>
<vertex x="-3.048" y="1.27"/>
<vertex x="-2.54" y="0.762"/>
</polygon>
<polygon width="0.1524" layer="94">
<vertex x="-3.302" y="-0.762"/>
<vertex x="-2.921" y="0.127"/>
<vertex x="-2.413" y="-0.381"/>
</polygon>
</symbol>
</symbols>
<devicesets>
<deviceset name="ATTINY44" prefix="IC">
<gates>
<gate name="1" symbol="ATTINY24/44/84" x="0" y="0"/>
</gates>
<devices>
<device name="-SSU" package="SOIC14">
<connects>
<connect gate="1" pin="(PCINT0/AREF/ADC0)PA0" pad="13"/>
<connect gate="1" pin="(PCINT1/AIN0/ADC1)PA1" pad="12"/>
<connect gate="1" pin="(PCINT10/INT0/OC0A/CKOUT)PB2" pad="5"/>
<connect gate="1" pin="(PCINT11/RESET/DW)PB3" pad="4"/>
<connect gate="1" pin="(PCINT2/AIN1/ADC2)PA2" pad="11"/>
<connect gate="1" pin="(PCINT3/T0/ADC3)PA3" pad="10"/>
<connect gate="1" pin="(PCINT4/T1/SCL/USCK/ADC4)PA4" pad="9"/>
<connect gate="1" pin="(PCINT5/OC1B/MISO/DO/ADC5)PA5" pad="8"/>
<connect gate="1" pin="(PCINT6/OC1A/SDA/MOSI/ADC6)PA6" pad="7"/>
<connect gate="1" pin="(PCINT7/ICP/OC0B/ADC7)PA7" pad="6"/>
<connect gate="1" pin="(PCINT8/XTAL1/CLKI)PB0" pad="2"/>
<connect gate="1" pin="(PCINT9/XTAL2)PB1" pad="3"/>
<connect gate="1" pin="GND" pad="14"/>
<connect gate="1" pin="VCC" pad="1"/>
</connects>
<technologies>
<technology name=""/>
</technologies>
</device>
<device name="-PU" package="DIL14">
<connects>
<connect gate="1" pin="(PCINT0/AREF/ADC0)PA0" pad="13"/>
<connect gate="1" pin="(PCINT1/AIN0/ADC1)PA1" pad="12"/>
<connect gate="1" pin="(PCINT10/INT0/OC0A/CKOUT)PB2" pad="5"/>
<connect gate="1" pin="(PCINT11/RESET/DW)PB3" pad="4"/>
<connect gate="1" pin="(PCINT2/AIN1/ADC2)PA2" pad="11"/>
<connect gate="1" pin="(PCINT3/T0/ADC3)PA3" pad="10"/>
<connect gate="1" pin="(PCINT4/T1/SCL/USCK/ADC4)PA4" pad="9"/>
<connect gate="1" pin="(PCINT5/OC1B/MISO/DO/ADC5)PA5" pad="8"/>
<connect gate="1" pin="(PCINT6/OC1A/SDA/MOSI/ADC6)PA6" pad="7"/>
<connect gate="1" pin="(PCINT7/ICP/OC0B/ADC7)PA7" pad="6"/>
<connect gate="1" pin="(PCINT8/XTAL1/CLKI)PB0" pad="2"/>
<connect gate="1" pin="(PCINT9/XTAL2)PB1" pad="3"/>
<connect gate="1" pin="GND" pad="14"/>
<connect gate="1" pin="VCC" pad="1"/>
</connects>
<technologies>
<technology name=""/>
</technologies>
</device>
<device name="-MU" package="QFN/MLF20">
<connects>
<connect gate="1" pin="(PCINT0/AREF/ADC0)PA0" pad="5"/>
<connect gate="1" pin="(PCINT1/AIN0/ADC1)PA1" pad="4"/>
<connect gate="1" pin="(PCINT10/INT0/OC0A/CKOUT)PB2" pad="14"/>
<connect gate="1" pin="(PCINT11/RESET/DW)PB3" pad="13"/>
<connect gate="1" pin="(PCINT2/AIN1/ADC2)PA2" pad="3"/>
<connect gate="1" pin="(PCINT3/T0/ADC3)PA3" pad="2"/>
<connect gate="1" pin="(PCINT4/T1/SCL/USCK/ADC4)PA4" pad="1"/>
<connect gate="1" pin="(PCINT5/OC1B/MISO/DO/ADC5)PA5" pad="20"/>
<connect gate="1" pin="(PCINT6/OC1A/SDA/MOSI/ADC6)PA6" pad="16"/>
<connect gate="1" pin="(PCINT7/ICP/OC0B/ADC7)PA7" pad="15"/>
<connect gate="1" pin="(PCINT8/XTAL1/CLKI)PB0" pad="11"/>
<connect gate="1" pin="(PCINT9/XTAL2)PB1" pad="12"/>
<connect gate="1" pin="GND" pad="8"/>
<connect gate="1" pin="VCC" pad="9"/>
</connects>
<technologies>
<technology name=""/>
</technologies>
</device>
</devices>
</deviceset>
<deviceset name="AVRISP">
<gates>
<gate name="G$1" symbol="AVRISP" x="0" y="0"/>
</gates>
<devices>
<device name="SMD" package="2X03SMD">
<connects>
<connect gate="G$1" pin="GND" pad="6"/>
<connect gate="G$1" pin="MISO" pad="1"/>
<connect gate="G$1" pin="MOSI" pad="4"/>
<connect gate="G$1" pin="RST" pad="5"/>
<connect gate="G$1" pin="SCK" pad="3"/>
<connect gate="G$1" pin="VCC" pad="2"/>
</connects>
<technologies>
<technology name=""/>
</technologies>
</device>
<device name="" package="2X03">
<connects>
<connect gate="G$1" pin="GND" pad="6"/>
<connect gate="G$1" pin="MISO" pad="1"/>
<connect gate="G$1" pin="MOSI" pad="4"/>
<connect gate="G$1" pin="RST" pad="5"/>
<connect gate="G$1" pin="SCK" pad="3"/>
<connect gate="G$1" pin="VCC" pad="2"/>
</connects>
<technologies>
<technology name=""/>
</technologies>
</device>
</devices>
</deviceset>
<deviceset name="UNPOLARIZED_CAPACITOR" prefix="C" uservalue="yes">
<description>unpolarized_capacitor</description>
<gates>
<gate name="1" symbol="CAP-NP" x="1.27" y="0"/>
</gates>
<devices>
<device name="1206" package="1206">
<connects>
<connect gate="1" pin="1" pad="1"/>
<connect gate="1" pin="2" pad="2"/>
</connects>
<technologies>
<technology name=""/>
</technologies>
</device>
</devices>
</deviceset>
<deviceset name="CSM-7X-DU" prefix="Q">
<description>&lt;b&gt;SMD CRYSTAL&lt;/b&gt;&lt;p&gt;
Source: www.ecsxtal.com .. Crystal 3.6864MHz CSM_7X_DU.PDF</description>
<gates>
<gate name="P" symbol="Q" x="0" y="0"/>
</gates>
<devices>
<device name="" package="CSM-7X-DU">
<connects>
<connect gate="P" pin="1" pad="1"/>
<connect gate="P" pin="2" pad="2"/>
</connects>
<technologies>
<technology name="">
<attribute name="MF" value="" constant="no"/>
<attribute name="MPN" value="" constant="no"/>
<attribute name="OC_FARNELL" value="unknown" constant="no"/>
<attribute name="OC_NEWARK" value="unknown" constant="no"/>
</technology>
</technologies>
</device>
</devices>
</deviceset>
<deviceset name="3_PIN_HEADER" uservalue="yes">
<description>3 SMT pin pads</description>
<gates>
<gate name="G$1" symbol="SMT_PINS_3" x="0" y="0"/>
</gates>
<devices>
<device name="HEADER" package="SMT_PINS_3">
<connects>
<connect gate="G$1" pin="P$1" pad="1"/>
<connect gate="G$1" pin="P$2" pad="2"/>
<connect gate="G$1" pin="P$3" pad="3"/>
</connects>
<technologies>
<technology name=""/>
</technologies>
</device>
</devices>
</deviceset>
<deviceset name="RESISTOR" prefix="R" uservalue="yes">
<gates>
<gate name="G$1" symbol="RESISTOR" x="0" y="0"/>
</gates>
<devices>
<device name="1206" package="1206">
<connects>
<connect gate="G$1" pin="1" pad="1"/>
<connect gate="G$1" pin="2" pad="2"/>
</connects>
<technologies>
<technology name=""/>
</technologies>
</device>
<device name="0402" package="0402">
<connects>
<connect gate="G$1" pin="1" pad="1"/>
<connect gate="G$1" pin="2" pad="2"/>
</connects>
<technologies>
<technology name=""/>
</technologies>
</device>
</devices>
</deviceset>
<deviceset name="6MM_SWITCH" prefix="S" uservalue="yes">
<description>&lt;b&gt;OMRON SWITCH&lt;/b&gt;</description>
<gates>
<gate name="2" symbol="TS2" x="0" y="0"/>
</gates>
<devices>
<device name="6MM_SWITCH" package="6MM_SWITCH">
<connects>
<connect gate="2" pin="P" pad="1"/>
<connect gate="2" pin="P1" pad="2"/>
<connect gate="2" pin="S" pad="3"/>
<connect gate="2" pin="S1" pad="4"/>
</connects>
<technologies>
<technology name=""/>
</technologies>
</device>
</devices>
</deviceset>
<deviceset name="LED" uservalue="yes">
<gates>
<gate name="G$1" symbol="LED" x="0" y="0"/>
</gates>
<devices>
<device name="1206" package="1206">
<connects>
<connect gate="G$1" pin="A" pad="1"/>
<connect gate="G$1" pin="C" pad="2"/>
</connects>
<technologies>
<technology name=""/>
</technologies>
</device>
<device name="0402" package="0402">
<connects>
<connect gate="G$1" pin="A" pad="1"/>
<connect gate="G$1" pin="C" pad="2"/>
</connects>
<technologies>
<technology name=""/>
</technologies>
</device>
<device name="5MM" package="5MM">
<connects>
<connect gate="G$1" pin="A" pad="IN"/>
<connect gate="G$1" pin="C" pad="OUT"/>
</connects>
<technologies>
<technology name=""/>
</technologies>
</device>
<device name="0603" package="0603">
<connects>
<connect gate="G$1" pin="A" pad="1"/>
<connect gate="G$1" pin="C" pad="2"/>
</connects>
<technologies>
<technology name=""/>
</technologies>
</device>
</devices>
</deviceset>
</devicesets>
</library>
</libraries>
<attributes>
</attributes>
<variantdefs>
</variantdefs>
<classes>
<class number="0" name="default" width="0" drill="0">
</class>
</classes>
<parts>
<part name="IC1" library="FAB_Hello" deviceset="ATTINY44" device="-SSU"/>
<part name="U$1" library="FAB_Hello" deviceset="AVRISP" device="SMD"/>
<part name="C1" library="FAB_Hello" deviceset="UNPOLARIZED_CAPACITOR" device="1206" value="1uF"/>
<part name="Q1" library="FAB_Hello" deviceset="CSM-7X-DU" device="" value="20MHZ"/>
<part name="U$2" library="FAB_Hello" deviceset="3_PIN_HEADER" device="HEADER"/>
<part name="U$3" library="FAB_Hello" deviceset="3_PIN_HEADER" device="HEADER"/>
<part name="R1" library="FAB_Hello" deviceset="RESISTOR" device="1206" value="10k"/>
<part name="S1" library="FAB_Hello" deviceset="6MM_SWITCH" device="6MM_SWITCH"/>
<part name="U$4" library="FAB_Hello" deviceset="LED" device="1206"/>
<part name="R3" library="FAB_Hello" deviceset="RESISTOR" device="1206" value="499"/>
</parts>
<sheets>
<sheet>
<plain>
</plain>
<instances>
<instance part="IC1" gate="1" x="58.42" y="43.18" smashed="yes">
<attribute name="VALUE" x="55.88" y="22.86" size="1.778" layer="96"/>
<attribute name="NAME" x="55.88" y="61.722" size="1.778" layer="95"/>
</instance>
<instance part="U$1" gate="G$1" x="154.94" y="27.94" smashed="yes">
<attribute name="NAME" x="148.59" y="33.655" size="1.778" layer="95"/>
<attribute name="VALUE" x="148.59" y="20.32" size="1.778" layer="96"/>
</instance>
<instance part="C1" gate="1" x="43.18" y="48.26" smashed="yes">
<attribute name="NAME" x="39.37" y="50.8" size="1.778" layer="95"/>
<attribute name="VALUE" x="39.37" y="44.45" size="1.778" layer="96"/>
</instance>
<instance part="Q1" gate="P" x="127" y="53.34" smashed="yes" rot="R270">
<attribute name="NAME" x="128.016" y="50.8" size="1.778" layer="95" rot="R270"/>
<attribute name="VALUE" x="124.46" y="50.8" size="1.778" layer="96" rot="R270"/>
</instance>
<instance part="U$2" gate="G$1" x="137.16" y="5.08" smashed="yes">
<attribute name="NAME" x="132.08" y="13.97" size="1.9304" layer="95"/>
</instance>
<instance part="U$3" gate="G$1" x="137.16" y="-5.08" smashed="yes">
<attribute name="NAME" x="132.08" y="3.81" size="1.9304" layer="95"/>
</instance>
<instance part="R1" gate="G$1" x="167.64" y="43.18" smashed="yes" rot="R180">
<attribute name="NAME" x="171.45" y="41.6814" size="1.778" layer="95" rot="R180"/>
<attribute name="VALUE" x="171.45" y="46.482" size="1.778" layer="96" rot="R180"/>
</instance>
<instance part="S1" gate="2" x="20.32" y="55.88" smashed="yes" rot="R270">
<attribute name="NAME" x="17.78" y="62.23" size="1.778" layer="95"/>
<attribute name="VALUE" x="23.495" y="59.69" size="1.778" layer="96"/>
</instance>
<instance part="U$4" gate="G$1" x="22.86" y="68.58" smashed="yes" rot="R90">
<attribute name="NAME" x="24.892" y="72.136" size="1.778" layer="95" rot="R180"/>
<attribute name="VALUE" x="24.892" y="74.295" size="1.778" layer="96" rot="R180"/>
</instance>
<instance part="R3" gate="G$1" x="33.02" y="68.58" smashed="yes">
<attribute name="NAME" x="29.21" y="70.0786" size="1.778" layer="95"/>
<attribute name="VALUE" x="29.21" y="65.278" size="1.778" layer="96"/>
</instance>
</instances>
<busses>
</busses>
<nets>
<net name="N$3" class="0">
<segment>
<wire x1="121.92" y1="53.34" x2="109.22" y2="53.34" width="0.1524" layer="91"/>
<pinref part="IC1" gate="1" pin="(PCINT9/XTAL2)PB1"/>
<wire x1="121.92" y1="53.34" x2="121.92" y2="58.42" width="0.1524" layer="91"/>
<pinref part="Q1" gate="P" pin="1"/>
<wire x1="127" y1="55.88" x2="127" y2="58.42" width="0.1524" layer="91"/>
<wire x1="127" y1="58.42" x2="121.92" y2="58.42" width="0.1524" layer="91"/>
</segment>
</net>
<net name="N$4" class="0">
<segment>
<pinref part="Q1" gate="P" pin="2"/>
<wire x1="127" y1="50.8" x2="127" y2="48.26" width="0.1524" layer="91"/>
<wire x1="127" y1="48.26" x2="121.92" y2="48.26" width="0.1524" layer="91"/>
<wire x1="121.92" y1="48.26" x2="121.92" y2="50.8" width="0.1524" layer="91"/>
<pinref part="IC1" gate="1" pin="(PCINT8/XTAL1/CLKI)PB0"/>
<wire x1="121.92" y1="50.8" x2="109.22" y2="50.8" width="0.1524" layer="91"/>
</segment>
</net>
<net name="GND" class="0">
<segment>
<pinref part="IC1" gate="1" pin="GND"/>
<wire x1="50.8" y1="27.94" x2="48.26" y2="27.94" width="0.1524" layer="91"/>
<wire x1="48.26" y1="27.94" x2="48.26" y2="48.26" width="0.1524" layer="91"/>
<wire x1="48.26" y1="48.26" x2="48.26" y2="68.58" width="0.1524" layer="91"/>
<wire x1="48.26" y1="68.58" x2="132.08" y2="68.58" width="0.1524" layer="91"/>
<wire x1="132.08" y1="68.58" x2="144.78" y2="68.58" width="0.1524" layer="91"/>
<pinref part="C1" gate="1" pin="2"/>
<wire x1="45.72" y1="48.26" x2="48.26" y2="48.26" width="0.1524" layer="91"/>
<junction x="48.26" y="48.26"/>
<wire x1="127" y1="53.34" x2="132.08" y2="53.34" width="0.1524" layer="91"/>
<wire x1="132.08" y1="53.34" x2="132.08" y2="68.58" width="0.1524" layer="91"/>
<label x="144.78" y="68.58" size="1.778" layer="95" xref="yes"/>
<wire x1="48.26" y1="68.58" x2="38.1" y2="68.58" width="0.1524" layer="91"/>
<junction x="48.26" y="68.58"/>
<pinref part="R3" gate="G$1" pin="2"/>
</segment>
<segment>
<pinref part="U$1" gate="G$1" pin="GND"/>
<wire x1="160.02" y1="25.4" x2="170.18" y2="25.4" width="0.1524" layer="91"/>
<label x="170.18" y="25.4" size="1.778" layer="95" xref="yes"/>
</segment>
<segment>
<pinref part="U$2" gate="G$1" pin="P$3"/>
<wire x1="134.62" y1="10.16" x2="129.54" y2="10.16" width="0.1524" layer="91"/>
<label x="129.54" y="10.16" size="1.778" layer="95" rot="R180" xref="yes"/>
</segment>
</net>
<net name="MISO" class="0">
<segment>
<pinref part="IC1" gate="1" pin="(PCINT5/OC1B/MISO/DO/ADC5)PA5"/>
<wire x1="109.22" y1="40.64" x2="134.62" y2="40.64" width="0.1524" layer="91"/>
<label x="134.62" y="40.64" size="1.778" layer="95" xref="yes"/>
</segment>
<segment>
<pinref part="U$1" gate="G$1" pin="MISO"/>
<wire x1="152.4" y1="30.48" x2="144.78" y2="30.48" width="0.1524" layer="91"/>
<label x="144.78" y="30.48" size="1.778" layer="95" rot="R180" xref="yes"/>
</segment>
</net>
<net name="SCK" class="0">
<segment>
<pinref part="IC1" gate="1" pin="(PCINT4/T1/SCL/USCK/ADC4)PA4"/>
<wire x1="109.22" y1="38.1" x2="134.62" y2="38.1" width="0.1524" layer="91"/>
<label x="134.62" y="38.1" size="1.778" layer="95" xref="yes"/>
</segment>
<segment>
<pinref part="U$1" gate="G$1" pin="SCK"/>
<wire x1="152.4" y1="27.94" x2="144.78" y2="27.94" width="0.1524" layer="91"/>
<label x="144.78" y="27.94" size="1.778" layer="95" rot="R180" xref="yes"/>
</segment>
</net>
<net name="RST" class="0">
<segment>
<pinref part="U$1" gate="G$1" pin="RST"/>
<wire x1="152.4" y1="25.4" x2="144.78" y2="25.4" width="0.1524" layer="91"/>
<label x="144.78" y="25.4" size="1.778" layer="95" rot="R180" xref="yes"/>
</segment>
<segment>
<wire x1="119.38" y1="58.42" x2="119.38" y2="63.5" width="0.1524" layer="91"/>
<pinref part="IC1" gate="1" pin="(PCINT11/RESET/DW)PB3"/>
<wire x1="109.22" y1="58.42" x2="119.38" y2="58.42" width="0.1524" layer="91"/>
<wire x1="119.38" y1="63.5" x2="162.56" y2="63.5" width="0.1524" layer="91"/>
<pinref part="R1" gate="G$1" pin="2"/>
<wire x1="162.56" y1="63.5" x2="162.56" y2="43.18" width="0.1524" layer="91"/>
<label x="162.56" y="63.5" size="1.778" layer="95" xref="yes"/>
</segment>
</net>
<net name="MOSI" class="0">
<segment>
<pinref part="IC1" gate="1" pin="(PCINT6/OC1A/SDA/MOSI/ADC6)PA6"/>
<wire x1="109.22" y1="43.18" x2="134.62" y2="43.18" width="0.1524" layer="91"/>
<label x="134.62" y="43.18" size="1.778" layer="95" xref="yes"/>
</segment>
<segment>
<pinref part="U$1" gate="G$1" pin="MOSI"/>
<wire x1="160.02" y1="27.94" x2="170.18" y2="27.94" width="0.1524" layer="91"/>
<label x="170.18" y="27.94" size="1.778" layer="95" xref="yes"/>
</segment>
</net>
<net name="TX" class="0">
<segment>
<pinref part="U$3" gate="G$1" pin="P$3"/>
<wire x1="134.62" y1="0" x2="129.54" y2="0" width="0.1524" layer="91"/>
<label x="129.54" y="0" size="1.778" layer="95" rot="R180" xref="yes"/>
</segment>
<segment>
<pinref part="IC1" gate="1" pin="(PCINT0/AREF/ADC0)PA0"/>
<wire x1="109.22" y1="27.94" x2="111.76" y2="27.94" width="0.1524" layer="91"/>
<label x="111.76" y="27.94" size="1.778" layer="95" xref="yes"/>
</segment>
</net>
<net name="RX" class="0">
<segment>
<pinref part="U$3" gate="G$1" pin="P$2"/>
<wire x1="134.62" y1="-2.54" x2="129.54" y2="-2.54" width="0.1524" layer="91"/>
<label x="129.54" y="-2.54" size="1.778" layer="95" rot="R180" xref="yes"/>
</segment>
<segment>
<pinref part="IC1" gate="1" pin="(PCINT1/AIN0/ADC1)PA1"/>
<wire x1="109.22" y1="30.48" x2="111.76" y2="30.48" width="0.1524" layer="91"/>
<label x="111.76" y="30.48" size="1.778" layer="95" xref="yes"/>
</segment>
</net>
<net name="BTN" class="0">
<segment>
<pinref part="S1" gate="2" pin="P"/>
<wire x1="10.16" y1="55.88" x2="15.24" y2="55.88" width="0.1524" layer="91"/>
<label x="10.16" y="55.88" size="1.778" layer="95" rot="R180" xref="yes"/>
</segment>
<segment>
<pinref part="IC1" gate="1" pin="(PCINT3/T0/ADC3)PA3"/>
<wire x1="109.22" y1="35.56" x2="111.76" y2="35.56" width="0.1524" layer="91"/>
<label x="111.76" y="35.56" size="1.778" layer="95" xref="yes"/>
</segment>
</net>
<net name="LED" class="0">
<segment>
<pinref part="U$4" gate="G$1" pin="A"/>
<wire x1="10.16" y1="68.58" x2="17.78" y2="68.58" width="0.1524" layer="91"/>
<label x="10.16" y="68.58" size="1.778" layer="95" rot="R180" xref="yes"/>
</segment>
<segment>
<pinref part="IC1" gate="1" pin="(PCINT7/ICP/OC0B/ADC7)PA7"/>
<wire x1="109.22" y1="45.72" x2="111.76" y2="45.72" width="0.1524" layer="91"/>
<label x="111.76" y="45.72" size="1.778" layer="95" xref="yes"/>
</segment>
</net>
<net name="N$2" class="0">
<segment>
<pinref part="U$4" gate="G$1" pin="C"/>
<pinref part="R3" gate="G$1" pin="1"/>
<wire x1="25.4" y1="68.58" x2="27.94" y2="68.58" width="0.1524" layer="91"/>
</segment>
</net>
<net name="VCC" class="0">
<segment>
<pinref part="R1" gate="G$1" pin="1"/>
<wire x1="172.72" y1="43.18" x2="185.42" y2="43.18" width="0.1524" layer="91"/>
<wire x1="185.42" y1="43.18" x2="185.42" y2="30.48" width="0.1524" layer="91"/>
<pinref part="U$1" gate="G$1" pin="VCC"/>
<wire x1="185.42" y1="30.48" x2="160.02" y2="30.48" width="0.1524" layer="91"/>
<label x="185.42" y="43.18" size="1.778" layer="95" xref="yes"/>
<wire x1="33.02" y1="48.26" x2="33.02" y2="40.64" width="0.1524" layer="91"/>
<wire x1="33.02" y1="40.64" x2="33.02" y2="17.78" width="0.1524" layer="91"/>
<pinref part="C1" gate="1" pin="1"/>
<wire x1="33.02" y1="17.78" x2="33.02" y2="5.08" width="0.1524" layer="91"/>
<wire x1="38.1" y1="48.26" x2="33.02" y2="48.26" width="0.1524" layer="91"/>
<pinref part="U$2" gate="G$1" pin="P$1"/>
<wire x1="134.62" y1="5.08" x2="33.02" y2="5.08" width="0.1524" layer="91"/>
<pinref part="IC1" gate="1" pin="VCC"/>
<wire x1="50.8" y1="40.64" x2="33.02" y2="40.64" width="0.1524" layer="91"/>
<junction x="33.02" y="40.64"/>
<wire x1="185.42" y1="30.48" x2="185.42" y2="17.78" width="0.1524" layer="91"/>
<wire x1="185.42" y1="17.78" x2="33.02" y2="17.78" width="0.1524" layer="91"/>
<junction x="185.42" y="30.48"/>
<junction x="33.02" y="17.78"/>
</segment>
<segment>
<pinref part="S1" gate="2" pin="S"/>
<wire x1="25.4" y1="55.88" x2="30.48" y2="55.88" width="0.1524" layer="91"/>
<label x="30.48" y="55.88" size="1.778" layer="95" xref="yes"/>
</segment>
</net>
</nets>
</sheet>
</sheets>
</schematic>
</drawing>
</eagle>
