EESchema Schematic File Version 4
LIBS:final-cache
EELAYER 26 0
EELAYER END
$Descr A4 11693 8268
encoding utf-8
Sheet 1 1
Title ""
Date ""
Rev ""
Comp ""
Comment1 ""
Comment2 ""
Comment3 ""
Comment4 ""
$EndDescr
$Comp
L a_fab:CRYSTAL M1
U 1 1 5CDB0C8C
P 6500 3300
F 0 "M1" V 6458 3398 45  0000 L CNN
F 1 "16MHz" V 6542 3398 45  0000 L CNN
F 2 "a_fab:fab-2-SMD-5X3MM" H 6530 3450 20  0001 C CNN
F 3 "" H 6500 3300 50  0001 C CNN
	1    6500 3300
	0    1    1    0   
$EndComp
Wire Wire Line
	5900 3350 5700 3350
Wire Wire Line
	5100 2350 5100 2250
$Comp
L power:GND #PWR01
U 1 1 5CDB1239
P 5100 5650
F 0 "#PWR01" H 5100 5400 50  0001 C CNN
F 1 "GND" H 5105 5477 50  0000 C CNN
F 2 "" H 5100 5650 50  0001 C CNN
F 3 "" H 5100 5650 50  0001 C CNN
	1    5100 5650
	1    0    0    -1  
$EndComp
Wire Wire Line
	5100 5650 5100 5500
$Comp
L a_fab:RES-US1206 R2
U 1 1 5CDAD9C8
P 6200 3300
F 0 "R2" V 6158 3368 45  0000 L CNN
F 1 "1M" V 6242 3368 45  0000 L CNN
F 2 "a_fab:fab-R1206" H 6230 3450 20  0001 C CNN
F 3 "" H 6200 3300 50  0001 C CNN
	1    6200 3300
	0    1    1    0   
$EndComp
$Comp
L a_fab:CAP-UNPOLARIZED C2
U 1 1 5CDADBEF
P 6850 3150
F 0 "C2" H 6800 2936 45  0000 C CNN
F 1 "22pf" H 6800 3020 45  0000 C CNN
F 2 "Capacitor_SMD:C_1206_3216Metric" H 6880 3300 20  0001 C CNN
F 3 "" H 6850 3150 50  0001 C CNN
	1    6850 3150
	-1   0    0    1   
$EndComp
$Comp
L a_fab:CAP-UNPOLARIZED C3
U 1 1 5CDADC4E
P 6850 3500
F 0 "C3" H 6800 3286 45  0000 C CNN
F 1 "22pf" H 6800 3370 45  0000 C CNN
F 2 "Capacitor_SMD:C_1206_3216Metric" H 6880 3650 20  0001 C CNN
F 3 "" H 6850 3500 50  0001 C CNN
	1    6850 3500
	-1   0    0    1   
$EndComp
Wire Wire Line
	6200 3100 6500 3100
Wire Wire Line
	6500 3100 6500 3200
Wire Wire Line
	6500 3200 6750 3200
Wire Wire Line
	6750 3200 6750 3150
Connection ~ 6500 3200
Wire Wire Line
	5900 3500 6200 3500
Wire Wire Line
	5900 3350 5900 3500
Wire Wire Line
	6200 3500 6500 3500
Wire Wire Line
	6500 3500 6500 3400
Connection ~ 6200 3500
Wire Wire Line
	6500 3400 6750 3400
Wire Wire Line
	6750 3400 6750 3500
Connection ~ 6500 3400
$Comp
L power:GND #PWR02
U 1 1 5CDAE00A
P 7050 3300
F 0 "#PWR02" H 7050 3050 50  0001 C CNN
F 1 "GND" V 7055 3172 50  0000 R CNN
F 2 "" H 7050 3300 50  0001 C CNN
F 3 "" H 7050 3300 50  0001 C CNN
	1    7050 3300
	0    -1   -1   0   
$EndComp
Wire Wire Line
	7050 3150 7050 3300
Wire Wire Line
	7050 3500 7050 3300
Connection ~ 7050 3300
Wire Wire Line
	5200 2350 5200 2250
Wire Wire Line
	5200 2250 5100 2250
Connection ~ 5100 2250
Wire Wire Line
	5100 2250 4400 2250
$Comp
L a_fab:CAP-UNPOLARIZED C1
U 1 1 5CDAE965
P 4850 5500
F 0 "C1" H 4800 5714 45  0000 C CNN
F 1 "100nf" H 4800 5630 45  0000 C CNN
F 2 "Capacitor_SMD:C_1206_3216Metric" H 4880 5650 20  0001 C CNN
F 3 "" H 4850 5500 50  0001 C CNN
	1    4850 5500
	1    0    0    -1  
$EndComp
Wire Wire Line
	4400 5500 4650 5500
Wire Wire Line
	4950 5500 5100 5500
Connection ~ 5100 5500
Wire Wire Line
	5100 5500 5100 5350
$Comp
L a_fab:RES-US1206 R1
U 1 1 5CDAF269
P 6050 4150
F 0 "R1" H 6050 4344 45  0000 C CNN
F 1 "10k" H 6050 4260 45  0000 C CNN
F 2 "a_fab:fab-R1206" H 6080 4300 20  0001 C CNN
F 3 "" H 6050 4150 50  0001 C CNN
	1    6050 4150
	1    0    0    -1  
$EndComp
Text GLabel 6350 4150 2    50   Input ~ 0
VCC
Wire Wire Line
	5700 4150 5800 4150
Wire Wire Line
	6250 4150 6350 4150
Wire Wire Line
	5800 4150 5800 4250
Connection ~ 5800 4150
Wire Wire Line
	5800 4150 5850 4150
Text GLabel 4400 5500 0    50   Input ~ 0
VCC
Text GLabel 4400 2250 0    50   Input ~ 0
VCC
Text GLabel 7250 4600 0    50   Input ~ 0
VCC
Text GLabel 5550 5500 2    50   Input ~ 0
GND
Wire Wire Line
	5550 5500 5100 5500
Text GLabel 7300 5250 0    50   Input ~ 0
GND
Wire Wire Line
	7300 5250 7450 5250
Wire Wire Line
	6650 4150 6650 4250
Wire Wire Line
	6650 4250 5800 4250
Wire Wire Line
	5700 4050 6650 4050
Wire Wire Line
	5700 3950 6650 3950
Wire Wire Line
	5700 3850 6650 3850
Wire Wire Line
	5700 3750 6650 3750
Wire Wire Line
	5700 3650 6650 3650
Wire Wire Line
	5700 3550 6650 3550
Wire Wire Line
	5700 4450 5800 4450
Wire Wire Line
	5700 4550 5800 4550
Wire Wire Line
	5700 4650 5800 4650
Wire Wire Line
	5700 4750 5800 4750
Wire Wire Line
	5700 4850 5800 4850
Wire Wire Line
	5700 4950 5800 4950
Wire Wire Line
	5700 5050 5800 5050
Wire Wire Line
	6100 3250 6100 3100
Wire Wire Line
	6100 3100 6200 3100
Wire Wire Line
	5700 3250 6100 3250
Connection ~ 6200 3100
Wire Wire Line
	5700 3150 5750 3150
Wire Wire Line
	5700 3050 5750 3050
Wire Wire Line
	5700 2950 5750 2950
Wire Wire Line
	5700 2850 5750 2850
Wire Wire Line
	5700 2750 5750 2750
Wire Wire Line
	5700 2650 5750 2650
Wire Wire Line
	7250 4600 7400 4600
Wire Wire Line
	7400 4600 7400 4800
Wire Wire Line
	7550 4600 7400 4600
Connection ~ 7400 4600
$Comp
L power:+5V #PWR03
U 1 1 5CDC771F
P 7400 4900
F 0 "#PWR03" H 7400 4750 50  0001 C CNN
F 1 "+5V" H 7415 5073 50  0000 C CNN
F 2 "" H 7400 4900 50  0001 C CNN
F 3 "" H 7400 4900 50  0001 C CNN
	1    7400 4900
	-1   0    0    1   
$EndComp
Wire Wire Line
	6750 4350 6750 4300
Wire Wire Line
	6750 4300 7750 4300
$Comp
L power:GND #PWR04
U 1 1 5CDCCDE0
P 7450 5350
F 0 "#PWR04" H 7450 5100 50  0001 C CNN
F 1 "GND" H 7455 5177 50  0000 C CNN
F 2 "" H 7450 5350 50  0001 C CNN
F 3 "" H 7450 5350 50  0001 C CNN
	1    7450 5350
	1    0    0    -1  
$EndComp
Wire Wire Line
	7450 5350 7450 5250
Wire Wire Line
	7450 5250 7800 5250
Wire Wire Line
	7800 5250 7800 5150
Wire Wire Line
	7800 4950 8050 4950
Connection ~ 7450 5250
Wire Wire Line
	7950 4600 8000 4600
Wire Wire Line
	8000 4600 8000 4850
Wire Wire Line
	8000 4850 8050 4850
Wire Wire Line
	8050 5050 7800 5050
Wire Wire Line
	7800 5050 7800 4950
Wire Wire Line
	8050 5150 7800 5150
Connection ~ 7800 5250
Wire Wire Line
	7800 5050 7800 5150
Connection ~ 7800 5050
Connection ~ 7800 5150
Wire Wire Line
	7800 5250 8050 5250
Wire Wire Line
	6950 4800 7050 4800
Connection ~ 7400 4800
Wire Wire Line
	7400 4800 7400 4900
Wire Wire Line
	7050 4800 7050 4900
Wire Wire Line
	7050 5100 6950 5100
Connection ~ 7050 4800
Wire Wire Line
	7050 4800 7400 4800
Connection ~ 7050 5000
Wire Wire Line
	7050 5000 7050 5100
Wire Wire Line
	6950 5000 7050 5000
Wire Wire Line
	6950 4900 7050 4900
Connection ~ 7050 4900
Wire Wire Line
	7050 4900 7050 5000
$Comp
L MCU_Microchip_ATmega:ATmega328-AU U1
U 1 1 5CDB3619
P 5100 3850
F 0 "U1" H 5100 2264 50  0000 C CNN
F 1 "ATmega328-AU" H 5100 2173 50  0000 C CNN
F 2 "a_fab:fab-TQFP32-08THIN" H 5100 3850 50  0001 C CIN
F 3 "http://ww1.microchip.com/downloads/en/DeviceDoc/ATmega328_P%20AVR%20MCU%20with%20picoPower%20Technology%20Data%20Sheet%2040001984A.pdf" H 5100 3850 50  0001 C CNN
	1    5100 3850
	1    0    0    -1  
$EndComp
$Comp
L Transistor_FET:BF244A Q1
U 1 1 5CDB3A86
P 7750 4500
F 0 "Q1" V 7986 4500 50  0000 C CNN
F 1 "BF244A" V 8077 4500 50  0000 C CNN
F 2 "Package_TO_SOT_THT:TO-92_Inline" H 7950 4425 50  0001 L CIN
F 3 "http://www.fairchildsemi.com/ds/BF/BF244A.pdf" H 7750 4450 50  0001 L CNN
	1    7750 4500
	0    1    1    0   
$EndComp
Wire Wire Line
	5700 4350 6750 4350
$Comp
L Connector:Conn_01x01_Male J16
U 1 1 5CDCE94F
P 6750 4800
F 0 "J16" H 6856 4978 50  0000 C CNN
F 1 "Conn_01x01_Male" H 6856 4887 50  0000 C CNN
F 2 "onepad:padbig" H 6750 4800 50  0001 C CNN
F 3 "~" H 6750 4800 50  0001 C CNN
	1    6750 4800
	1    0    0    -1  
$EndComp
$Comp
L Connector:Conn_01x01_Male J17
U 1 1 5CDCE9EA
P 6750 4900
F 0 "J17" H 6856 5078 50  0000 C CNN
F 1 "Conn_01x01_Male" H 6856 4987 50  0000 C CNN
F 2 "onepad:padbig" H 6750 4900 50  0001 C CNN
F 3 "~" H 6750 4900 50  0001 C CNN
	1    6750 4900
	1    0    0    -1  
$EndComp
$Comp
L Connector:Conn_01x01_Male J18
U 1 1 5CDCEA30
P 6750 5000
F 0 "J18" H 6856 5178 50  0000 C CNN
F 1 "Conn_01x01_Male" H 6856 5087 50  0000 C CNN
F 2 "onepad:padbig" H 6750 5000 50  0001 C CNN
F 3 "~" H 6750 5000 50  0001 C CNN
	1    6750 5000
	1    0    0    -1  
$EndComp
$Comp
L Connector:Conn_01x01_Male J19
U 1 1 5CDCEA7D
P 6750 5100
F 0 "J19" H 6856 5278 50  0000 C CNN
F 1 "Conn_01x01_Male" H 6856 5187 50  0000 C CNN
F 2 "onepad:padbig" H 6750 5100 50  0001 C CNN
F 3 "~" H 6750 5100 50  0001 C CNN
	1    6750 5100
	1    0    0    -1  
$EndComp
$Comp
L Connector:Conn_01x01_Male J31
U 1 1 5CDCF05F
P 8250 5150
F 0 "J31" H 8356 5328 50  0000 C CNN
F 1 "Conn_01x01_Male" H 8356 5237 50  0000 C CNN
F 2 "onepad:padbig" H 8250 5150 50  0001 C CNN
F 3 "~" H 8250 5150 50  0001 C CNN
	1    8250 5150
	-1   0    0    1   
$EndComp
$Comp
L Connector:Conn_01x01_Male J30
U 1 1 5CDCF066
P 8250 5050
F 0 "J30" H 8356 5228 50  0000 C CNN
F 1 "Conn_01x01_Male" H 8356 5137 50  0000 C CNN
F 2 "onepad:padbig" H 8250 5050 50  0001 C CNN
F 3 "~" H 8250 5050 50  0001 C CNN
	1    8250 5050
	-1   0    0    1   
$EndComp
$Comp
L Connector:Conn_01x01_Male J29
U 1 1 5CDCF06D
P 8250 4950
F 0 "J29" H 8356 5128 50  0000 C CNN
F 1 "Conn_01x01_Male" H 8356 5037 50  0000 C CNN
F 2 "onepad:padbig" H 8250 4950 50  0001 C CNN
F 3 "~" H 8250 4950 50  0001 C CNN
	1    8250 4950
	-1   0    0    1   
$EndComp
$Comp
L Connector:Conn_01x01_Male J28
U 1 1 5CDCF074
P 8250 4850
F 0 "J28" H 8356 5028 50  0000 C CNN
F 1 "Conn_01x01_Male" H 8356 4937 50  0000 C CNN
F 2 "onepad:padbig" H 8250 4850 50  0001 C CNN
F 3 "~" H 8250 4850 50  0001 C CNN
	1    8250 4850
	-1   0    0    1   
$EndComp
$Comp
L Connector:Conn_01x01_Male J32
U 1 1 5CDD7919
P 8250 5250
F 0 "J32" H 8223 5180 50  0000 R CNN
F 1 "Conn_01x01_Male" H 8223 5271 50  0000 R CNN
F 2 "onepad:padbig" H 8250 5250 50  0001 C CNN
F 3 "~" H 8250 5250 50  0001 C CNN
	1    8250 5250
	-1   0    0    1   
$EndComp
$Comp
L Connector:Conn_01x01_Male J14
U 1 1 5CDD7C83
P 6000 4950
F 0 "J14" H 6106 5128 50  0000 C CNN
F 1 "Conn_01x01_Male" H 6106 5037 50  0000 C CNN
F 2 "onepad:padbig" H 6000 4950 50  0001 C CNN
F 3 "~" H 6000 4950 50  0001 C CNN
	1    6000 4950
	-1   0    0    1   
$EndComp
$Comp
L Connector:Conn_01x01_Male J13
U 1 1 5CDD7C8A
P 6000 4850
F 0 "J13" H 6106 5028 50  0000 C CNN
F 1 "Conn_01x01_Male" H 6106 4937 50  0000 C CNN
F 2 "onepad:padbig" H 6000 4850 50  0001 C CNN
F 3 "~" H 6000 4850 50  0001 C CNN
	1    6000 4850
	-1   0    0    1   
$EndComp
$Comp
L Connector:Conn_01x01_Male J12
U 1 1 5CDD7C91
P 6000 4750
F 0 "J12" H 6106 4928 50  0000 C CNN
F 1 "Conn_01x01_Male" H 6106 4837 50  0000 C CNN
F 2 "onepad:padbig" H 6000 4750 50  0001 C CNN
F 3 "~" H 6000 4750 50  0001 C CNN
	1    6000 4750
	-1   0    0    1   
$EndComp
$Comp
L Connector:Conn_01x01_Male J10
U 1 1 5CDD7C98
P 6000 4650
F 0 "J10" H 6106 4828 50  0000 C CNN
F 1 "Conn_01x01_Male" H 6106 4737 50  0000 C CNN
F 2 "onepad:padbig" H 6000 4650 50  0001 C CNN
F 3 "~" H 6000 4650 50  0001 C CNN
	1    6000 4650
	-1   0    0    1   
$EndComp
$Comp
L Connector:Conn_01x01_Male J15
U 1 1 5CDD7C9F
P 6000 5050
F 0 "J15" H 5973 4980 50  0000 R CNN
F 1 "Conn_01x01_Male" H 5973 5071 50  0000 R CNN
F 2 "onepad:padbig" H 6000 5050 50  0001 C CNN
F 3 "~" H 6000 5050 50  0001 C CNN
	1    6000 5050
	-1   0    0    1   
$EndComp
$Comp
L Connector:Conn_01x01_Male J11
U 1 1 5CDDCFD2
P 6000 4650
F 0 "J11" H 6106 4828 50  0000 C CNN
F 1 "Conn_01x01_Male" H 6106 4737 50  0000 C CNN
F 2 "onepad:padbig" H 6000 4650 50  0001 C CNN
F 3 "~" H 6000 4650 50  0001 C CNN
	1    6000 4650
	-1   0    0    1   
$EndComp
$Comp
L Connector:Conn_01x01_Male J9
U 1 1 5CDDCFD9
P 6000 4550
F 0 "J9" H 6106 4728 50  0000 C CNN
F 1 "Conn_01x01_Male" H 6106 4637 50  0000 C CNN
F 2 "onepad:padbig" H 6000 4550 50  0001 C CNN
F 3 "~" H 6000 4550 50  0001 C CNN
	1    6000 4550
	-1   0    0    1   
$EndComp
$Comp
L Connector:Conn_01x01_Male J8
U 1 1 5CDDCFE0
P 6000 4450
F 0 "J8" H 6106 4628 50  0000 C CNN
F 1 "Conn_01x01_Male" H 6106 4537 50  0000 C CNN
F 2 "onepad:padbig" H 6000 4450 50  0001 C CNN
F 3 "~" H 6000 4450 50  0001 C CNN
	1    6000 4450
	-1   0    0    1   
$EndComp
$Comp
L Connector:Conn_01x01_Male J26
U 1 1 5CDDED0B
P 6850 4050
F 0 "J26" H 6956 4228 50  0000 C CNN
F 1 "Conn_01x01_Male" H 6956 4137 50  0000 C CNN
F 2 "onepad:padbig" H 6850 4050 50  0001 C CNN
F 3 "~" H 6850 4050 50  0001 C CNN
	1    6850 4050
	-1   0    0    1   
$EndComp
$Comp
L Connector:Conn_01x01_Male J25
U 1 1 5CDDED12
P 6850 3950
F 0 "J25" H 6956 4128 50  0000 C CNN
F 1 "Conn_01x01_Male" H 6956 4037 50  0000 C CNN
F 2 "onepad:padbig" H 6850 3950 50  0001 C CNN
F 3 "~" H 6850 3950 50  0001 C CNN
	1    6850 3950
	-1   0    0    1   
$EndComp
$Comp
L Connector:Conn_01x01_Male J24
U 1 1 5CDDED19
P 6850 3850
F 0 "J24" H 6956 4028 50  0000 C CNN
F 1 "Conn_01x01_Male" H 6956 3937 50  0000 C CNN
F 2 "onepad:padbig" H 6850 3850 50  0001 C CNN
F 3 "~" H 6850 3850 50  0001 C CNN
	1    6850 3850
	-1   0    0    1   
$EndComp
$Comp
L Connector:Conn_01x01_Male J22
U 1 1 5CDDED20
P 6850 3750
F 0 "J22" H 6956 3928 50  0000 C CNN
F 1 "Conn_01x01_Male" H 6956 3837 50  0000 C CNN
F 2 "onepad:padbig" H 6850 3750 50  0001 C CNN
F 3 "~" H 6850 3750 50  0001 C CNN
	1    6850 3750
	-1   0    0    1   
$EndComp
$Comp
L Connector:Conn_01x01_Male J27
U 1 1 5CDDED27
P 6850 4150
F 0 "J27" H 6823 4080 50  0000 R CNN
F 1 "Conn_01x01_Male" H 6823 4171 50  0000 R CNN
F 2 "onepad:padbig" H 6850 4150 50  0001 C CNN
F 3 "~" H 6850 4150 50  0001 C CNN
	1    6850 4150
	-1   0    0    1   
$EndComp
$Comp
L Connector:Conn_01x01_Male J23
U 1 1 5CDDED2E
P 6850 3750
F 0 "J23" H 6956 3928 50  0000 C CNN
F 1 "Conn_01x01_Male" H 6956 3837 50  0000 C CNN
F 2 "onepad:padbig" H 6850 3750 50  0001 C CNN
F 3 "~" H 6850 3750 50  0001 C CNN
	1    6850 3750
	-1   0    0    1   
$EndComp
$Comp
L Connector:Conn_01x01_Male J21
U 1 1 5CDDED35
P 6850 3650
F 0 "J21" H 6956 3828 50  0000 C CNN
F 1 "Conn_01x01_Male" H 6956 3737 50  0000 C CNN
F 2 "onepad:padbig" H 6850 3650 50  0001 C CNN
F 3 "~" H 6850 3650 50  0001 C CNN
	1    6850 3650
	-1   0    0    1   
$EndComp
$Comp
L Connector:Conn_01x01_Male J20
U 1 1 5CDDED3C
P 6850 3550
F 0 "J20" H 6956 3728 50  0000 C CNN
F 1 "Conn_01x01_Male" H 6956 3637 50  0000 C CNN
F 2 "onepad:padbig" H 6850 3550 50  0001 C CNN
F 3 "~" H 6850 3550 50  0001 C CNN
	1    6850 3550
	-1   0    0    1   
$EndComp
$Comp
L Connector:Conn_01x01_Male J6
U 1 1 5CDE0A70
P 5950 3050
F 0 "J6" H 6056 3228 50  0000 C CNN
F 1 "Conn_01x01_Male" H 6056 3137 50  0000 C CNN
F 2 "onepad:padbig" H 5950 3050 50  0001 C CNN
F 3 "~" H 5950 3050 50  0001 C CNN
	1    5950 3050
	-1   0    0    1   
$EndComp
$Comp
L Connector:Conn_01x01_Male J5
U 1 1 5CDE0A77
P 5950 2950
F 0 "J5" H 6056 3128 50  0000 C CNN
F 1 "Conn_01x01_Male" H 6056 3037 50  0000 C CNN
F 2 "onepad:padbig" H 5950 2950 50  0001 C CNN
F 3 "~" H 5950 2950 50  0001 C CNN
	1    5950 2950
	-1   0    0    1   
$EndComp
$Comp
L Connector:Conn_01x01_Male J4
U 1 1 5CDE0A7E
P 5950 2850
F 0 "J4" H 6056 3028 50  0000 C CNN
F 1 "Conn_01x01_Male" H 6056 2937 50  0000 C CNN
F 2 "onepad:padbig" H 5950 2850 50  0001 C CNN
F 3 "~" H 5950 2850 50  0001 C CNN
	1    5950 2850
	-1   0    0    1   
$EndComp
$Comp
L Connector:Conn_01x01_Male J2
U 1 1 5CDE0A85
P 5950 2750
F 0 "J2" H 6056 2928 50  0000 C CNN
F 1 "Conn_01x01_Male" H 6056 2837 50  0000 C CNN
F 2 "onepad:padbig" H 5950 2750 50  0001 C CNN
F 3 "~" H 5950 2750 50  0001 C CNN
	1    5950 2750
	-1   0    0    1   
$EndComp
$Comp
L Connector:Conn_01x01_Male J7
U 1 1 5CDE0A8C
P 5950 3150
F 0 "J7" H 5923 3080 50  0000 R CNN
F 1 "Conn_01x01_Male" H 5923 3171 50  0000 R CNN
F 2 "onepad:padbig" H 5950 3150 50  0001 C CNN
F 3 "~" H 5950 3150 50  0001 C CNN
	1    5950 3150
	-1   0    0    1   
$EndComp
$Comp
L Connector:Conn_01x01_Male J3
U 1 1 5CDE0A93
P 5950 2750
F 0 "J3" H 6056 2928 50  0000 C CNN
F 1 "Conn_01x01_Male" H 6056 2837 50  0000 C CNN
F 2 "onepad:padbig" H 5950 2750 50  0001 C CNN
F 3 "~" H 5950 2750 50  0001 C CNN
	1    5950 2750
	-1   0    0    1   
$EndComp
$Comp
L Connector:Conn_01x01_Male J1
U 1 1 5CDE0A9A
P 5950 2650
F 0 "J1" H 6056 2828 50  0000 C CNN
F 1 "Conn_01x01_Male" H 6056 2737 50  0000 C CNN
F 2 "onepad:padbig" H 5950 2650 50  0001 C CNN
F 3 "~" H 5950 2650 50  0001 C CNN
	1    5950 2650
	-1   0    0    1   
$EndComp
$EndSCHEMATC
