(kicad_pcb (version 20171130) (host pcbnew 5.0.2+dfsg1-1)

  (general
    (thickness 1.6)
    (drawings 1)
    (tracks 134)
    (zones 0)
    (modules 40)
    (nets 30)
  )

  (page A4)
  (layers
    (0 F.Cu signal)
    (31 B.Cu signal)
    (32 B.Adhes user)
    (33 F.Adhes user)
    (34 B.Paste user)
    (35 F.Paste user)
    (36 B.SilkS user)
    (37 F.SilkS user hide)
    (38 B.Mask user)
    (39 F.Mask user)
    (40 Dwgs.User user hide)
    (41 Cmts.User user)
    (42 Eco1.User user)
    (43 Eco2.User user)
    (44 Edge.Cuts user)
    (45 Margin user)
    (46 B.CrtYd user)
    (47 F.CrtYd user)
    (48 B.Fab user)
    (49 F.Fab user)
  )

  (setup
    (last_trace_width 0.25)
    (trace_clearance 0.2)
    (zone_clearance 0.508)
    (zone_45_only no)
    (trace_min 0.2)
    (segment_width 0.2)
    (edge_width 0.15)
    (via_size 0.8)
    (via_drill 0.4)
    (via_min_size 0.4)
    (via_min_drill 0.3)
    (uvia_size 0.3)
    (uvia_drill 0.1)
    (uvias_allowed no)
    (uvia_min_size 0.2)
    (uvia_min_drill 0.1)
    (pcb_text_width 0.3)
    (pcb_text_size 1.5 1.5)
    (mod_edge_width 0.15)
    (mod_text_size 1 1)
    (mod_text_width 0.15)
    (pad_size 1.524 1.524)
    (pad_drill 0.762)
    (pad_to_mask_clearance 0.051)
    (solder_mask_min_width 0.25)
    (aux_axis_origin 0 0)
    (visible_elements FFFFFF7F)
    (pcbplotparams
      (layerselection 0x010fc_ffffffff)
      (usegerberextensions false)
      (usegerberattributes false)
      (usegerberadvancedattributes false)
      (creategerberjobfile false)
      (excludeedgelayer true)
      (linewidth 0.200000)
      (plotframeref false)
      (viasonmask false)
      (mode 1)
      (useauxorigin false)
      (hpglpennumber 1)
      (hpglpenspeed 20)
      (hpglpendiameter 15.000000)
      (psnegative false)
      (psa4output false)
      (plotreference true)
      (plotvalue true)
      (plotinvisibletext false)
      (padsonsilk false)
      (subtractmaskfromsilk false)
      (outputformat 1)
      (mirror false)
      (drillshape 1)
      (scaleselection 1)
      (outputdirectory "/home/flo/"))
  )

  (net 0 "")
  (net 1 VCC)
  (net 2 GND)
  (net 3 "Net-(C2-Pad2)")
  (net 4 "Net-(C3-Pad2)")
  (net 5 "Net-(J1-Pad1)")
  (net 6 "Net-(J2-Pad1)")
  (net 7 "Net-(J4-Pad1)")
  (net 8 "Net-(J5-Pad1)")
  (net 9 "Net-(J6-Pad1)")
  (net 10 "Net-(J7-Pad1)")
  (net 11 "Net-(J8-Pad1)")
  (net 12 "Net-(J9-Pad1)")
  (net 13 "Net-(J10-Pad1)")
  (net 14 "Net-(J12-Pad1)")
  (net 15 "Net-(J13-Pad1)")
  (net 16 "Net-(J14-Pad1)")
  (net 17 "Net-(J15-Pad1)")
  (net 18 "Net-(J20-Pad1)")
  (net 19 "Net-(J21-Pad1)")
  (net 20 "Net-(J22-Pad1)")
  (net 21 "Net-(J24-Pad1)")
  (net 22 "Net-(J25-Pad1)")
  (net 23 "Net-(J26-Pad1)")
  (net 24 "Net-(J27-Pad1)")
  (net 25 "Net-(J28-Pad1)")
  (net 26 "Net-(Q1-Pad2)")
  (net 27 "Net-(U1-Pad19)")
  (net 28 "Net-(U1-Pad20)")
  (net 29 "Net-(U1-Pad22)")

  (net_class Default "This is the default net class."
    (clearance 0.2)
    (trace_width 0.25)
    (via_dia 0.8)
    (via_drill 0.4)
    (uvia_dia 0.3)
    (uvia_drill 0.1)
    (add_net GND)
    (add_net "Net-(C2-Pad2)")
    (add_net "Net-(C3-Pad2)")
    (add_net "Net-(J1-Pad1)")
    (add_net "Net-(J10-Pad1)")
    (add_net "Net-(J12-Pad1)")
    (add_net "Net-(J13-Pad1)")
    (add_net "Net-(J14-Pad1)")
    (add_net "Net-(J15-Pad1)")
    (add_net "Net-(J2-Pad1)")
    (add_net "Net-(J20-Pad1)")
    (add_net "Net-(J21-Pad1)")
    (add_net "Net-(J22-Pad1)")
    (add_net "Net-(J24-Pad1)")
    (add_net "Net-(J25-Pad1)")
    (add_net "Net-(J26-Pad1)")
    (add_net "Net-(J27-Pad1)")
    (add_net "Net-(J28-Pad1)")
    (add_net "Net-(J4-Pad1)")
    (add_net "Net-(J5-Pad1)")
    (add_net "Net-(J6-Pad1)")
    (add_net "Net-(J7-Pad1)")
    (add_net "Net-(J8-Pad1)")
    (add_net "Net-(J9-Pad1)")
    (add_net "Net-(Q1-Pad2)")
    (add_net "Net-(U1-Pad19)")
    (add_net "Net-(U1-Pad20)")
    (add_net "Net-(U1-Pad22)")
    (add_net VCC)
  )

  (module a_fab:fab-R1206 (layer F.Cu) (tedit 200000) (tstamp 5D015FC1)
    (at 104.14 84.94014 270)
    (descr RESISTOR)
    (tags RESISTOR)
    (path /5CDAD9C8)
    (attr smd)
    (fp_text reference R2 (at 1.905 -1.905 270) (layer F.SilkS)
      (effects (font (size 1.27 1.27) (thickness 0.1016)))
    )
    (fp_text value 1M (at 2.54 1.905 270) (layer F.SilkS)
      (effects (font (size 1.27 1.27) (thickness 0.1016)))
    )
    (fp_line (start -2.47142 0.98298) (end -2.47142 -0.98298) (layer F.SilkS) (width 0.0508))
    (fp_line (start 2.47142 0.98298) (end -2.47142 0.98298) (layer F.SilkS) (width 0.0508))
    (fp_line (start 2.47142 -0.98298) (end 2.47142 0.98298) (layer F.SilkS) (width 0.0508))
    (fp_line (start -2.47142 -0.98298) (end 2.47142 -0.98298) (layer F.SilkS) (width 0.0508))
    (fp_line (start 0.9525 -0.8128) (end -0.9652 -0.8128) (layer F.SilkS) (width 0.1524))
    (fp_line (start 0.9525 0.8128) (end -0.9652 0.8128) (layer F.SilkS) (width 0.1524))
    (fp_line (start -0.29972 0.6985) (end -0.29972 -0.6985) (layer F.SilkS) (width 0.06604))
    (fp_line (start -0.29972 -0.6985) (end 0.29972 -0.6985) (layer F.SilkS) (width 0.06604))
    (fp_line (start 0.29972 0.6985) (end 0.29972 -0.6985) (layer F.SilkS) (width 0.06604))
    (fp_line (start -0.29972 0.6985) (end 0.29972 0.6985) (layer F.SilkS) (width 0.06604))
    (fp_line (start 0.9525 0.8763) (end 0.9525 -0.8763) (layer F.SilkS) (width 0.06604))
    (fp_line (start 0.9525 -0.8763) (end 1.6891 -0.8763) (layer F.SilkS) (width 0.06604))
    (fp_line (start 1.6891 0.8763) (end 1.6891 -0.8763) (layer F.SilkS) (width 0.06604))
    (fp_line (start 0.9525 0.8763) (end 1.6891 0.8763) (layer F.SilkS) (width 0.06604))
    (fp_line (start -1.6891 0.8763) (end -1.6891 -0.8763) (layer F.SilkS) (width 0.06604))
    (fp_line (start -1.6891 -0.8763) (end -0.9525 -0.8763) (layer F.SilkS) (width 0.06604))
    (fp_line (start -0.9525 0.8763) (end -0.9525 -0.8763) (layer F.SilkS) (width 0.06604))
    (fp_line (start -1.6891 0.8763) (end -0.9525 0.8763) (layer F.SilkS) (width 0.06604))
    (pad 2 smd rect (at 1.41986 0 270) (size 1.59766 1.80086) (layers F.Cu F.Paste F.Mask)
      (net 4 "Net-(C3-Pad2)"))
    (pad 1 smd rect (at -1.41986 0 270) (size 1.59766 1.80086) (layers F.Cu F.Paste F.Mask)
      (net 3 "Net-(C2-Pad2)"))
  )

  (module a_fab:fab-R1206 (layer F.Cu) (tedit 200000) (tstamp 5D015FA9)
    (at 116.69014 69.85 180)
    (descr RESISTOR)
    (tags RESISTOR)
    (path /5CDAF269)
    (attr smd)
    (fp_text reference R1 (at 1.905 -1.905 180) (layer F.SilkS)
      (effects (font (size 1.27 1.27) (thickness 0.1016)))
    )
    (fp_text value 10k (at 2.54 1.905 180) (layer F.SilkS)
      (effects (font (size 1.27 1.27) (thickness 0.1016)))
    )
    (fp_line (start -1.6891 0.8763) (end -0.9525 0.8763) (layer F.SilkS) (width 0.06604))
    (fp_line (start -0.9525 0.8763) (end -0.9525 -0.8763) (layer F.SilkS) (width 0.06604))
    (fp_line (start -1.6891 -0.8763) (end -0.9525 -0.8763) (layer F.SilkS) (width 0.06604))
    (fp_line (start -1.6891 0.8763) (end -1.6891 -0.8763) (layer F.SilkS) (width 0.06604))
    (fp_line (start 0.9525 0.8763) (end 1.6891 0.8763) (layer F.SilkS) (width 0.06604))
    (fp_line (start 1.6891 0.8763) (end 1.6891 -0.8763) (layer F.SilkS) (width 0.06604))
    (fp_line (start 0.9525 -0.8763) (end 1.6891 -0.8763) (layer F.SilkS) (width 0.06604))
    (fp_line (start 0.9525 0.8763) (end 0.9525 -0.8763) (layer F.SilkS) (width 0.06604))
    (fp_line (start -0.29972 0.6985) (end 0.29972 0.6985) (layer F.SilkS) (width 0.06604))
    (fp_line (start 0.29972 0.6985) (end 0.29972 -0.6985) (layer F.SilkS) (width 0.06604))
    (fp_line (start -0.29972 -0.6985) (end 0.29972 -0.6985) (layer F.SilkS) (width 0.06604))
    (fp_line (start -0.29972 0.6985) (end -0.29972 -0.6985) (layer F.SilkS) (width 0.06604))
    (fp_line (start 0.9525 0.8128) (end -0.9652 0.8128) (layer F.SilkS) (width 0.1524))
    (fp_line (start 0.9525 -0.8128) (end -0.9652 -0.8128) (layer F.SilkS) (width 0.1524))
    (fp_line (start -2.47142 -0.98298) (end 2.47142 -0.98298) (layer F.SilkS) (width 0.0508))
    (fp_line (start 2.47142 -0.98298) (end 2.47142 0.98298) (layer F.SilkS) (width 0.0508))
    (fp_line (start 2.47142 0.98298) (end -2.47142 0.98298) (layer F.SilkS) (width 0.0508))
    (fp_line (start -2.47142 0.98298) (end -2.47142 -0.98298) (layer F.SilkS) (width 0.0508))
    (pad 1 smd rect (at -1.41986 0 180) (size 1.59766 1.80086) (layers F.Cu F.Paste F.Mask)
      (net 24 "Net-(J27-Pad1)"))
    (pad 2 smd rect (at 1.41986 0 180) (size 1.59766 1.80086) (layers F.Cu F.Paste F.Mask)
      (net 1 VCC))
  )

  (module Capacitor_SMD:C_1206_3216Metric (layer F.Cu) (tedit 5B301BBE) (tstamp 5D015EB1)
    (at 125.73 76.835 180)
    (descr "Capacitor SMD 1206 (3216 Metric), square (rectangular) end terminal, IPC_7351 nominal, (Body size source: http://www.tortai-tech.com/upload/download/2011102023233369053.pdf), generated with kicad-footprint-generator")
    (tags capacitor)
    (path /5CDAE965)
    (attr smd)
    (fp_text reference C1 (at 0 -1.82 180) (layer F.SilkS)
      (effects (font (size 1 1) (thickness 0.15)))
    )
    (fp_text value 100nf (at 0 1.82 180) (layer F.Fab)
      (effects (font (size 1 1) (thickness 0.15)))
    )
    (fp_line (start -1.6 0.8) (end -1.6 -0.8) (layer F.Fab) (width 0.1))
    (fp_line (start -1.6 -0.8) (end 1.6 -0.8) (layer F.Fab) (width 0.1))
    (fp_line (start 1.6 -0.8) (end 1.6 0.8) (layer F.Fab) (width 0.1))
    (fp_line (start 1.6 0.8) (end -1.6 0.8) (layer F.Fab) (width 0.1))
    (fp_line (start -0.602064 -0.91) (end 0.602064 -0.91) (layer F.SilkS) (width 0.12))
    (fp_line (start -0.602064 0.91) (end 0.602064 0.91) (layer F.SilkS) (width 0.12))
    (fp_line (start -2.28 1.12) (end -2.28 -1.12) (layer F.CrtYd) (width 0.05))
    (fp_line (start -2.28 -1.12) (end 2.28 -1.12) (layer F.CrtYd) (width 0.05))
    (fp_line (start 2.28 -1.12) (end 2.28 1.12) (layer F.CrtYd) (width 0.05))
    (fp_line (start 2.28 1.12) (end -2.28 1.12) (layer F.CrtYd) (width 0.05))
    (fp_text user %R (at 0 0 180) (layer F.Fab)
      (effects (font (size 0.8 0.8) (thickness 0.12)))
    )
    (pad 1 smd roundrect (at -1.4 0 180) (size 1.25 1.75) (layers F.Cu F.Paste F.Mask) (roundrect_rratio 0.2)
      (net 1 VCC))
    (pad 2 smd roundrect (at 1.4 0 180) (size 1.25 1.75) (layers F.Cu F.Paste F.Mask) (roundrect_rratio 0.2)
      (net 2 GND))
    (model ${KISYS3DMOD}/Capacitor_SMD.3dshapes/C_1206_3216Metric.wrl
      (at (xyz 0 0 0))
      (scale (xyz 1 1 1))
      (rotate (xyz 0 0 0))
    )
  )

  (module Capacitor_SMD:C_1206_3216Metric (layer F.Cu) (tedit 5B301BBE) (tstamp 5D015EC2)
    (at 97.79 80.899)
    (descr "Capacitor SMD 1206 (3216 Metric), square (rectangular) end terminal, IPC_7351 nominal, (Body size source: http://www.tortai-tech.com/upload/download/2011102023233369053.pdf), generated with kicad-footprint-generator")
    (tags capacitor)
    (path /5CDADBEF)
    (attr smd)
    (fp_text reference C2 (at 0 -1.82) (layer F.SilkS)
      (effects (font (size 1 1) (thickness 0.15)))
    )
    (fp_text value 22pf (at 0 1.82) (layer F.Fab)
      (effects (font (size 1 1) (thickness 0.15)))
    )
    (fp_line (start -1.6 0.8) (end -1.6 -0.8) (layer F.Fab) (width 0.1))
    (fp_line (start -1.6 -0.8) (end 1.6 -0.8) (layer F.Fab) (width 0.1))
    (fp_line (start 1.6 -0.8) (end 1.6 0.8) (layer F.Fab) (width 0.1))
    (fp_line (start 1.6 0.8) (end -1.6 0.8) (layer F.Fab) (width 0.1))
    (fp_line (start -0.602064 -0.91) (end 0.602064 -0.91) (layer F.SilkS) (width 0.12))
    (fp_line (start -0.602064 0.91) (end 0.602064 0.91) (layer F.SilkS) (width 0.12))
    (fp_line (start -2.28 1.12) (end -2.28 -1.12) (layer F.CrtYd) (width 0.05))
    (fp_line (start -2.28 -1.12) (end 2.28 -1.12) (layer F.CrtYd) (width 0.05))
    (fp_line (start 2.28 -1.12) (end 2.28 1.12) (layer F.CrtYd) (width 0.05))
    (fp_line (start 2.28 1.12) (end -2.28 1.12) (layer F.CrtYd) (width 0.05))
    (fp_text user %R (at 0 0) (layer F.Fab)
      (effects (font (size 0.8 0.8) (thickness 0.12)))
    )
    (pad 1 smd roundrect (at -1.4 0) (size 1.25 1.75) (layers F.Cu F.Paste F.Mask) (roundrect_rratio 0.2)
      (net 2 GND))
    (pad 2 smd roundrect (at 1.4 0) (size 1.25 1.75) (layers F.Cu F.Paste F.Mask) (roundrect_rratio 0.2)
      (net 3 "Net-(C2-Pad2)"))
    (model ${KISYS3DMOD}/Capacitor_SMD.3dshapes/C_1206_3216Metric.wrl
      (at (xyz 0 0 0))
      (scale (xyz 1 1 1))
      (rotate (xyz 0 0 0))
    )
  )

  (module Capacitor_SMD:C_1206_3216Metric (layer F.Cu) (tedit 5B301BBE) (tstamp 5D015ED3)
    (at 96.52 86.36 270)
    (descr "Capacitor SMD 1206 (3216 Metric), square (rectangular) end terminal, IPC_7351 nominal, (Body size source: http://www.tortai-tech.com/upload/download/2011102023233369053.pdf), generated with kicad-footprint-generator")
    (tags capacitor)
    (path /5CDADC4E)
    (attr smd)
    (fp_text reference C3 (at 0 -1.82 270) (layer F.SilkS)
      (effects (font (size 1 1) (thickness 0.15)))
    )
    (fp_text value 22pf (at 0 1.82 270) (layer F.Fab)
      (effects (font (size 1 1) (thickness 0.15)))
    )
    (fp_text user %R (at 0 0 270) (layer F.Fab)
      (effects (font (size 0.8 0.8) (thickness 0.12)))
    )
    (fp_line (start 2.28 1.12) (end -2.28 1.12) (layer F.CrtYd) (width 0.05))
    (fp_line (start 2.28 -1.12) (end 2.28 1.12) (layer F.CrtYd) (width 0.05))
    (fp_line (start -2.28 -1.12) (end 2.28 -1.12) (layer F.CrtYd) (width 0.05))
    (fp_line (start -2.28 1.12) (end -2.28 -1.12) (layer F.CrtYd) (width 0.05))
    (fp_line (start -0.602064 0.91) (end 0.602064 0.91) (layer F.SilkS) (width 0.12))
    (fp_line (start -0.602064 -0.91) (end 0.602064 -0.91) (layer F.SilkS) (width 0.12))
    (fp_line (start 1.6 0.8) (end -1.6 0.8) (layer F.Fab) (width 0.1))
    (fp_line (start 1.6 -0.8) (end 1.6 0.8) (layer F.Fab) (width 0.1))
    (fp_line (start -1.6 -0.8) (end 1.6 -0.8) (layer F.Fab) (width 0.1))
    (fp_line (start -1.6 0.8) (end -1.6 -0.8) (layer F.Fab) (width 0.1))
    (pad 2 smd roundrect (at 1.4 0 270) (size 1.25 1.75) (layers F.Cu F.Paste F.Mask) (roundrect_rratio 0.2)
      (net 4 "Net-(C3-Pad2)"))
    (pad 1 smd roundrect (at -1.4 0 270) (size 1.25 1.75) (layers F.Cu F.Paste F.Mask) (roundrect_rratio 0.2)
      (net 2 GND))
    (model ${KISYS3DMOD}/Capacitor_SMD.3dshapes/C_1206_3216Metric.wrl
      (at (xyz 0 0 0))
      (scale (xyz 1 1 1))
      (rotate (xyz 0 0 0))
    )
  )

  (module onepad:01pad (layer F.Cu) (tedit 5CDC19D7) (tstamp 5D015ED8)
    (at 111.76 87.63)
    (path /5CDE0A9A)
    (fp_text reference J1 (at 0 0.5) (layer F.SilkS)
      (effects (font (size 1 1) (thickness 0.15)))
    )
    (fp_text value Conn_01x01_Male (at 0 -0.5) (layer F.Fab)
      (effects (font (size 1 1) (thickness 0.15)))
    )
    (pad 1 thru_hole circle (at 0 2.54) (size 1.524 1.524) (drill 0.762) (layers *.Cu *.Mask)
      (net 5 "Net-(J1-Pad1)"))
  )

  (module onepad:01pad (layer F.Cu) (tedit 5CDC19D7) (tstamp 5D015EE2)
    (at 114.3 87.63)
    (path /5CDE0A93)
    (fp_text reference J3 (at 0 0.5) (layer F.SilkS)
      (effects (font (size 1 1) (thickness 0.15)))
    )
    (fp_text value Conn_01x01_Male (at 0 -0.5) (layer F.Fab)
      (effects (font (size 1 1) (thickness 0.15)))
    )
    (pad 1 thru_hole circle (at 0 2.54) (size 1.524 1.524) (drill 0.762) (layers *.Cu *.Mask)
      (net 6 "Net-(J2-Pad1)"))
  )

  (module onepad:01pad (layer F.Cu) (tedit 5CDC19D7) (tstamp 5D015EE7)
    (at 116.84 87.63)
    (path /5CDE0A7E)
    (fp_text reference J4 (at 0 0.5) (layer F.SilkS)
      (effects (font (size 1 1) (thickness 0.15)))
    )
    (fp_text value Conn_01x01_Male (at 0 -0.5) (layer F.Fab)
      (effects (font (size 1 1) (thickness 0.15)))
    )
    (pad 1 thru_hole circle (at 0 2.54) (size 1.524 1.524) (drill 0.762) (layers *.Cu *.Mask)
      (net 7 "Net-(J4-Pad1)"))
  )

  (module onepad:01pad (layer F.Cu) (tedit 5CDC19D7) (tstamp 5D015EEC)
    (at 119.38 87.63)
    (path /5CDE0A77)
    (fp_text reference J5 (at 0 0.5) (layer F.SilkS)
      (effects (font (size 1 1) (thickness 0.15)))
    )
    (fp_text value Conn_01x01_Male (at 0 -0.5) (layer F.Fab)
      (effects (font (size 1 1) (thickness 0.15)))
    )
    (pad 1 thru_hole circle (at 0 2.54) (size 1.524 1.524) (drill 0.762) (layers *.Cu *.Mask)
      (net 8 "Net-(J5-Pad1)"))
  )

  (module onepad:01pad (layer F.Cu) (tedit 5CDC19D7) (tstamp 5D015EF1)
    (at 121.92 87.63)
    (path /5CDE0A70)
    (fp_text reference J6 (at 0 0.5) (layer F.SilkS)
      (effects (font (size 1 1) (thickness 0.15)))
    )
    (fp_text value Conn_01x01_Male (at 0 -0.5) (layer F.Fab)
      (effects (font (size 1 1) (thickness 0.15)))
    )
    (pad 1 thru_hole circle (at 0 2.54) (size 1.524 1.524) (drill 0.762) (layers *.Cu *.Mask)
      (net 9 "Net-(J6-Pad1)"))
  )

  (module onepad:01pad (layer F.Cu) (tedit 5CDC19D7) (tstamp 5D015EF6)
    (at 121.92 82.55)
    (path /5CDE0A8C)
    (fp_text reference J7 (at 0 0.5) (layer F.SilkS)
      (effects (font (size 1 1) (thickness 0.15)))
    )
    (fp_text value Conn_01x01_Male (at 0 -0.5) (layer F.Fab)
      (effects (font (size 1 1) (thickness 0.15)))
    )
    (pad 1 thru_hole circle (at 0 2.54) (size 1.524 1.524) (drill 0.762) (layers *.Cu *.Mask)
      (net 10 "Net-(J7-Pad1)"))
  )

  (module onepad:01pad (layer F.Cu) (tedit 5CDC19D7) (tstamp 5D015EFB)
    (at 102.87 67.31)
    (path /5CDDCFE0)
    (fp_text reference J8 (at 0 0.5) (layer F.SilkS)
      (effects (font (size 1 1) (thickness 0.15)))
    )
    (fp_text value Conn_01x01_Male (at 0 -0.5) (layer F.Fab)
      (effects (font (size 1 1) (thickness 0.15)))
    )
    (pad 1 thru_hole circle (at 0 2.54) (size 1.524 1.524) (drill 0.762) (layers *.Cu *.Mask)
      (net 11 "Net-(J8-Pad1)"))
  )

  (module onepad:01pad (layer F.Cu) (tedit 5CDC19D7) (tstamp 5D015F00)
    (at 102.87 69.85)
    (path /5CDDCFD9)
    (fp_text reference J9 (at 0 0.5) (layer F.SilkS)
      (effects (font (size 1 1) (thickness 0.15)))
    )
    (fp_text value Conn_01x01_Male (at 0 -0.5) (layer F.Fab)
      (effects (font (size 1 1) (thickness 0.15)))
    )
    (pad 1 thru_hole circle (at 0 2.54) (size 1.524 1.524) (drill 0.762) (layers *.Cu *.Mask)
      (net 12 "Net-(J9-Pad1)"))
  )

  (module onepad:01pad (layer F.Cu) (tedit 5CDC19D7) (tstamp 5D015F0A)
    (at 102.87 72.39)
    (path /5CDDCFD2)
    (fp_text reference J11 (at 0 0.5) (layer F.SilkS)
      (effects (font (size 1 1) (thickness 0.15)))
    )
    (fp_text value Conn_01x01_Male (at 0 -0.5) (layer F.Fab)
      (effects (font (size 1 1) (thickness 0.15)))
    )
    (pad 1 thru_hole circle (at 0 2.54) (size 1.524 1.524) (drill 0.762) (layers *.Cu *.Mask)
      (net 13 "Net-(J10-Pad1)"))
  )

  (module onepad:01pad (layer F.Cu) (tedit 5CDC19D7) (tstamp 5D015F0F)
    (at 102.87 74.93)
    (path /5CDD7C91)
    (fp_text reference J12 (at 0 0.5) (layer F.SilkS)
      (effects (font (size 1 1) (thickness 0.15)))
    )
    (fp_text value Conn_01x01_Male (at 0 -0.5) (layer F.Fab)
      (effects (font (size 1 1) (thickness 0.15)))
    )
    (pad 1 thru_hole circle (at 0 2.54) (size 1.524 1.524) (drill 0.762) (layers *.Cu *.Mask)
      (net 14 "Net-(J12-Pad1)"))
  )

  (module onepad:01pad (layer F.Cu) (tedit 5CDC19D7) (tstamp 5D015F14)
    (at 104.14 87.63)
    (path /5CDD7C8A)
    (fp_text reference J13 (at 0 0.5) (layer F.SilkS)
      (effects (font (size 1 1) (thickness 0.15)))
    )
    (fp_text value Conn_01x01_Male (at 0 -0.5) (layer F.Fab)
      (effects (font (size 1 1) (thickness 0.15)))
    )
    (pad 1 thru_hole circle (at 0 2.54) (size 1.524 1.524) (drill 0.762) (layers *.Cu *.Mask)
      (net 15 "Net-(J13-Pad1)"))
  )

  (module onepad:01pad (layer F.Cu) (tedit 5CDC19D7) (tstamp 5D015F19)
    (at 106.68 87.63)
    (path /5CDD7C83)
    (fp_text reference J14 (at 0 0.5) (layer F.SilkS)
      (effects (font (size 1 1) (thickness 0.15)))
    )
    (fp_text value Conn_01x01_Male (at 0 -0.5) (layer F.Fab)
      (effects (font (size 1 1) (thickness 0.15)))
    )
    (pad 1 thru_hole circle (at 0 2.54) (size 1.524 1.524) (drill 0.762) (layers *.Cu *.Mask)
      (net 16 "Net-(J14-Pad1)"))
  )

  (module onepad:01pad (layer F.Cu) (tedit 5CDC19D7) (tstamp 5D015F1E)
    (at 109.22 87.63)
    (path /5CDD7C9F)
    (fp_text reference J15 (at 0 0.5) (layer F.SilkS)
      (effects (font (size 1 1) (thickness 0.15)))
    )
    (fp_text value Conn_01x01_Male (at 0 -0.5) (layer F.Fab)
      (effects (font (size 1 1) (thickness 0.15)))
    )
    (pad 1 thru_hole circle (at 0 2.54) (size 1.524 1.524) (drill 0.762) (layers *.Cu *.Mask)
      (net 17 "Net-(J15-Pad1)"))
  )

  (module onepad:01pad (layer F.Cu) (tedit 5CDC19D7) (tstamp 5D015F23)
    (at 121.92 80.01)
    (path /5CDCE94F)
    (fp_text reference J16 (at 0 0.5) (layer F.SilkS)
      (effects (font (size 1 1) (thickness 0.15)))
    )
    (fp_text value Conn_01x01_Male (at 0 -0.5) (layer F.Fab)
      (effects (font (size 1 1) (thickness 0.15)))
    )
    (pad 1 thru_hole circle (at 0 2.54) (size 1.524 1.524) (drill 0.762) (layers *.Cu *.Mask)
      (net 1 VCC))
  )

  (module onepad:01pad (layer F.Cu) (tedit 5CDC19D7) (tstamp 5D015F28)
    (at 119.38 80.01)
    (path /5CDCE9EA)
    (fp_text reference J17 (at 0 0.5) (layer F.SilkS)
      (effects (font (size 1 1) (thickness 0.15)))
    )
    (fp_text value Conn_01x01_Male (at 0 -0.5) (layer F.Fab)
      (effects (font (size 1 1) (thickness 0.15)))
    )
    (pad 1 thru_hole circle (at 0 2.54) (size 1.524 1.524) (drill 0.762) (layers *.Cu *.Mask)
      (net 1 VCC))
  )

  (module onepad:01pad (layer F.Cu) (tedit 5CDC19D7) (tstamp 5D015F2D)
    (at 124.46 80.01)
    (path /5CDCEA30)
    (fp_text reference J18 (at 0 0.5) (layer F.SilkS)
      (effects (font (size 1 1) (thickness 0.15)))
    )
    (fp_text value Conn_01x01_Male (at 0 -0.5) (layer F.Fab)
      (effects (font (size 1 1) (thickness 0.15)))
    )
    (pad 1 thru_hole circle (at 0 2.54) (size 1.524 1.524) (drill 0.762) (layers *.Cu *.Mask)
      (net 1 VCC))
  )

  (module onepad:01pad (layer F.Cu) (tedit 5CDC19D7) (tstamp 5D015F32)
    (at 127 80.01)
    (path /5CDCEA7D)
    (fp_text reference J19 (at 0 0.5) (layer F.SilkS)
      (effects (font (size 1 1) (thickness 0.15)))
    )
    (fp_text value Conn_01x01_Male (at 0 -0.5) (layer F.Fab)
      (effects (font (size 1 1) (thickness 0.15)))
    )
    (pad 1 thru_hole circle (at 0 2.54) (size 1.524 1.524) (drill 0.762) (layers *.Cu *.Mask)
      (net 1 VCC))
  )

  (module onepad:01pad (layer F.Cu) (tedit 5CDC19D7) (tstamp 5D015F37)
    (at 121.92 74.168)
    (path /5CDDED3C)
    (fp_text reference J20 (at 0 0.5) (layer F.SilkS)
      (effects (font (size 1 1) (thickness 0.15)))
    )
    (fp_text value Conn_01x01_Male (at 0 -0.5) (layer F.Fab)
      (effects (font (size 1 1) (thickness 0.15)))
    )
    (pad 1 thru_hole circle (at 0 2.54) (size 1.524 1.524) (drill 0.762) (layers *.Cu *.Mask)
      (net 18 "Net-(J20-Pad1)"))
  )

  (module onepad:01pad (layer F.Cu) (tedit 5CDC19D7) (tstamp 5D015F3C)
    (at 119.38 74.168)
    (path /5CDDED35)
    (fp_text reference J21 (at 0 0.5) (layer F.SilkS)
      (effects (font (size 1 1) (thickness 0.15)))
    )
    (fp_text value Conn_01x01_Male (at 0 -0.5) (layer F.Fab)
      (effects (font (size 1 1) (thickness 0.15)))
    )
    (pad 1 thru_hole circle (at 0 2.54) (size 1.524 1.524) (drill 0.762) (layers *.Cu *.Mask)
      (net 19 "Net-(J21-Pad1)"))
  )

  (module onepad:01pad (layer F.Cu) (tedit 5CDC19D7) (tstamp 5D015F41)
    (at 121.92 71.12)
    (path /5CDDED20)
    (fp_text reference J22 (at 0 0.5) (layer F.SilkS)
      (effects (font (size 1 1) (thickness 0.15)))
    )
    (fp_text value Conn_01x01_Male (at 0 -0.5) (layer F.Fab)
      (effects (font (size 1 1) (thickness 0.15)))
    )
    (pad 1 thru_hole circle (at 0 2.54) (size 1.524 1.524) (drill 0.762) (layers *.Cu *.Mask)
      (net 20 "Net-(J22-Pad1)"))
  )

  (module onepad:01pad (layer F.Cu) (tedit 5CDC19D7) (tstamp 5D015F4B)
    (at 119.38 71.12)
    (path /5CDDED19)
    (fp_text reference J24 (at 0 0.5) (layer F.SilkS)
      (effects (font (size 1 1) (thickness 0.15)))
    )
    (fp_text value Conn_01x01_Male (at 0 -0.5) (layer F.Fab)
      (effects (font (size 1 1) (thickness 0.15)))
    )
    (pad 1 thru_hole circle (at 0 2.54) (size 1.524 1.524) (drill 0.762) (layers *.Cu *.Mask)
      (net 21 "Net-(J24-Pad1)"))
  )

  (module onepad:01pad (layer F.Cu) (tedit 5CDC19D7) (tstamp 5D015F50)
    (at 116.84 71.12)
    (path /5CDDED12)
    (fp_text reference J25 (at 0 0.5) (layer F.SilkS)
      (effects (font (size 1 1) (thickness 0.15)))
    )
    (fp_text value Conn_01x01_Male (at 0 -0.5) (layer F.Fab)
      (effects (font (size 1 1) (thickness 0.15)))
    )
    (pad 1 thru_hole circle (at 0 2.54) (size 1.524 1.524) (drill 0.762) (layers *.Cu *.Mask)
      (net 22 "Net-(J25-Pad1)"))
  )

  (module onepad:01pad (layer F.Cu) (tedit 5CDC19D7) (tstamp 5D015F55)
    (at 114.3 71.12)
    (path /5CDDED0B)
    (fp_text reference J26 (at 0 0.5) (layer F.SilkS)
      (effects (font (size 1 1) (thickness 0.15)))
    )
    (fp_text value Conn_01x01_Male (at 0 -0.5) (layer F.Fab)
      (effects (font (size 1 1) (thickness 0.15)))
    )
    (pad 1 thru_hole circle (at 0 2.54) (size 1.524 1.524) (drill 0.762) (layers *.Cu *.Mask)
      (net 23 "Net-(J26-Pad1)"))
  )

  (module onepad:01pad (layer F.Cu) (tedit 5CDC19D7) (tstamp 5D015F5A)
    (at 121.92 67.31)
    (path /5CDDED27)
    (fp_text reference J27 (at 0 0.5) (layer F.SilkS)
      (effects (font (size 1 1) (thickness 0.15)))
    )
    (fp_text value Conn_01x01_Male (at 0 -0.5) (layer F.Fab)
      (effects (font (size 1 1) (thickness 0.15)))
    )
    (pad 1 thru_hole circle (at 0 2.54) (size 1.524 1.524) (drill 0.762) (layers *.Cu *.Mask)
      (net 24 "Net-(J27-Pad1)"))
  )

  (module onepad:01pad (layer F.Cu) (tedit 5CDC19D7) (tstamp 5D015F5F)
    (at 105.41 67.31)
    (path /5CDCF074)
    (fp_text reference J28 (at 0 0.5) (layer F.SilkS)
      (effects (font (size 1 1) (thickness 0.15)))
    )
    (fp_text value Conn_01x01_Male (at 0 -0.5) (layer F.Fab)
      (effects (font (size 1 1) (thickness 0.15)))
    )
    (pad 1 thru_hole circle (at 0 2.54) (size 1.524 1.524) (drill 0.762) (layers *.Cu *.Mask)
      (net 25 "Net-(J28-Pad1)"))
  )

  (module onepad:01pad (layer F.Cu) (tedit 5CDC19D7) (tstamp 5D015F64)
    (at 124.46 77.47)
    (path /5CDCF06D)
    (fp_text reference J29 (at 0 0.5) (layer F.SilkS)
      (effects (font (size 1 1) (thickness 0.15)))
    )
    (fp_text value Conn_01x01_Male (at 0 -0.5) (layer F.Fab)
      (effects (font (size 1 1) (thickness 0.15)))
    )
    (pad 1 thru_hole circle (at 0 2.54) (size 1.524 1.524) (drill 0.762) (layers *.Cu *.Mask)
      (net 2 GND))
  )

  (module onepad:01pad (layer F.Cu) (tedit 5CDC19D7) (tstamp 5D015F69)
    (at 121.92 77.47)
    (path /5CDCF066)
    (fp_text reference J30 (at 0 0.5) (layer F.SilkS)
      (effects (font (size 1 1) (thickness 0.15)))
    )
    (fp_text value Conn_01x01_Male (at 0 -0.5) (layer F.Fab)
      (effects (font (size 1 1) (thickness 0.15)))
    )
    (pad 1 thru_hole circle (at 0 2.54) (size 1.524 1.524) (drill 0.762) (layers *.Cu *.Mask)
      (net 2 GND))
  )

  (module onepad:01pad (layer F.Cu) (tedit 5CDC19D7) (tstamp 5D015F6E)
    (at 119.38 77.47)
    (path /5CDCF05F)
    (fp_text reference J31 (at 0 0.5) (layer F.SilkS)
      (effects (font (size 1 1) (thickness 0.15)))
    )
    (fp_text value Conn_01x01_Male (at 0 -0.5) (layer F.Fab)
      (effects (font (size 1 1) (thickness 0.15)))
    )
    (pad 1 thru_hole circle (at 0 2.54) (size 1.524 1.524) (drill 0.762) (layers *.Cu *.Mask)
      (net 2 GND))
  )

  (module onepad:01pad (layer F.Cu) (tedit 5CDC19D7) (tstamp 5D015F73)
    (at 127 77.47)
    (path /5CDD7919)
    (fp_text reference J32 (at 0 0.5) (layer F.SilkS)
      (effects (font (size 1 1) (thickness 0.15)))
    )
    (fp_text value Conn_01x01_Male (at 0 -0.5) (layer F.Fab)
      (effects (font (size 1 1) (thickness 0.15)))
    )
    (pad 1 thru_hole circle (at 0 2.54) (size 1.524 1.524) (drill 0.762) (layers *.Cu *.Mask)
      (net 2 GND))
  )

  (module a_fab:fab-2-SMD-5X3MM (layer F.Cu) (tedit 200000) (tstamp 5D015F7F)
    (at 100.33 85.63102 270)
    (path /5CDB0C8C)
    (attr smd)
    (fp_text reference M1 (at 0.635 -3.175 270) (layer F.SilkS)
      (effects (font (size 1.27 1.27) (thickness 0.1016)))
    )
    (fp_text value 16MHz (at 1.27 3.175 270) (layer F.SilkS)
      (effects (font (size 1.27 1.27) (thickness 0.1016)))
    )
    (fp_line (start -2.49936 -1.29794) (end -2.49936 -1.59766) (layer B.SilkS) (width 0.127))
    (fp_line (start -2.49936 -1.59766) (end 2.49936 -1.59766) (layer B.SilkS) (width 0.127))
    (fp_line (start 2.49936 -1.59766) (end 2.49936 -1.29794) (layer B.SilkS) (width 0.127))
    (fp_line (start 2.49936 1.29794) (end 2.49936 1.59766) (layer B.SilkS) (width 0.127))
    (fp_line (start 2.49936 1.59766) (end -2.49936 1.59766) (layer B.SilkS) (width 0.127))
    (fp_line (start -2.49936 1.59766) (end -2.49936 1.29794) (layer B.SilkS) (width 0.127))
    (pad P$1 smd rect (at -1.99898 0 270) (size 1.99898 2.39776) (layers F.Cu F.Paste F.Mask)
      (net 3 "Net-(C2-Pad2)"))
    (pad P$2 smd rect (at 1.99898 0 270) (size 1.99898 2.39776) (layers F.Cu F.Paste F.Mask)
      (net 4 "Net-(C3-Pad2)"))
  )

  (module Package_TO_SOT_THT:TO-92_Inline (layer F.Cu) (tedit 5A1DD157) (tstamp 5D015F91)
    (at 109.22 69.85)
    (descr "TO-92 leads in-line, narrow, oval pads, drill 0.75mm (see NXP sot054_po.pdf)")
    (tags "to-92 sc-43 sc-43a sot54 PA33 transistor")
    (path /5CDB3A86)
    (fp_text reference Q1 (at 1.27 -3.56) (layer F.SilkS)
      (effects (font (size 1 1) (thickness 0.15)))
    )
    (fp_text value BF244A (at 1.27 2.79) (layer F.Fab)
      (effects (font (size 1 1) (thickness 0.15)))
    )
    (fp_text user %R (at 1.27 -3.56) (layer F.Fab)
      (effects (font (size 1 1) (thickness 0.15)))
    )
    (fp_line (start -0.53 1.85) (end 3.07 1.85) (layer F.SilkS) (width 0.12))
    (fp_line (start -0.5 1.75) (end 3 1.75) (layer F.Fab) (width 0.1))
    (fp_line (start -1.46 -2.73) (end 4 -2.73) (layer F.CrtYd) (width 0.05))
    (fp_line (start -1.46 -2.73) (end -1.46 2.01) (layer F.CrtYd) (width 0.05))
    (fp_line (start 4 2.01) (end 4 -2.73) (layer F.CrtYd) (width 0.05))
    (fp_line (start 4 2.01) (end -1.46 2.01) (layer F.CrtYd) (width 0.05))
    (fp_arc (start 1.27 0) (end 1.27 -2.48) (angle 135) (layer F.Fab) (width 0.1))
    (fp_arc (start 1.27 0) (end 1.27 -2.6) (angle -135) (layer F.SilkS) (width 0.12))
    (fp_arc (start 1.27 0) (end 1.27 -2.48) (angle -135) (layer F.Fab) (width 0.1))
    (fp_arc (start 1.27 0) (end 1.27 -2.6) (angle 135) (layer F.SilkS) (width 0.12))
    (pad 2 thru_hole oval (at 1.27 0) (size 1.05 1.5) (drill 0.75) (layers *.Cu *.Mask)
      (net 26 "Net-(Q1-Pad2)"))
    (pad 3 thru_hole oval (at 2.54 0) (size 1.05 1.5) (drill 0.75) (layers *.Cu *.Mask)
      (net 1 VCC))
    (pad 1 thru_hole rect (at 0 0) (size 1.05 1.5) (drill 0.75) (layers *.Cu *.Mask)
      (net 25 "Net-(J28-Pad1)"))
    (model ${KISYS3DMOD}/Package_TO_SOT_THT.3dshapes/TO-92_Inline.wrl
      (at (xyz 0 0 0))
      (scale (xyz 1 1 1))
      (rotate (xyz 0 0 0))
    )
  )

  (module a_fab:fab-TQFP32-08THIN (layer F.Cu) (tedit 200000) (tstamp 5D01606B)
    (at 111.6076 81.1276)
    (path /5CDB3619)
    (attr smd)
    (fp_text reference U1 (at -0.7366 -5.4864) (layer F.SilkS)
      (effects (font (size 0.8128 0.8128) (thickness 0.0762)))
    )
    (fp_text value ATmega328-AU (at -0.5842 0.8636) (layer F.SilkS)
      (effects (font (size 0.8128 0.8128) (thickness 0.0762)))
    )
    (fp_line (start -4.5466 -2.57048) (end -3.556 -2.57048) (layer F.SilkS) (width 0.06604))
    (fp_line (start -3.556 -2.57048) (end -3.556 -3.02768) (layer F.SilkS) (width 0.06604))
    (fp_line (start -4.5466 -3.02768) (end -3.556 -3.02768) (layer F.SilkS) (width 0.06604))
    (fp_line (start -4.5466 -2.57048) (end -4.5466 -3.02768) (layer F.SilkS) (width 0.06604))
    (fp_line (start -4.5466 -1.77038) (end -3.556 -1.77038) (layer F.SilkS) (width 0.06604))
    (fp_line (start -3.556 -1.77038) (end -3.556 -2.22758) (layer F.SilkS) (width 0.06604))
    (fp_line (start -4.5466 -2.22758) (end -3.556 -2.22758) (layer F.SilkS) (width 0.06604))
    (fp_line (start -4.5466 -1.77038) (end -4.5466 -2.22758) (layer F.SilkS) (width 0.06604))
    (fp_line (start -4.5466 -0.97028) (end -3.556 -0.97028) (layer F.SilkS) (width 0.06604))
    (fp_line (start -3.556 -0.97028) (end -3.556 -1.42748) (layer F.SilkS) (width 0.06604))
    (fp_line (start -4.5466 -1.42748) (end -3.556 -1.42748) (layer F.SilkS) (width 0.06604))
    (fp_line (start -4.5466 -0.97028) (end -4.5466 -1.42748) (layer F.SilkS) (width 0.06604))
    (fp_line (start -4.5466 -0.17018) (end -3.556 -0.17018) (layer F.SilkS) (width 0.06604))
    (fp_line (start -3.556 -0.17018) (end -3.556 -0.62738) (layer F.SilkS) (width 0.06604))
    (fp_line (start -4.5466 -0.62738) (end -3.556 -0.62738) (layer F.SilkS) (width 0.06604))
    (fp_line (start -4.5466 -0.17018) (end -4.5466 -0.62738) (layer F.SilkS) (width 0.06604))
    (fp_line (start -4.5466 0.62738) (end -3.556 0.62738) (layer F.SilkS) (width 0.06604))
    (fp_line (start -3.556 0.62738) (end -3.556 0.17018) (layer F.SilkS) (width 0.06604))
    (fp_line (start -4.5466 0.17018) (end -3.556 0.17018) (layer F.SilkS) (width 0.06604))
    (fp_line (start -4.5466 0.62738) (end -4.5466 0.17018) (layer F.SilkS) (width 0.06604))
    (fp_line (start -4.5466 1.42748) (end -3.556 1.42748) (layer F.SilkS) (width 0.06604))
    (fp_line (start -3.556 1.42748) (end -3.556 0.97028) (layer F.SilkS) (width 0.06604))
    (fp_line (start -4.5466 0.97028) (end -3.556 0.97028) (layer F.SilkS) (width 0.06604))
    (fp_line (start -4.5466 1.42748) (end -4.5466 0.97028) (layer F.SilkS) (width 0.06604))
    (fp_line (start -4.5466 2.22758) (end -3.556 2.22758) (layer F.SilkS) (width 0.06604))
    (fp_line (start -3.556 2.22758) (end -3.556 1.77038) (layer F.SilkS) (width 0.06604))
    (fp_line (start -4.5466 1.77038) (end -3.556 1.77038) (layer F.SilkS) (width 0.06604))
    (fp_line (start -4.5466 2.22758) (end -4.5466 1.77038) (layer F.SilkS) (width 0.06604))
    (fp_line (start -4.5466 3.02768) (end -3.556 3.02768) (layer F.SilkS) (width 0.06604))
    (fp_line (start -3.556 3.02768) (end -3.556 2.57048) (layer F.SilkS) (width 0.06604))
    (fp_line (start -4.5466 2.57048) (end -3.556 2.57048) (layer F.SilkS) (width 0.06604))
    (fp_line (start -4.5466 3.02768) (end -4.5466 2.57048) (layer F.SilkS) (width 0.06604))
    (fp_line (start -3.02768 4.5466) (end -2.57048 4.5466) (layer F.SilkS) (width 0.06604))
    (fp_line (start -2.57048 4.5466) (end -2.57048 3.556) (layer F.SilkS) (width 0.06604))
    (fp_line (start -3.02768 3.556) (end -2.57048 3.556) (layer F.SilkS) (width 0.06604))
    (fp_line (start -3.02768 4.5466) (end -3.02768 3.556) (layer F.SilkS) (width 0.06604))
    (fp_line (start -2.22758 4.5466) (end -1.77038 4.5466) (layer F.SilkS) (width 0.06604))
    (fp_line (start -1.77038 4.5466) (end -1.77038 3.556) (layer F.SilkS) (width 0.06604))
    (fp_line (start -2.22758 3.556) (end -1.77038 3.556) (layer F.SilkS) (width 0.06604))
    (fp_line (start -2.22758 4.5466) (end -2.22758 3.556) (layer F.SilkS) (width 0.06604))
    (fp_line (start -1.42748 4.5466) (end -0.97028 4.5466) (layer F.SilkS) (width 0.06604))
    (fp_line (start -0.97028 4.5466) (end -0.97028 3.556) (layer F.SilkS) (width 0.06604))
    (fp_line (start -1.42748 3.556) (end -0.97028 3.556) (layer F.SilkS) (width 0.06604))
    (fp_line (start -1.42748 4.5466) (end -1.42748 3.556) (layer F.SilkS) (width 0.06604))
    (fp_line (start -0.62738 4.5466) (end -0.17018 4.5466) (layer F.SilkS) (width 0.06604))
    (fp_line (start -0.17018 4.5466) (end -0.17018 3.556) (layer F.SilkS) (width 0.06604))
    (fp_line (start -0.62738 3.556) (end -0.17018 3.556) (layer F.SilkS) (width 0.06604))
    (fp_line (start -0.62738 4.5466) (end -0.62738 3.556) (layer F.SilkS) (width 0.06604))
    (fp_line (start 0.17018 4.5466) (end 0.62738 4.5466) (layer F.SilkS) (width 0.06604))
    (fp_line (start 0.62738 4.5466) (end 0.62738 3.556) (layer F.SilkS) (width 0.06604))
    (fp_line (start 0.17018 3.556) (end 0.62738 3.556) (layer F.SilkS) (width 0.06604))
    (fp_line (start 0.17018 4.5466) (end 0.17018 3.556) (layer F.SilkS) (width 0.06604))
    (fp_line (start 0.97028 4.5466) (end 1.42748 4.5466) (layer F.SilkS) (width 0.06604))
    (fp_line (start 1.42748 4.5466) (end 1.42748 3.556) (layer F.SilkS) (width 0.06604))
    (fp_line (start 0.97028 3.556) (end 1.42748 3.556) (layer F.SilkS) (width 0.06604))
    (fp_line (start 0.97028 4.5466) (end 0.97028 3.556) (layer F.SilkS) (width 0.06604))
    (fp_line (start 1.77038 4.5466) (end 2.22758 4.5466) (layer F.SilkS) (width 0.06604))
    (fp_line (start 2.22758 4.5466) (end 2.22758 3.556) (layer F.SilkS) (width 0.06604))
    (fp_line (start 1.77038 3.556) (end 2.22758 3.556) (layer F.SilkS) (width 0.06604))
    (fp_line (start 1.77038 4.5466) (end 1.77038 3.556) (layer F.SilkS) (width 0.06604))
    (fp_line (start 2.57048 4.5466) (end 3.02768 4.5466) (layer F.SilkS) (width 0.06604))
    (fp_line (start 3.02768 4.5466) (end 3.02768 3.556) (layer F.SilkS) (width 0.06604))
    (fp_line (start 2.57048 3.556) (end 3.02768 3.556) (layer F.SilkS) (width 0.06604))
    (fp_line (start 2.57048 4.5466) (end 2.57048 3.556) (layer F.SilkS) (width 0.06604))
    (fp_line (start 3.556 3.02768) (end 4.5466 3.02768) (layer F.SilkS) (width 0.06604))
    (fp_line (start 4.5466 3.02768) (end 4.5466 2.57048) (layer F.SilkS) (width 0.06604))
    (fp_line (start 3.556 2.57048) (end 4.5466 2.57048) (layer F.SilkS) (width 0.06604))
    (fp_line (start 3.556 3.02768) (end 3.556 2.57048) (layer F.SilkS) (width 0.06604))
    (fp_line (start 3.556 2.22758) (end 4.5466 2.22758) (layer F.SilkS) (width 0.06604))
    (fp_line (start 4.5466 2.22758) (end 4.5466 1.77038) (layer F.SilkS) (width 0.06604))
    (fp_line (start 3.556 1.77038) (end 4.5466 1.77038) (layer F.SilkS) (width 0.06604))
    (fp_line (start 3.556 2.22758) (end 3.556 1.77038) (layer F.SilkS) (width 0.06604))
    (fp_line (start 3.556 1.42748) (end 4.5466 1.42748) (layer F.SilkS) (width 0.06604))
    (fp_line (start 4.5466 1.42748) (end 4.5466 0.97028) (layer F.SilkS) (width 0.06604))
    (fp_line (start 3.556 0.97028) (end 4.5466 0.97028) (layer F.SilkS) (width 0.06604))
    (fp_line (start 3.556 1.42748) (end 3.556 0.97028) (layer F.SilkS) (width 0.06604))
    (fp_line (start 3.556 0.62738) (end 4.5466 0.62738) (layer F.SilkS) (width 0.06604))
    (fp_line (start 4.5466 0.62738) (end 4.5466 0.17018) (layer F.SilkS) (width 0.06604))
    (fp_line (start 3.556 0.17018) (end 4.5466 0.17018) (layer F.SilkS) (width 0.06604))
    (fp_line (start 3.556 0.62738) (end 3.556 0.17018) (layer F.SilkS) (width 0.06604))
    (fp_line (start 3.556 -0.17018) (end 4.5466 -0.17018) (layer F.SilkS) (width 0.06604))
    (fp_line (start 4.5466 -0.17018) (end 4.5466 -0.62738) (layer F.SilkS) (width 0.06604))
    (fp_line (start 3.556 -0.62738) (end 4.5466 -0.62738) (layer F.SilkS) (width 0.06604))
    (fp_line (start 3.556 -0.17018) (end 3.556 -0.62738) (layer F.SilkS) (width 0.06604))
    (fp_line (start 3.556 -0.97028) (end 4.5466 -0.97028) (layer F.SilkS) (width 0.06604))
    (fp_line (start 4.5466 -0.97028) (end 4.5466 -1.42748) (layer F.SilkS) (width 0.06604))
    (fp_line (start 3.556 -1.42748) (end 4.5466 -1.42748) (layer F.SilkS) (width 0.06604))
    (fp_line (start 3.556 -0.97028) (end 3.556 -1.42748) (layer F.SilkS) (width 0.06604))
    (fp_line (start 3.556 -1.77038) (end 4.5466 -1.77038) (layer F.SilkS) (width 0.06604))
    (fp_line (start 4.5466 -1.77038) (end 4.5466 -2.22758) (layer F.SilkS) (width 0.06604))
    (fp_line (start 3.556 -2.22758) (end 4.5466 -2.22758) (layer F.SilkS) (width 0.06604))
    (fp_line (start 3.556 -1.77038) (end 3.556 -2.22758) (layer F.SilkS) (width 0.06604))
    (fp_line (start 3.556 -2.57048) (end 4.5466 -2.57048) (layer F.SilkS) (width 0.06604))
    (fp_line (start 4.5466 -2.57048) (end 4.5466 -3.02768) (layer F.SilkS) (width 0.06604))
    (fp_line (start 3.556 -3.02768) (end 4.5466 -3.02768) (layer F.SilkS) (width 0.06604))
    (fp_line (start 3.556 -2.57048) (end 3.556 -3.02768) (layer F.SilkS) (width 0.06604))
    (fp_line (start 2.57048 -3.556) (end 3.02768 -3.556) (layer F.SilkS) (width 0.06604))
    (fp_line (start 3.02768 -3.556) (end 3.02768 -4.5466) (layer F.SilkS) (width 0.06604))
    (fp_line (start 2.57048 -4.5466) (end 3.02768 -4.5466) (layer F.SilkS) (width 0.06604))
    (fp_line (start 2.57048 -3.556) (end 2.57048 -4.5466) (layer F.SilkS) (width 0.06604))
    (fp_line (start 1.77038 -3.556) (end 2.22758 -3.556) (layer F.SilkS) (width 0.06604))
    (fp_line (start 2.22758 -3.556) (end 2.22758 -4.5466) (layer F.SilkS) (width 0.06604))
    (fp_line (start 1.77038 -4.5466) (end 2.22758 -4.5466) (layer F.SilkS) (width 0.06604))
    (fp_line (start 1.77038 -3.556) (end 1.77038 -4.5466) (layer F.SilkS) (width 0.06604))
    (fp_line (start 0.97028 -3.556) (end 1.42748 -3.556) (layer F.SilkS) (width 0.06604))
    (fp_line (start 1.42748 -3.556) (end 1.42748 -4.5466) (layer F.SilkS) (width 0.06604))
    (fp_line (start 0.97028 -4.5466) (end 1.42748 -4.5466) (layer F.SilkS) (width 0.06604))
    (fp_line (start 0.97028 -3.556) (end 0.97028 -4.5466) (layer F.SilkS) (width 0.06604))
    (fp_line (start 0.17018 -3.556) (end 0.62738 -3.556) (layer F.SilkS) (width 0.06604))
    (fp_line (start 0.62738 -3.556) (end 0.62738 -4.5466) (layer F.SilkS) (width 0.06604))
    (fp_line (start 0.17018 -4.5466) (end 0.62738 -4.5466) (layer F.SilkS) (width 0.06604))
    (fp_line (start 0.17018 -3.556) (end 0.17018 -4.5466) (layer F.SilkS) (width 0.06604))
    (fp_line (start -0.62738 -3.556) (end -0.17018 -3.556) (layer F.SilkS) (width 0.06604))
    (fp_line (start -0.17018 -3.556) (end -0.17018 -4.5466) (layer F.SilkS) (width 0.06604))
    (fp_line (start -0.62738 -4.5466) (end -0.17018 -4.5466) (layer F.SilkS) (width 0.06604))
    (fp_line (start -0.62738 -3.556) (end -0.62738 -4.5466) (layer F.SilkS) (width 0.06604))
    (fp_line (start -1.42748 -3.556) (end -0.97028 -3.556) (layer F.SilkS) (width 0.06604))
    (fp_line (start -0.97028 -3.556) (end -0.97028 -4.5466) (layer F.SilkS) (width 0.06604))
    (fp_line (start -1.42748 -4.5466) (end -0.97028 -4.5466) (layer F.SilkS) (width 0.06604))
    (fp_line (start -1.42748 -3.556) (end -1.42748 -4.5466) (layer F.SilkS) (width 0.06604))
    (fp_line (start -2.22758 -3.556) (end -1.77038 -3.556) (layer F.SilkS) (width 0.06604))
    (fp_line (start -1.77038 -3.556) (end -1.77038 -4.5466) (layer F.SilkS) (width 0.06604))
    (fp_line (start -2.22758 -4.5466) (end -1.77038 -4.5466) (layer F.SilkS) (width 0.06604))
    (fp_line (start -2.22758 -3.556) (end -2.22758 -4.5466) (layer F.SilkS) (width 0.06604))
    (fp_line (start -3.02768 -3.556) (end -2.57048 -3.556) (layer F.SilkS) (width 0.06604))
    (fp_line (start -2.57048 -3.556) (end -2.57048 -4.5466) (layer F.SilkS) (width 0.06604))
    (fp_line (start -3.02768 -4.5466) (end -2.57048 -4.5466) (layer F.SilkS) (width 0.06604))
    (fp_line (start -3.02768 -3.556) (end -3.02768 -4.5466) (layer F.SilkS) (width 0.06604))
    (fp_line (start 3.50266 -3.50266) (end 3.50266 3.50266) (layer B.SilkS) (width 0.1524))
    (fp_line (start 3.50266 3.50266) (end -3.50266 3.50266) (layer B.SilkS) (width 0.1524))
    (fp_line (start -3.50266 3.50266) (end -3.50266 -3.1496) (layer B.SilkS) (width 0.1524))
    (fp_line (start -3.1496 -3.50266) (end 3.50266 -3.50266) (layer B.SilkS) (width 0.1524))
    (fp_line (start -3.1496 -3.50266) (end -3.50266 -3.1496) (layer B.SilkS) (width 0.1524))
    (fp_circle (center -2.7432 -2.7432) (end -2.921 -2.921) (layer B.SilkS) (width 0.0762))
    (pad 1 smd rect (at -4.36626 -2.79908) (size 1.1176 0.3556) (layers F.Cu F.Paste F.Mask)
      (net 13 "Net-(J10-Pad1)"))
    (pad 2 smd rect (at -4.2926 -1.99898) (size 1.27 0.3556) (layers F.Cu F.Paste F.Mask)
      (net 14 "Net-(J12-Pad1)"))
    (pad 3 smd rect (at -4.2926 -1.19888) (size 1.27 0.3556) (layers F.Cu F.Paste F.Mask)
      (net 2 GND))
    (pad 4 smd rect (at -4.2926 -0.39878) (size 1.27 0.3556) (layers F.Cu F.Paste F.Mask)
      (net 1 VCC))
    (pad 5 smd rect (at -4.2926 0.39878) (size 1.27 0.3556) (layers F.Cu F.Paste F.Mask)
      (net 2 GND))
    (pad 6 smd rect (at -4.2926 1.19888) (size 1.27 0.3556) (layers F.Cu F.Paste F.Mask)
      (net 1 VCC))
    (pad 7 smd rect (at -4.2926 1.99898) (size 1.27 0.3556) (layers F.Cu F.Paste F.Mask)
      (net 3 "Net-(C2-Pad2)"))
    (pad 8 smd rect (at -4.36626 2.79908) (size 1.1176 0.3556) (layers F.Cu F.Paste F.Mask)
      (net 4 "Net-(C3-Pad2)"))
    (pad 9 smd rect (at -2.79908 4.36626) (size 0.3556 1.1176) (layers F.Cu F.Paste F.Mask)
      (net 15 "Net-(J13-Pad1)"))
    (pad 10 smd rect (at -1.99898 4.2926) (size 0.3556 1.27) (layers F.Cu F.Paste F.Mask)
      (net 16 "Net-(J14-Pad1)"))
    (pad 11 smd rect (at -1.19888 4.2926) (size 0.34798 1.27) (layers F.Cu F.Paste F.Mask)
      (net 17 "Net-(J15-Pad1)"))
    (pad 12 smd rect (at -0.39878 4.2926) (size 0.34798 1.27) (layers F.Cu F.Paste F.Mask)
      (net 5 "Net-(J1-Pad1)"))
    (pad 13 smd rect (at 0.39878 4.2926) (size 0.34798 1.27) (layers F.Cu F.Paste F.Mask)
      (net 6 "Net-(J2-Pad1)"))
    (pad 14 smd rect (at 1.19888 4.2926) (size 0.3556 1.27) (layers F.Cu F.Paste F.Mask)
      (net 7 "Net-(J4-Pad1)"))
    (pad 15 smd rect (at 1.99898 4.2926) (size 0.3556 1.27) (layers F.Cu F.Paste F.Mask)
      (net 8 "Net-(J5-Pad1)"))
    (pad 16 smd rect (at 2.79908 4.36626) (size 0.3556 1.1176) (layers F.Cu F.Paste F.Mask)
      (net 9 "Net-(J6-Pad1)"))
    (pad 17 smd rect (at 4.36626 2.79908) (size 1.1176 0.3556) (layers F.Cu F.Paste F.Mask)
      (net 10 "Net-(J7-Pad1)"))
    (pad 18 smd rect (at 4.2926 1.99898) (size 1.27 0.3556) (layers F.Cu F.Paste F.Mask)
      (net 1 VCC))
    (pad 19 smd rect (at 4.2926 1.19888) (size 1.27 0.3556) (layers F.Cu F.Paste F.Mask)
      (net 27 "Net-(U1-Pad19)"))
    (pad 20 smd rect (at 4.2926 0.39878) (size 1.27 0.3556) (layers F.Cu F.Paste F.Mask)
      (net 28 "Net-(U1-Pad20)"))
    (pad 21 smd rect (at 4.2926 -0.39878) (size 1.27 0.3556) (layers F.Cu F.Paste F.Mask)
      (net 2 GND))
    (pad 22 smd rect (at 4.2926 -1.19888) (size 1.27 0.3556) (layers F.Cu F.Paste F.Mask)
      (net 29 "Net-(U1-Pad22)"))
    (pad 23 smd rect (at 4.2926 -1.99898) (size 1.27 0.3556) (layers F.Cu F.Paste F.Mask)
      (net 18 "Net-(J20-Pad1)"))
    (pad 24 smd rect (at 4.36626 -2.79908) (size 1.1176 0.3556) (layers F.Cu F.Paste F.Mask)
      (net 19 "Net-(J21-Pad1)"))
    (pad 25 smd rect (at 2.79908 -4.36626) (size 0.3556 1.1176) (layers F.Cu F.Paste F.Mask)
      (net 20 "Net-(J22-Pad1)"))
    (pad 26 smd rect (at 1.99898 -4.2926) (size 0.3556 1.27) (layers F.Cu F.Paste F.Mask)
      (net 21 "Net-(J24-Pad1)"))
    (pad 27 smd rect (at 1.19888 -4.2926) (size 0.3556 1.27) (layers F.Cu F.Paste F.Mask)
      (net 22 "Net-(J25-Pad1)"))
    (pad 28 smd rect (at 0.39878 -4.2926) (size 0.34798 1.27) (layers F.Cu F.Paste F.Mask)
      (net 23 "Net-(J26-Pad1)"))
    (pad 29 smd rect (at -0.39878 -4.2926) (size 0.34798 1.27) (layers F.Cu F.Paste F.Mask)
      (net 24 "Net-(J27-Pad1)"))
    (pad 30 smd rect (at -1.19888 -4.2926) (size 0.34798 1.27) (layers F.Cu F.Paste F.Mask)
      (net 26 "Net-(Q1-Pad2)"))
    (pad 31 smd rect (at -1.99898 -4.2926) (size 0.3556 1.27) (layers F.Cu F.Paste F.Mask)
      (net 11 "Net-(J8-Pad1)"))
    (pad 32 smd rect (at -2.79908 -4.36626) (size 0.3556 1.1176) (layers F.Cu F.Paste F.Mask)
      (net 12 "Net-(J9-Pad1)"))
  )

  (module onepad:padbig (layer F.Cu) (tedit 5CDEB192) (tstamp 5CF73922)
    (at 105.345001 95.25)
    (path /5CDE0A85)
    (fp_text reference J2 (at 0 0.5) (layer F.SilkS)
      (effects (font (size 1 1) (thickness 0.15)))
    )
    (fp_text value Conn_01x01_Male (at -13.345001 2.75) (layer F.Fab)
      (effects (font (size 1 1) (thickness 0.15)))
    )
    (fp_circle (center 0 2.921) (end 0 1.651) (layer F.SilkS) (width 0.15))
    (fp_circle (center 0 2.921) (end 0 2.54) (layer F.SilkS) (width 0.15))
  )

  (module onepad:padbig (layer F.Cu) (tedit 5CDEB192) (tstamp 5CF73928)
    (at 108.035001 95.25)
    (path /5CDD7C98)
    (fp_text reference J10 (at 0 0.5) (layer F.SilkS)
      (effects (font (size 1 1) (thickness 0.15)))
    )
    (fp_text value Conn_01x01_Male (at 0 -0.5) (layer F.Fab)
      (effects (font (size 1 1) (thickness 0.15)))
    )
    (fp_circle (center 0 2.921) (end 0 2.54) (layer F.SilkS) (width 0.15))
    (fp_circle (center 0 2.921) (end 0 1.651) (layer F.SilkS) (width 0.15))
  )

  (module onepad:padbig (layer F.Cu) (tedit 5CDEB192) (tstamp 5CF7392E)
    (at 110.725001 95.25)
    (path /5CDDED2E)
    (fp_text reference J23 (at 0 0.5) (layer F.SilkS)
      (effects (font (size 1 1) (thickness 0.15)))
    )
    (fp_text value Conn_01x01_Male (at 0 -0.5) (layer F.Fab)
      (effects (font (size 1 1) (thickness 0.15)))
    )
    (fp_circle (center 0 2.921) (end 0 1.651) (layer F.SilkS) (width 0.15))
    (fp_circle (center 0 2.921) (end 0 2.54) (layer F.SilkS) (width 0.15))
  )

  (gr_poly (pts (xy 94 93) (xy 94 66) (xy 131 66) (xy 131 93)) (layer F.SilkS) (width 0.15))

  (segment (start 111.76 69.85) (end 115.27028 69.85) (width 0.25) (layer F.Cu) (net 1))
  (segment (start 118.80342 83.12658) (end 119.38 82.55) (width 0.25) (layer F.Cu) (net 1))
  (segment (start 115.9002 83.12658) (end 118.80342 83.12658) (width 0.25) (layer F.Cu) (net 1))
  (segment (start 120.45763 82.55) (end 121.92 82.55) (width 0.25) (layer F.Cu) (net 1))
  (segment (start 119.38 82.55) (end 120.45763 82.55) (width 0.25) (layer F.Cu) (net 1))
  (segment (start 122.99763 82.55) (end 124.46 82.55) (width 0.25) (layer F.Cu) (net 1))
  (segment (start 121.92 82.55) (end 122.99763 82.55) (width 0.25) (layer F.Cu) (net 1))
  (segment (start 124.46 82.55) (end 127 82.55) (width 0.25) (layer F.Cu) (net 1))
  (segment (start 127.855 76.835) (end 129.032 78.012) (width 0.25) (layer F.Cu) (net 1))
  (segment (start 127.13 76.835) (end 127.855 76.835) (width 0.25) (layer F.Cu) (net 1))
  (segment (start 129.032 80.518) (end 127 82.55) (width 0.25) (layer F.Cu) (net 1))
  (segment (start 129.032 78.012) (end 129.032 80.518) (width 0.25) (layer F.Cu) (net 1))
  (segment (start 127.13 72.139) (end 127.13 76.835) (width 0.25) (layer F.Cu) (net 1))
  (segment (start 122.936 67.945) (end 127.13 72.139) (width 0.25) (layer F.Cu) (net 1))
  (segment (start 115.27028 69.85) (end 115.27028 68.69957) (width 0.25) (layer F.Cu) (net 1))
  (segment (start 116.02485 67.945) (end 122.936 67.945) (width 0.25) (layer F.Cu) (net 1))
  (segment (start 115.27028 68.69957) (end 116.02485 67.945) (width 0.25) (layer F.Cu) (net 1))
  (segment (start 106.43 82.32648) (end 107.315 82.32648) (width 0.25) (layer F.Cu) (net 1))
  (segment (start 106.172 82.06848) (end 106.43 82.32648) (width 0.25) (layer F.Cu) (net 1))
  (segment (start 106.172 80.98682) (end 106.172 82.06848) (width 0.25) (layer F.Cu) (net 1))
  (segment (start 106.43 80.72882) (end 106.172 80.98682) (width 0.25) (layer F.Cu) (net 1))
  (segment (start 107.315 80.72882) (end 106.43 80.72882) (width 0.25) (layer F.Cu) (net 1))
  (segment (start 108.2 82.32648) (end 108.23048 82.296) (width 0.25) (layer F.Cu) (net 1))
  (segment (start 107.315 82.32648) (end 108.2 82.32648) (width 0.25) (layer F.Cu) (net 1))
  (segment (start 108.23048 82.296) (end 109.982 82.296) (width 0.25) (layer F.Cu) (net 1))
  (segment (start 110.81258 83.12658) (end 115.9002 83.12658) (width 0.25) (layer F.Cu) (net 1))
  (segment (start 109.982 82.296) (end 110.81258 83.12658) (width 0.25) (layer F.Cu) (net 1))
  (segment (start 96.52 80.14) (end 96.39 80.01) (width 0.25) (layer F.Cu) (net 2))
  (segment (start 102.78872 79.92872) (end 107.315 79.92872) (width 0.25) (layer F.Cu) (net 2))
  (segment (start 118.66118 80.72882) (end 119.38 80.01) (width 0.25) (layer F.Cu) (net 2))
  (segment (start 115.9002 80.72882) (end 118.66118 80.72882) (width 0.25) (layer F.Cu) (net 2))
  (segment (start 119.38 80.01) (end 121.92 80.01) (width 0.25) (layer F.Cu) (net 2))
  (segment (start 121.92 80.01) (end 124.46 80.01) (width 0.25) (layer F.Cu) (net 2))
  (segment (start 124.46 80.01) (end 127 80.01) (width 0.25) (layer F.Cu) (net 2))
  (segment (start 124.46 76.965) (end 124.33 76.835) (width 0.25) (layer F.Cu) (net 2))
  (segment (start 124.46 80.01) (end 124.46 76.965) (width 0.25) (layer F.Cu) (net 2))
  (segment (start 108.2 81.52638) (end 108.20762 81.534) (width 0.25) (layer F.Cu) (net 2))
  (segment (start 107.315 81.52638) (end 108.2 81.52638) (width 0.25) (layer F.Cu) (net 2))
  (segment (start 114.34318 80.72882) (end 115.9002 80.72882) (width 0.25) (layer F.Cu) (net 2))
  (segment (start 113.538 81.534) (end 114.34318 80.72882) (width 0.25) (layer F.Cu) (net 2))
  (segment (start 108.2 79.92872) (end 108.28128 80.01) (width 0.25) (layer F.Cu) (net 2))
  (segment (start 107.315 79.92872) (end 108.2 79.92872) (width 0.25) (layer F.Cu) (net 2))
  (segment (start 108.712 80.01) (end 110.236 81.534) (width 0.25) (layer F.Cu) (net 2))
  (segment (start 108.28128 80.01) (end 108.712 80.01) (width 0.25) (layer F.Cu) (net 2))
  (segment (start 108.20762 81.534) (end 110.236 81.534) (width 0.25) (layer F.Cu) (net 2))
  (segment (start 110.236 81.534) (end 113.538 81.534) (width 0.25) (layer F.Cu) (net 2))
  (segment (start 96.52 81.029) (end 96.39 80.899) (width 0.25) (layer F.Cu) (net 2))
  (segment (start 96.52 84.96) (end 96.52 81.029) (width 0.25) (layer F.Cu) (net 2))
  (segment (start 96.39 79.924) (end 97.32 78.994) (width 0.25) (layer F.Cu) (net 2))
  (segment (start 96.39 80.899) (end 96.39 79.924) (width 0.25) (layer F.Cu) (net 2))
  (segment (start 101.854 78.994) (end 102.78872 79.92872) (width 0.25) (layer F.Cu) (net 2))
  (segment (start 97.32 78.994) (end 101.854 78.994) (width 0.25) (layer F.Cu) (net 2))
  (segment (start 100.44176 83.52028) (end 100.33 83.63204) (width 0.25) (layer F.Cu) (net 3))
  (segment (start 104.14 83.52028) (end 100.44176 83.52028) (width 0.25) (layer F.Cu) (net 3))
  (segment (start 104.5337 83.12658) (end 104.14 83.52028) (width 0.25) (layer F.Cu) (net 3))
  (segment (start 107.315 83.12658) (end 104.5337 83.12658) (width 0.25) (layer F.Cu) (net 3))
  (segment (start 99.19 82.49204) (end 100.33 83.63204) (width 0.25) (layer F.Cu) (net 3))
  (segment (start 99.19 80.899) (end 99.19 82.49204) (width 0.25) (layer F.Cu) (net 3))
  (segment (start 107.24134 83.92668) (end 107.24134 85.79866) (width 0.25) (layer F.Cu) (net 4))
  (segment (start 106.68 86.36) (end 104.14 86.36) (width 0.25) (layer F.Cu) (net 4))
  (segment (start 107.24134 85.79866) (end 106.68 86.36) (width 0.25) (layer F.Cu) (net 4))
  (segment (start 103.91883 87.63) (end 104.14 87.40883) (width 0.25) (layer F.Cu) (net 4))
  (segment (start 104.14 87.40883) (end 104.14 86.36) (width 0.25) (layer F.Cu) (net 4))
  (segment (start 100.33 87.63) (end 103.91883 87.63) (width 0.25) (layer F.Cu) (net 4))
  (segment (start 96.65 87.63) (end 96.52 87.76) (width 0.25) (layer F.Cu) (net 4))
  (segment (start 100.33 87.63) (end 96.65 87.63) (width 0.25) (layer F.Cu) (net 4))
  (segment (start 111.20882 89.61882) (end 111.76 90.17) (width 0.25) (layer F.Cu) (net 5))
  (segment (start 111.20882 85.4202) (end 111.20882 89.61882) (width 0.25) (layer F.Cu) (net 5))
  (segment (start 112.00638 87.87638) (end 114.3 90.17) (width 0.25) (layer F.Cu) (net 6))
  (segment (start 112.00638 85.4202) (end 112.00638 87.87638) (width 0.25) (layer F.Cu) (net 6))
  (segment (start 116.67128 90.17) (end 116.84 90.17) (width 0.25) (layer F.Cu) (net 7))
  (segment (start 112.80648 86.3052) (end 116.67128 90.17) (width 0.25) (layer F.Cu) (net 7))
  (segment (start 112.80648 85.4202) (end 112.80648 86.3052) (width 0.25) (layer F.Cu) (net 7))
  (segment (start 118.618001 89.408001) (end 119.38 90.17) (width 0.25) (layer F.Cu) (net 8))
  (segment (start 118.292999 89.082999) (end 118.618001 89.408001) (width 0.25) (layer F.Cu) (net 8))
  (segment (start 113.60658 85.4202) (end 113.60658 86.3052) (width 0.25) (layer F.Cu) (net 8))
  (segment (start 113.60658 86.3052) (end 114.30138 87) (width 0.25) (layer F.Cu) (net 8))
  (segment (start 116.21 87) (end 119.38 90.17) (width 0.25) (layer F.Cu) (net 8))
  (segment (start 114.30138 87) (end 116.21 87) (width 0.25) (layer F.Cu) (net 8))
  (segment (start 117.24386 85.49386) (end 121.92 90.17) (width 0.25) (layer F.Cu) (net 9))
  (segment (start 114.40668 85.49386) (end 117.24386 85.49386) (width 0.25) (layer F.Cu) (net 9))
  (segment (start 117.58168 83.92668) (end 115.97386 83.92668) (width 0.25) (layer F.Cu) (net 10))
  (segment (start 121.92 85.09) (end 118.745 85.09) (width 0.25) (layer F.Cu) (net 10))
  (segment (start 118.745 85.09) (end 117.58168 83.92668) (width 0.25) (layer F.Cu) (net 10))
  (segment (start 109.60862 75.95) (end 108.58862 74.93) (width 0.25) (layer F.Cu) (net 11))
  (segment (start 109.60862 76.835) (end 109.60862 75.95) (width 0.25) (layer F.Cu) (net 11))
  (segment (start 107.95 74.93) (end 102.87 69.85) (width 0.25) (layer F.Cu) (net 11))
  (segment (start 108.58862 74.93) (end 107.95 74.93) (width 0.25) (layer F.Cu) (net 11))
  (segment (start 107.24134 76.76134) (end 102.87 72.39) (width 0.25) (layer F.Cu) (net 12))
  (segment (start 108.80852 76.76134) (end 107.24134 76.76134) (width 0.25) (layer F.Cu) (net 12))
  (segment (start 103.94763 74.93) (end 102.87 74.93) (width 0.25) (layer F.Cu) (net 13))
  (segment (start 104.27062 74.93) (end 103.94763 74.93) (width 0.25) (layer F.Cu) (net 13))
  (segment (start 107.24134 77.90072) (end 104.27062 74.93) (width 0.25) (layer F.Cu) (net 13))
  (segment (start 107.24134 78.32852) (end 107.24134 77.90072) (width 0.25) (layer F.Cu) (net 13))
  (segment (start 104.52862 79.12862) (end 102.87 77.47) (width 0.25) (layer F.Cu) (net 14))
  (segment (start 107.315 79.12862) (end 104.52862 79.12862) (width 0.25) (layer F.Cu) (net 14))
  (segment (start 108.80852 85.50148) (end 108.80852 85.49386) (width 0.25) (layer F.Cu) (net 15))
  (segment (start 104.14 90.17) (end 108.80852 85.50148) (width 0.25) (layer F.Cu) (net 15))
  (segment (start 109.60862 87.24138) (end 106.68 90.17) (width 0.25) (layer F.Cu) (net 16))
  (segment (start 109.60862 85.4202) (end 109.60862 87.24138) (width 0.25) (layer F.Cu) (net 16))
  (segment (start 110.40872 88.98128) (end 109.22 90.17) (width 0.25) (layer F.Cu) (net 17))
  (segment (start 110.40872 85.4202) (end 110.40872 88.98128) (width 0.25) (layer F.Cu) (net 17))
  (segment (start 115.9002 79.12862) (end 118.10238 79.12862) (width 0.25) (layer F.Cu) (net 18))
  (segment (start 118.10238 79.12862) (end 118.872 78.359) (width 0.25) (layer F.Cu) (net 18))
  (segment (start 120.269 78.359) (end 121.92 76.708) (width 0.25) (layer F.Cu) (net 18))
  (segment (start 118.872 78.359) (end 120.269 78.359) (width 0.25) (layer F.Cu) (net 18))
  (segment (start 117.75948 78.32852) (end 119.38 76.708) (width 0.25) (layer F.Cu) (net 19))
  (segment (start 115.97386 78.32852) (end 117.75948 78.32852) (width 0.25) (layer F.Cu) (net 19))
  (segment (start 114.40668 76.76134) (end 116.78666 76.76134) (width 0.25) (layer F.Cu) (net 20))
  (segment (start 116.78666 76.76134) (end 118.364 75.184) (width 0.25) (layer F.Cu) (net 20))
  (segment (start 120.396 75.184) (end 121.92 73.66) (width 0.25) (layer F.Cu) (net 20))
  (segment (start 118.364 75.184) (end 120.396 75.184) (width 0.25) (layer F.Cu) (net 20))
  (segment (start 113.60658 75.95) (end 113.99158 75.565) (width 0.25) (layer F.Cu) (net 21))
  (segment (start 113.60658 76.835) (end 113.60658 75.95) (width 0.25) (layer F.Cu) (net 21))
  (segment (start 113.99158 75.565) (end 116.967 75.565) (width 0.25) (layer F.Cu) (net 21))
  (segment (start 118.618001 74.421999) (end 119.38 73.66) (width 0.25) (layer F.Cu) (net 21))
  (segment (start 118.110001 74.421999) (end 118.618001 74.421999) (width 0.25) (layer F.Cu) (net 21))
  (segment (start 116.967 75.565) (end 118.110001 74.421999) (width 0.25) (layer F.Cu) (net 21))
  (segment (start 112.80648 76.835) (end 112.80648 75.95) (width 0.25) (layer F.Cu) (net 22))
  (segment (start 112.80648 75.95) (end 113.82648 74.93) (width 0.25) (layer F.Cu) (net 22))
  (segment (start 115.57 74.93) (end 116.84 73.66) (width 0.25) (layer F.Cu) (net 22))
  (segment (start 113.82648 74.93) (end 115.57 74.93) (width 0.25) (layer F.Cu) (net 22))
  (segment (start 114.29638 73.66) (end 114.3 73.66) (width 0.25) (layer F.Cu) (net 23))
  (segment (start 112.00638 75.95) (end 114.29638 73.66) (width 0.25) (layer F.Cu) (net 23))
  (segment (start 112.00638 76.835) (end 112.00638 75.95) (width 0.25) (layer F.Cu) (net 23))
  (segment (start 111.20882 74.21118) (end 111.20882 76.835) (width 0.25) (layer F.Cu) (net 24))
  (segment (start 118.11 69.85) (end 121.92 69.85) (width 0.25) (layer F.Cu) (net 24))
  (segment (start 118.11 71.00043) (end 117.35543 71.755) (width 0.25) (layer F.Cu) (net 24))
  (segment (start 118.11 69.85) (end 118.11 71.00043) (width 0.25) (layer F.Cu) (net 24))
  (segment (start 113.665 71.755) (end 111.20882 74.21118) (width 0.25) (layer F.Cu) (net 24))
  (segment (start 117.35543 71.755) (end 113.665 71.755) (width 0.25) (layer F.Cu) (net 24))
  (segment (start 109.22 69.85) (end 105.41 69.85) (width 0.25) (layer F.Cu) (net 25))
  (segment (start 110.40872 69.93128) (end 110.49 69.85) (width 0.25) (layer F.Cu) (net 26))
  (segment (start 110.40872 76.835) (end 110.40872 69.93128) (width 0.25) (layer F.Cu) (net 26))

)
