<?xml version="1.0" encoding="utf-8"?>
<!DOCTYPE eagle SYSTEM "eagle.dtd">
<eagle version="9.2.2">
<drawing>
<settings>
<setting alwaysvectorfont="no"/>
<setting verticaltext="up"/>
</settings>
<grid distance="0.1" unitdist="inch" unit="inch" style="lines" multiple="1" display="no" altdistance="0.01" altunitdist="inch" altunit="inch"/>
<layers>
<layer number="1" name="Top" color="4" fill="1" visible="no" active="no"/>
<layer number="2" name="Route2" color="1" fill="3" visible="no" active="no"/>
<layer number="3" name="Route3" color="4" fill="3" visible="no" active="no"/>
<layer number="4" name="Route4" color="1" fill="4" visible="no" active="no"/>
<layer number="5" name="Route5" color="4" fill="4" visible="no" active="no"/>
<layer number="6" name="Route6" color="1" fill="8" visible="no" active="no"/>
<layer number="7" name="Route7" color="4" fill="8" visible="no" active="no"/>
<layer number="8" name="Route8" color="1" fill="2" visible="no" active="no"/>
<layer number="9" name="Route9" color="4" fill="2" visible="no" active="no"/>
<layer number="10" name="Route10" color="1" fill="7" visible="no" active="no"/>
<layer number="11" name="Route11" color="4" fill="7" visible="no" active="no"/>
<layer number="12" name="Route12" color="1" fill="5" visible="no" active="no"/>
<layer number="13" name="Route13" color="4" fill="5" visible="no" active="no"/>
<layer number="14" name="Route14" color="1" fill="6" visible="no" active="no"/>
<layer number="15" name="Route15" color="4" fill="6" visible="no" active="no"/>
<layer number="16" name="Bottom" color="1" fill="1" visible="no" active="no"/>
<layer number="17" name="Pads" color="2" fill="1" visible="no" active="no"/>
<layer number="18" name="Vias" color="2" fill="1" visible="no" active="no"/>
<layer number="19" name="Unrouted" color="6" fill="1" visible="no" active="no"/>
<layer number="20" name="Dimension" color="15" fill="1" visible="no" active="no"/>
<layer number="21" name="tPlace" color="7" fill="1" visible="no" active="no"/>
<layer number="22" name="bPlace" color="7" fill="1" visible="no" active="no"/>
<layer number="23" name="tOrigins" color="15" fill="1" visible="no" active="no"/>
<layer number="24" name="bOrigins" color="15" fill="1" visible="no" active="no"/>
<layer number="25" name="tNames" color="7" fill="1" visible="no" active="no"/>
<layer number="26" name="bNames" color="7" fill="1" visible="no" active="no"/>
<layer number="27" name="tValues" color="7" fill="1" visible="no" active="no"/>
<layer number="28" name="bValues" color="7" fill="1" visible="no" active="no"/>
<layer number="29" name="tStop" color="7" fill="3" visible="no" active="no"/>
<layer number="30" name="bStop" color="7" fill="6" visible="no" active="no"/>
<layer number="31" name="tCream" color="7" fill="4" visible="no" active="no"/>
<layer number="32" name="bCream" color="7" fill="5" visible="no" active="no"/>
<layer number="33" name="tFinish" color="6" fill="3" visible="no" active="no"/>
<layer number="34" name="bFinish" color="6" fill="6" visible="no" active="no"/>
<layer number="35" name="tGlue" color="7" fill="4" visible="no" active="no"/>
<layer number="36" name="bGlue" color="7" fill="5" visible="no" active="no"/>
<layer number="37" name="tTest" color="7" fill="1" visible="no" active="no"/>
<layer number="38" name="bTest" color="7" fill="1" visible="no" active="no"/>
<layer number="39" name="tKeepout" color="4" fill="11" visible="no" active="no"/>
<layer number="40" name="bKeepout" color="1" fill="11" visible="no" active="no"/>
<layer number="41" name="tRestrict" color="4" fill="10" visible="no" active="no"/>
<layer number="42" name="bRestrict" color="1" fill="10" visible="no" active="no"/>
<layer number="43" name="vRestrict" color="2" fill="10" visible="no" active="no"/>
<layer number="44" name="Drills" color="7" fill="1" visible="no" active="no"/>
<layer number="45" name="Holes" color="7" fill="1" visible="no" active="no"/>
<layer number="46" name="Milling" color="3" fill="1" visible="no" active="no"/>
<layer number="47" name="Measures" color="7" fill="1" visible="no" active="no"/>
<layer number="48" name="Document" color="7" fill="1" visible="no" active="no"/>
<layer number="49" name="Reference" color="7" fill="1" visible="no" active="no"/>
<layer number="51" name="tDocu" color="7" fill="1" visible="no" active="no"/>
<layer number="52" name="bDocu" color="7" fill="1" visible="no" active="no"/>
<layer number="88" name="SimResults" color="9" fill="1" visible="yes" active="yes"/>
<layer number="89" name="SimProbes" color="9" fill="1" visible="yes" active="yes"/>
<layer number="90" name="Modules" color="5" fill="1" visible="yes" active="yes"/>
<layer number="91" name="Nets" color="2" fill="1" visible="yes" active="yes"/>
<layer number="92" name="Busses" color="1" fill="1" visible="yes" active="yes"/>
<layer number="93" name="Pins" color="2" fill="1" visible="no" active="yes"/>
<layer number="94" name="Symbols" color="4" fill="1" visible="yes" active="yes"/>
<layer number="95" name="Names" color="7" fill="1" visible="yes" active="yes"/>
<layer number="96" name="Values" color="7" fill="1" visible="yes" active="yes"/>
<layer number="97" name="Info" color="7" fill="1" visible="yes" active="yes"/>
<layer number="98" name="Guide" color="6" fill="1" visible="yes" active="yes"/>
</layers>
<schematic xreflabel="%F%N/%S.%C%R" xrefpart="/%S.%C%R">
<libraries>
<library name="supply1" urn="urn:adsk.eagle:library:371">
<description>&lt;b&gt;Supply Symbols&lt;/b&gt;&lt;p&gt;
 GND, VCC, 0V, +5V, -5V, etc.&lt;p&gt;
 Please keep in mind, that these devices are necessary for the
 automatic wiring of the supply signals.&lt;p&gt;
 The pin name defined in the symbol is identical to the net which is to be wired automatically.&lt;p&gt;
 In this library the device names are the same as the pin names of the symbols, therefore the correct signal names appear next to the supply symbols in the schematic.&lt;p&gt;
 &lt;author&gt;Created by librarian@cadsoft.de&lt;/author&gt;</description>
<packages>
</packages>
<symbols>
<symbol name="VCC" urn="urn:adsk.eagle:symbol:26928/1" library_version="1">
<wire x1="1.27" y1="-1.905" x2="0" y2="0" width="0.254" layer="94"/>
<wire x1="0" y1="0" x2="-1.27" y2="-1.905" width="0.254" layer="94"/>
<text x="-2.54" y="-2.54" size="1.778" layer="96" rot="R90">&gt;VALUE</text>
<pin name="VCC" x="0" y="-2.54" visible="off" length="short" direction="sup" rot="R90"/>
</symbol>
<symbol name="GND" urn="urn:adsk.eagle:symbol:26925/1" library_version="1">
<wire x1="-1.905" y1="0" x2="1.905" y2="0" width="0.254" layer="94"/>
<text x="-2.54" y="-2.54" size="1.778" layer="96">&gt;VALUE</text>
<pin name="GND" x="0" y="2.54" visible="off" length="short" direction="sup" rot="R270"/>
</symbol>
</symbols>
<devicesets>
<deviceset name="VCC" urn="urn:adsk.eagle:component:26957/1" prefix="P+" library_version="1">
<description>&lt;b&gt;SUPPLY SYMBOL&lt;/b&gt;</description>
<gates>
<gate name="VCC" symbol="VCC" x="0" y="0"/>
</gates>
<devices>
<device name="">
<technologies>
<technology name=""/>
</technologies>
</device>
</devices>
</deviceset>
<deviceset name="GND" urn="urn:adsk.eagle:component:26954/1" prefix="GND" library_version="1">
<description>&lt;b&gt;SUPPLY SYMBOL&lt;/b&gt;</description>
<gates>
<gate name="1" symbol="GND" x="0" y="0"/>
</gates>
<devices>
<device name="">
<technologies>
<technology name=""/>
</technologies>
</device>
</devices>
</deviceset>
</devicesets>
</library>
<library name="con-amp-quick" urn="urn:adsk.eagle:library:125">
<description>&lt;b&gt;AMP Connectors, Type QUICK&lt;/b&gt;&lt;p&gt;
&lt;author&gt;Created by librarian@cadsoft.de&lt;/author&gt;</description>
<packages>
<package name="02P" urn="urn:adsk.eagle:footprint:5910/1" library_version="1">
<description>&lt;b&gt;AMP QUICK CONNECTOR&lt;/b&gt;</description>
<wire x1="-2.286" y1="2.54" x2="-2.286" y2="1.778" width="0.1524" layer="21"/>
<wire x1="-2.286" y1="1.778" x2="-0.381" y2="1.778" width="0.1524" layer="21"/>
<wire x1="-0.381" y1="1.778" x2="-0.254" y2="1.651" width="0.1524" layer="21"/>
<wire x1="-0.254" y1="1.651" x2="0" y2="1.397" width="0.1524" layer="21"/>
<wire x1="0" y1="1.397" x2="0.254" y2="1.651" width="0.1524" layer="21"/>
<wire x1="0.254" y1="1.651" x2="0.381" y2="1.778" width="0.1524" layer="21"/>
<wire x1="-0.254" y1="-2.159" x2="-0.254" y2="-2.286" width="0.1524" layer="21"/>
<wire x1="-0.254" y1="-2.286" x2="-2.286" y2="-2.286" width="0.1524" layer="21"/>
<wire x1="0.254" y1="-2.159" x2="-0.254" y2="-2.159" width="0.1524" layer="21"/>
<wire x1="0.254" y1="-2.159" x2="0.254" y2="-2.286" width="0.1524" layer="21"/>
<wire x1="2.286" y1="-2.286" x2="0.254" y2="-2.286" width="0.1524" layer="21"/>
<wire x1="0.381" y1="1.778" x2="2.286" y2="1.778" width="0.1524" layer="21"/>
<wire x1="2.286" y1="1.778" x2="2.286" y2="2.54" width="0.1524" layer="21"/>
<wire x1="-2.286" y1="1.778" x2="-2.286" y2="-1.524" width="0.1524" layer="21"/>
<wire x1="-2.286" y1="-1.778" x2="-2.286" y2="-2.286" width="0.1524" layer="21"/>
<wire x1="-2.286" y1="-1.778" x2="-1.905" y2="-1.778" width="0.1524" layer="21"/>
<wire x1="2.286" y1="-1.778" x2="2.286" y2="-2.286" width="0.1524" layer="21"/>
<wire x1="2.286" y1="-1.778" x2="1.905" y2="-1.778" width="0.1524" layer="21"/>
<wire x1="2.286" y1="1.778" x2="2.286" y2="-1.524" width="0.1524" layer="21"/>
<wire x1="1.905" y1="-1.778" x2="1.905" y2="-1.524" width="0.1524" layer="21"/>
<wire x1="0.635" y1="-1.27" x2="1.905" y2="-1.27" width="0.1524" layer="21"/>
<wire x1="-0.635" y1="-1.778" x2="-0.635" y2="-1.524" width="0.1524" layer="21"/>
<wire x1="-1.905" y1="-1.778" x2="-1.905" y2="-1.524" width="0.1524" layer="21"/>
<wire x1="-1.905" y1="-1.27" x2="-0.635" y2="-1.27" width="0.1524" layer="21"/>
<wire x1="-0.635" y1="-1.778" x2="0.635" y2="-1.778" width="0.1524" layer="21"/>
<wire x1="-0.635" y1="-1.524" x2="-0.635" y2="-1.27" width="0.1524" layer="21"/>
<wire x1="0.635" y1="-1.778" x2="0.635" y2="-1.524" width="0.1524" layer="21"/>
<wire x1="0.635" y1="-1.524" x2="0.635" y2="-1.27" width="0.1524" layer="21"/>
<wire x1="0.254" y1="-1.524" x2="0.635" y2="-1.524" width="0.1524" layer="21"/>
<wire x1="0.254" y1="-1.524" x2="0.254" y2="1.651" width="0.1524" layer="21"/>
<wire x1="-0.635" y1="-1.524" x2="-0.254" y2="-1.524" width="0.1524" layer="21"/>
<wire x1="-0.254" y1="-1.524" x2="0.254" y2="-1.524" width="0.1524" layer="21"/>
<wire x1="-0.254" y1="-1.524" x2="-0.254" y2="1.651" width="0.1524" layer="21"/>
<wire x1="1.905" y1="-1.524" x2="2.286" y2="-1.524" width="0.1524" layer="21"/>
<wire x1="1.905" y1="-1.524" x2="1.905" y2="-1.27" width="0.1524" layer="21"/>
<wire x1="2.286" y1="-1.524" x2="2.286" y2="-1.778" width="0.1524" layer="21"/>
<wire x1="-1.905" y1="-1.524" x2="-2.286" y2="-1.524" width="0.1524" layer="21"/>
<wire x1="-1.905" y1="-1.524" x2="-1.905" y2="-1.27" width="0.1524" layer="21"/>
<wire x1="-2.286" y1="-1.524" x2="-2.286" y2="-1.778" width="0.1524" layer="21"/>
<wire x1="-2.286" y1="2.54" x2="-1.524" y2="2.54" width="0.1524" layer="21"/>
<wire x1="-1.524" y1="2.54" x2="-1.524" y2="2.667" width="0.1524" layer="21"/>
<wire x1="-1.016" y1="2.54" x2="-1.016" y2="2.667" width="0.1524" layer="21"/>
<wire x1="-1.016" y1="2.667" x2="-1.524" y2="2.667" width="0.1524" layer="21"/>
<wire x1="1.016" y1="2.54" x2="1.016" y2="2.667" width="0.1524" layer="21"/>
<wire x1="1.524" y1="2.54" x2="2.286" y2="2.54" width="0.1524" layer="21"/>
<wire x1="1.524" y1="2.54" x2="1.524" y2="2.667" width="0.1524" layer="21"/>
<wire x1="1.524" y1="2.667" x2="1.016" y2="2.667" width="0.1524" layer="21"/>
<wire x1="0.254" y1="2.413" x2="0.254" y2="2.54" width="0.1524" layer="21"/>
<wire x1="0.254" y1="2.54" x2="1.016" y2="2.54" width="0.1524" layer="21"/>
<wire x1="0.254" y1="2.413" x2="-0.254" y2="2.413" width="0.1524" layer="21"/>
<wire x1="-0.254" y1="2.413" x2="-0.254" y2="2.54" width="0.1524" layer="21"/>
<wire x1="-0.254" y1="2.54" x2="-1.016" y2="2.54" width="0.1524" layer="21"/>
<pad name="1" x="-1.27" y="0" drill="0.9144" shape="long" rot="R90"/>
<pad name="2" x="1.27" y="0" drill="0.9144" shape="long" rot="R90"/>
<text x="-0.762" y="0.9398" size="0.9906" layer="21" ratio="12" rot="R90">1</text>
<text x="-2.286" y="2.9464" size="1.27" layer="25" ratio="10">&gt;NAME</text>
<text x="-2.286" y="-3.8354" size="1.27" layer="27" ratio="10">&gt;VALUE</text>
<rectangle x1="-1.6002" y1="-0.3302" x2="-0.9398" y2="0.3302" layer="51"/>
<rectangle x1="0.9398" y1="-0.3302" x2="1.6002" y2="0.3302" layer="51"/>
</package>
<package name="03P" urn="urn:adsk.eagle:footprint:5912/1" library_version="1">
<description>&lt;b&gt;AMP QUICK CONNECTOR&lt;/b&gt;</description>
<wire x1="-1.651" y1="1.778" x2="-1.524" y2="1.651" width="0.1524" layer="21"/>
<wire x1="-1.524" y1="1.651" x2="-1.27" y2="1.397" width="0.1524" layer="21"/>
<wire x1="-1.27" y1="1.397" x2="-1.016" y2="1.651" width="0.1524" layer="21"/>
<wire x1="-1.016" y1="1.651" x2="-0.889" y2="1.778" width="0.1524" layer="21"/>
<wire x1="-1.524" y1="-2.159" x2="-1.524" y2="-2.286" width="0.1524" layer="21"/>
<wire x1="-1.524" y1="-2.286" x2="-3.556" y2="-2.286" width="0.1524" layer="21"/>
<wire x1="-1.016" y1="-2.159" x2="-1.524" y2="-2.159" width="0.1524" layer="21"/>
<wire x1="-1.016" y1="-2.159" x2="-1.016" y2="-2.286" width="0.1524" layer="21"/>
<wire x1="-3.556" y1="2.54" x2="-3.556" y2="1.778" width="0.1524" layer="21"/>
<wire x1="-3.556" y1="1.778" x2="-3.556" y2="-1.524" width="0.1524" layer="21"/>
<wire x1="-3.556" y1="-1.778" x2="-3.556" y2="-2.286" width="0.1524" layer="21"/>
<wire x1="-3.556" y1="-1.778" x2="-3.175" y2="-1.778" width="0.1524" layer="21"/>
<wire x1="-1.905" y1="-1.778" x2="-1.905" y2="-1.524" width="0.1524" layer="21"/>
<wire x1="-3.175" y1="-1.778" x2="-3.175" y2="-1.524" width="0.1524" layer="21"/>
<wire x1="-3.175" y1="-1.27" x2="-1.905" y2="-1.27" width="0.1524" layer="21"/>
<wire x1="-1.905" y1="-1.524" x2="-1.905" y2="-1.27" width="0.1524" layer="21"/>
<wire x1="-0.635" y1="-1.778" x2="-0.635" y2="-1.524" width="0.1524" layer="21"/>
<wire x1="-0.635" y1="-1.524" x2="-0.635" y2="-1.27" width="0.1524" layer="21"/>
<wire x1="-1.905" y1="-1.524" x2="-1.524" y2="-1.524" width="0.1524" layer="21"/>
<wire x1="-1.524" y1="-1.524" x2="-1.016" y2="-1.524" width="0.1524" layer="21"/>
<wire x1="-1.016" y1="-1.524" x2="-0.635" y2="-1.524" width="0.1524" layer="21"/>
<wire x1="-3.175" y1="-1.524" x2="-3.556" y2="-1.524" width="0.1524" layer="21"/>
<wire x1="-3.175" y1="-1.524" x2="-3.175" y2="-1.27" width="0.1524" layer="21"/>
<wire x1="-3.556" y1="-1.524" x2="-3.556" y2="-1.778" width="0.1524" layer="21"/>
<wire x1="-3.556" y1="2.54" x2="-2.794" y2="2.54" width="0.1524" layer="21"/>
<wire x1="-2.794" y1="2.54" x2="-2.794" y2="2.667" width="0.1524" layer="21"/>
<wire x1="-2.286" y1="2.54" x2="-2.286" y2="2.667" width="0.1524" layer="21"/>
<wire x1="-2.286" y1="2.667" x2="-2.794" y2="2.667" width="0.1524" layer="21"/>
<wire x1="-0.254" y1="2.54" x2="-0.254" y2="2.667" width="0.1524" layer="21"/>
<wire x1="0.254" y1="2.54" x2="0.254" y2="2.667" width="0.1524" layer="21"/>
<wire x1="-1.016" y1="2.413" x2="-1.016" y2="2.54" width="0.1524" layer="21"/>
<wire x1="-1.524" y1="2.413" x2="-1.524" y2="2.54" width="0.1524" layer="21"/>
<wire x1="1.27" y1="1.397" x2="1.524" y2="1.651" width="0.1524" layer="21"/>
<wire x1="1.524" y1="1.651" x2="1.651" y2="1.778" width="0.1524" layer="21"/>
<wire x1="1.524" y1="-2.159" x2="1.016" y2="-2.159" width="0.1524" layer="21"/>
<wire x1="1.524" y1="-2.159" x2="1.524" y2="-2.286" width="0.1524" layer="21"/>
<wire x1="3.556" y1="-2.286" x2="1.524" y2="-2.286" width="0.1524" layer="21"/>
<wire x1="1.651" y1="1.778" x2="3.556" y2="1.778" width="0.1524" layer="21"/>
<wire x1="3.556" y1="1.778" x2="3.556" y2="2.54" width="0.1524" layer="21"/>
<wire x1="3.556" y1="-1.778" x2="3.556" y2="-2.286" width="0.1524" layer="21"/>
<wire x1="3.556" y1="-1.778" x2="3.175" y2="-1.778" width="0.1524" layer="21"/>
<wire x1="3.556" y1="1.778" x2="3.556" y2="-1.524" width="0.1524" layer="21"/>
<wire x1="3.175" y1="-1.778" x2="3.175" y2="-1.524" width="0.1524" layer="21"/>
<wire x1="1.905" y1="-1.27" x2="3.175" y2="-1.27" width="0.1524" layer="21"/>
<wire x1="0.635" y1="-1.778" x2="0.635" y2="-1.524" width="0.1524" layer="21"/>
<wire x1="0.635" y1="-1.524" x2="0.635" y2="-1.27" width="0.1524" layer="21"/>
<wire x1="1.905" y1="-1.778" x2="1.905" y2="-1.524" width="0.1524" layer="21"/>
<wire x1="1.905" y1="-1.524" x2="1.905" y2="-1.27" width="0.1524" layer="21"/>
<wire x1="0.635" y1="-1.524" x2="1.016" y2="-1.524" width="0.1524" layer="21"/>
<wire x1="1.016" y1="-1.524" x2="1.524" y2="-1.524" width="0.1524" layer="21"/>
<wire x1="1.524" y1="-1.524" x2="1.905" y2="-1.524" width="0.1524" layer="21"/>
<wire x1="3.175" y1="-1.524" x2="3.556" y2="-1.524" width="0.1524" layer="21"/>
<wire x1="3.175" y1="-1.524" x2="3.175" y2="-1.27" width="0.1524" layer="21"/>
<wire x1="3.556" y1="-1.524" x2="3.556" y2="-1.778" width="0.1524" layer="21"/>
<wire x1="2.286" y1="2.54" x2="2.286" y2="2.667" width="0.1524" layer="21"/>
<wire x1="2.794" y1="2.54" x2="3.556" y2="2.54" width="0.1524" layer="21"/>
<wire x1="2.794" y1="2.54" x2="2.794" y2="2.667" width="0.1524" layer="21"/>
<wire x1="2.794" y1="2.667" x2="2.286" y2="2.667" width="0.1524" layer="21"/>
<wire x1="1.524" y1="2.413" x2="1.524" y2="2.54" width="0.1524" layer="21"/>
<wire x1="1.524" y1="2.54" x2="2.286" y2="2.54" width="0.1524" layer="21"/>
<wire x1="1.524" y1="2.413" x2="1.016" y2="2.413" width="0.1524" layer="21"/>
<wire x1="1.016" y1="2.413" x2="1.016" y2="2.54" width="0.1524" layer="21"/>
<wire x1="0.889" y1="1.778" x2="1.016" y2="1.651" width="0.1524" layer="21"/>
<wire x1="1.016" y1="1.651" x2="1.27" y2="1.397" width="0.1524" layer="21"/>
<wire x1="0.254" y1="2.54" x2="1.016" y2="2.54" width="0.1524" layer="21"/>
<wire x1="0.254" y1="2.667" x2="-0.254" y2="2.667" width="0.1524" layer="21"/>
<wire x1="-1.016" y1="2.54" x2="-0.254" y2="2.54" width="0.1524" layer="21"/>
<wire x1="-1.524" y1="2.413" x2="-1.016" y2="2.413" width="0.1524" layer="21"/>
<wire x1="-1.524" y1="2.54" x2="-2.286" y2="2.54" width="0.1524" layer="21"/>
<wire x1="-1.651" y1="1.778" x2="-3.556" y2="1.778" width="0.1524" layer="21"/>
<wire x1="-0.889" y1="1.778" x2="0.889" y2="1.778" width="0.1524" layer="21"/>
<wire x1="-1.016" y1="1.651" x2="-1.016" y2="-1.524" width="0.1524" layer="21"/>
<wire x1="-1.524" y1="1.651" x2="-1.524" y2="-1.524" width="0.1524" layer="21"/>
<wire x1="1.016" y1="1.651" x2="1.016" y2="-1.524" width="0.1524" layer="21"/>
<wire x1="1.524" y1="1.651" x2="1.524" y2="-1.524" width="0.1524" layer="21"/>
<wire x1="-0.635" y1="-1.27" x2="0.635" y2="-1.27" width="0.1524" layer="21"/>
<wire x1="-0.635" y1="-1.778" x2="-1.905" y2="-1.778" width="0.1524" layer="21"/>
<wire x1="-1.016" y1="-2.286" x2="1.016" y2="-2.286" width="0.1524" layer="21"/>
<wire x1="0.635" y1="-1.778" x2="1.905" y2="-1.778" width="0.1524" layer="21"/>
<wire x1="1.016" y1="-2.159" x2="1.016" y2="-2.286" width="0.1524" layer="21"/>
<pad name="1" x="-2.54" y="0" drill="0.9144" shape="long" rot="R90"/>
<pad name="2" x="0" y="0" drill="0.9144" shape="long" rot="R90"/>
<pad name="3" x="2.54" y="0" drill="0.9144" shape="long" rot="R90"/>
<text x="-2.032" y="0.9398" size="0.9906" layer="21" ratio="12" rot="R90">1</text>
<text x="-3.556" y="2.9464" size="1.27" layer="25" ratio="10">&gt;NAME</text>
<text x="-3.556" y="-3.8354" size="1.27" layer="27" ratio="10">&gt;VALUE</text>
<rectangle x1="-2.8702" y1="-0.3302" x2="-2.2098" y2="0.3302" layer="51"/>
<rectangle x1="-0.3302" y1="-0.3302" x2="0.3302" y2="0.3302" layer="51"/>
<rectangle x1="2.2098" y1="-0.3302" x2="2.8702" y2="0.3302" layer="51"/>
</package>
<package name="05P" urn="urn:adsk.eagle:footprint:5915/1" library_version="1">
<description>&lt;b&gt;AMP QUICK CONNECTOR&lt;/b&gt;</description>
<wire x1="-4.191" y1="1.778" x2="-4.064" y2="1.651" width="0.1524" layer="21"/>
<wire x1="-4.064" y1="1.651" x2="-3.81" y2="1.397" width="0.1524" layer="21"/>
<wire x1="-3.81" y1="1.397" x2="-3.556" y2="1.651" width="0.1524" layer="21"/>
<wire x1="-3.556" y1="1.651" x2="-3.429" y2="1.778" width="0.1524" layer="21"/>
<wire x1="-4.064" y1="-2.159" x2="-4.064" y2="-2.286" width="0.1524" layer="21"/>
<wire x1="-4.064" y1="-2.286" x2="-6.096" y2="-2.286" width="0.1524" layer="21"/>
<wire x1="-3.556" y1="-2.159" x2="-4.064" y2="-2.159" width="0.1524" layer="21"/>
<wire x1="-3.556" y1="-2.159" x2="-3.556" y2="-2.286" width="0.1524" layer="21"/>
<wire x1="-6.096" y1="2.54" x2="-6.096" y2="1.778" width="0.1524" layer="21"/>
<wire x1="-6.096" y1="1.778" x2="-6.096" y2="-1.524" width="0.1524" layer="21"/>
<wire x1="-6.096" y1="-1.778" x2="-6.096" y2="-2.286" width="0.1524" layer="21"/>
<wire x1="-6.096" y1="-1.778" x2="-5.715" y2="-1.778" width="0.1524" layer="21"/>
<wire x1="-4.445" y1="-1.778" x2="-4.445" y2="-1.524" width="0.1524" layer="21"/>
<wire x1="-5.715" y1="-1.778" x2="-5.715" y2="-1.524" width="0.1524" layer="21"/>
<wire x1="-5.715" y1="-1.27" x2="-4.445" y2="-1.27" width="0.1524" layer="21"/>
<wire x1="-4.445" y1="-1.524" x2="-4.445" y2="-1.27" width="0.1524" layer="21"/>
<wire x1="-3.175" y1="-1.778" x2="-3.175" y2="-1.524" width="0.1524" layer="21"/>
<wire x1="-3.175" y1="-1.524" x2="-3.175" y2="-1.27" width="0.1524" layer="21"/>
<wire x1="-4.445" y1="-1.524" x2="-4.064" y2="-1.524" width="0.1524" layer="21"/>
<wire x1="-4.064" y1="-1.524" x2="-3.556" y2="-1.524" width="0.1524" layer="21"/>
<wire x1="-3.556" y1="-1.524" x2="-3.175" y2="-1.524" width="0.1524" layer="21"/>
<wire x1="-5.715" y1="-1.524" x2="-6.096" y2="-1.524" width="0.1524" layer="21"/>
<wire x1="-5.715" y1="-1.524" x2="-5.715" y2="-1.27" width="0.1524" layer="21"/>
<wire x1="-6.096" y1="-1.524" x2="-6.096" y2="-1.778" width="0.1524" layer="21"/>
<wire x1="-6.096" y1="2.54" x2="-5.334" y2="2.54" width="0.1524" layer="21"/>
<wire x1="-5.334" y1="2.54" x2="-5.334" y2="2.667" width="0.1524" layer="21"/>
<wire x1="-4.826" y1="2.54" x2="-4.826" y2="2.667" width="0.1524" layer="21"/>
<wire x1="-4.826" y1="2.667" x2="-5.334" y2="2.667" width="0.1524" layer="21"/>
<wire x1="-2.794" y1="2.54" x2="-2.794" y2="2.667" width="0.1524" layer="21"/>
<wire x1="-2.286" y1="2.54" x2="-2.286" y2="2.667" width="0.1524" layer="21"/>
<wire x1="-3.556" y1="2.413" x2="-3.556" y2="2.54" width="0.1524" layer="21"/>
<wire x1="-4.064" y1="2.413" x2="-4.064" y2="2.54" width="0.1524" layer="21"/>
<wire x1="-1.016" y1="-2.159" x2="-1.524" y2="-2.159" width="0.1524" layer="21"/>
<wire x1="-1.016" y1="-2.159" x2="-1.016" y2="-2.286" width="0.1524" layer="21"/>
<wire x1="1.016" y1="-2.286" x2="-1.016" y2="-2.286" width="0.1524" layer="21"/>
<wire x1="1.016" y1="1.778" x2="1.016" y2="-1.524" width="0.1524" layer="21"/>
<wire x1="0.635" y1="-1.778" x2="0.635" y2="-1.524" width="0.1524" layer="21"/>
<wire x1="-0.635" y1="-1.27" x2="0.635" y2="-1.27" width="0.1524" layer="21"/>
<wire x1="-1.905" y1="-1.778" x2="-1.905" y2="-1.524" width="0.1524" layer="21"/>
<wire x1="-1.905" y1="-1.524" x2="-1.905" y2="-1.27" width="0.1524" layer="21"/>
<wire x1="-0.635" y1="-1.778" x2="-0.635" y2="-1.524" width="0.1524" layer="21"/>
<wire x1="-0.635" y1="-1.524" x2="-0.635" y2="-1.27" width="0.1524" layer="21"/>
<wire x1="-1.905" y1="-1.524" x2="-1.524" y2="-1.524" width="0.1524" layer="21"/>
<wire x1="-1.524" y1="-1.524" x2="-1.016" y2="-1.524" width="0.1524" layer="21"/>
<wire x1="-1.016" y1="-1.524" x2="-0.635" y2="-1.524" width="0.1524" layer="21"/>
<wire x1="0.635" y1="-1.524" x2="1.016" y2="-1.524" width="0.1524" layer="21"/>
<wire x1="0.635" y1="-1.524" x2="0.635" y2="-1.27" width="0.1524" layer="21"/>
<wire x1="-0.254" y1="2.54" x2="-0.254" y2="2.667" width="0.1524" layer="21"/>
<wire x1="0.254" y1="2.54" x2="1.016" y2="2.54" width="0.1524" layer="21"/>
<wire x1="0.254" y1="2.54" x2="0.254" y2="2.667" width="0.1524" layer="21"/>
<wire x1="0.254" y1="2.667" x2="-0.254" y2="2.667" width="0.1524" layer="21"/>
<wire x1="-1.016" y1="2.413" x2="-1.016" y2="2.54" width="0.1524" layer="21"/>
<wire x1="-1.016" y1="2.54" x2="-0.254" y2="2.54" width="0.1524" layer="21"/>
<wire x1="-1.016" y1="2.413" x2="-1.524" y2="2.413" width="0.1524" layer="21"/>
<wire x1="-1.524" y1="2.413" x2="-1.524" y2="2.54" width="0.1524" layer="21"/>
<wire x1="-2.286" y1="2.54" x2="-1.524" y2="2.54" width="0.1524" layer="21"/>
<wire x1="-2.286" y1="2.667" x2="-2.794" y2="2.667" width="0.1524" layer="21"/>
<wire x1="-3.556" y1="2.54" x2="-2.794" y2="2.54" width="0.1524" layer="21"/>
<wire x1="-4.064" y1="2.413" x2="-3.556" y2="2.413" width="0.1524" layer="21"/>
<wire x1="-4.064" y1="2.54" x2="-4.826" y2="2.54" width="0.1524" layer="21"/>
<wire x1="-4.191" y1="1.778" x2="-6.096" y2="1.778" width="0.1524" layer="21"/>
<wire x1="-3.429" y1="1.778" x2="-1.524" y2="1.778" width="0.1524" layer="21"/>
<wire x1="-1.524" y1="1.778" x2="-1.016" y2="1.778" width="0.1524" layer="21"/>
<wire x1="-3.556" y1="1.651" x2="-3.556" y2="-1.524" width="0.1524" layer="21"/>
<wire x1="-4.064" y1="1.651" x2="-4.064" y2="-1.524" width="0.1524" layer="21"/>
<wire x1="-1.524" y1="1.778" x2="-1.524" y2="-1.524" width="0.1524" layer="21"/>
<wire x1="-1.016" y1="1.778" x2="-1.016" y2="-1.524" width="0.1524" layer="21"/>
<wire x1="-3.175" y1="-1.27" x2="-1.905" y2="-1.27" width="0.1524" layer="21"/>
<wire x1="-3.175" y1="-1.778" x2="-4.445" y2="-1.778" width="0.1524" layer="21"/>
<wire x1="-3.556" y1="-2.286" x2="-1.524" y2="-2.286" width="0.1524" layer="21"/>
<wire x1="-1.905" y1="-1.778" x2="-0.635" y2="-1.778" width="0.1524" layer="21"/>
<wire x1="-1.524" y1="-2.159" x2="-1.524" y2="-2.286" width="0.1524" layer="21"/>
<wire x1="1.524" y1="1.778" x2="1.524" y2="-1.524" width="0.1524" layer="21"/>
<wire x1="1.905" y1="-1.778" x2="1.905" y2="-1.524" width="0.1524" layer="21"/>
<wire x1="1.905" y1="-1.524" x2="1.524" y2="-1.524" width="0.1524" layer="21"/>
<wire x1="1.905" y1="-1.524" x2="1.905" y2="-1.27" width="0.1524" layer="21"/>
<wire x1="2.286" y1="2.54" x2="2.286" y2="2.667" width="0.1524" layer="21"/>
<wire x1="2.794" y1="2.54" x2="2.794" y2="2.667" width="0.1524" layer="21"/>
<wire x1="3.81" y1="1.397" x2="4.064" y2="1.651" width="0.1524" layer="21"/>
<wire x1="4.064" y1="1.651" x2="4.191" y2="1.778" width="0.1524" layer="21"/>
<wire x1="4.064" y1="-2.159" x2="3.556" y2="-2.159" width="0.1524" layer="21"/>
<wire x1="4.064" y1="-2.159" x2="4.064" y2="-2.286" width="0.1524" layer="21"/>
<wire x1="6.096" y1="-2.286" x2="4.064" y2="-2.286" width="0.1524" layer="21"/>
<wire x1="4.191" y1="1.778" x2="6.096" y2="1.778" width="0.1524" layer="21"/>
<wire x1="6.096" y1="1.778" x2="6.096" y2="2.54" width="0.1524" layer="21"/>
<wire x1="6.096" y1="-1.778" x2="6.096" y2="-2.286" width="0.1524" layer="21"/>
<wire x1="6.096" y1="-1.778" x2="5.715" y2="-1.778" width="0.1524" layer="21"/>
<wire x1="6.096" y1="1.778" x2="6.096" y2="-1.524" width="0.1524" layer="21"/>
<wire x1="5.715" y1="-1.778" x2="5.715" y2="-1.524" width="0.1524" layer="21"/>
<wire x1="4.445" y1="-1.27" x2="5.715" y2="-1.27" width="0.1524" layer="21"/>
<wire x1="3.175" y1="-1.778" x2="3.175" y2="-1.524" width="0.1524" layer="21"/>
<wire x1="3.175" y1="-1.524" x2="3.175" y2="-1.27" width="0.1524" layer="21"/>
<wire x1="4.445" y1="-1.778" x2="4.445" y2="-1.524" width="0.1524" layer="21"/>
<wire x1="4.445" y1="-1.524" x2="4.445" y2="-1.27" width="0.1524" layer="21"/>
<wire x1="3.175" y1="-1.524" x2="3.556" y2="-1.524" width="0.1524" layer="21"/>
<wire x1="3.556" y1="-1.524" x2="4.064" y2="-1.524" width="0.1524" layer="21"/>
<wire x1="4.064" y1="-1.524" x2="4.445" y2="-1.524" width="0.1524" layer="21"/>
<wire x1="5.715" y1="-1.524" x2="6.096" y2="-1.524" width="0.1524" layer="21"/>
<wire x1="5.715" y1="-1.524" x2="5.715" y2="-1.27" width="0.1524" layer="21"/>
<wire x1="6.096" y1="-1.524" x2="6.096" y2="-1.778" width="0.1524" layer="21"/>
<wire x1="4.826" y1="2.54" x2="4.826" y2="2.667" width="0.1524" layer="21"/>
<wire x1="5.334" y1="2.54" x2="6.096" y2="2.54" width="0.1524" layer="21"/>
<wire x1="5.334" y1="2.54" x2="5.334" y2="2.667" width="0.1524" layer="21"/>
<wire x1="5.334" y1="2.667" x2="4.826" y2="2.667" width="0.1524" layer="21"/>
<wire x1="4.064" y1="2.413" x2="4.064" y2="2.54" width="0.1524" layer="21"/>
<wire x1="4.064" y1="2.54" x2="4.826" y2="2.54" width="0.1524" layer="21"/>
<wire x1="4.064" y1="2.413" x2="3.556" y2="2.413" width="0.1524" layer="21"/>
<wire x1="3.556" y1="2.413" x2="3.556" y2="2.54" width="0.1524" layer="21"/>
<wire x1="3.429" y1="1.778" x2="3.556" y2="1.651" width="0.1524" layer="21"/>
<wire x1="3.556" y1="1.651" x2="3.81" y2="1.397" width="0.1524" layer="21"/>
<wire x1="2.794" y1="2.54" x2="3.556" y2="2.54" width="0.1524" layer="21"/>
<wire x1="2.794" y1="2.667" x2="2.286" y2="2.667" width="0.1524" layer="21"/>
<wire x1="1.524" y1="2.54" x2="2.286" y2="2.54" width="0.1524" layer="21"/>
<wire x1="3.556" y1="1.651" x2="3.556" y2="-1.524" width="0.1524" layer="21"/>
<wire x1="4.064" y1="1.651" x2="4.064" y2="-1.524" width="0.1524" layer="21"/>
<wire x1="1.524" y1="-2.286" x2="3.556" y2="-2.286" width="0.1524" layer="21"/>
<wire x1="3.175" y1="-1.778" x2="4.445" y2="-1.778" width="0.1524" layer="21"/>
<wire x1="3.556" y1="-2.159" x2="3.556" y2="-2.286" width="0.1524" layer="21"/>
<wire x1="-1.016" y1="1.778" x2="1.016" y2="1.778" width="0.1524" layer="21"/>
<wire x1="1.524" y1="1.778" x2="3.429" y2="1.778" width="0.1524" layer="21"/>
<wire x1="1.016" y1="-2.159" x2="1.016" y2="-2.286" width="0.1524" layer="21"/>
<wire x1="1.524" y1="-2.159" x2="1.524" y2="-2.286" width="0.1524" layer="21"/>
<wire x1="1.524" y1="-2.159" x2="1.016" y2="-2.159" width="0.1524" layer="21"/>
<wire x1="1.905" y1="-1.778" x2="0.635" y2="-1.778" width="0.1524" layer="21"/>
<wire x1="1.524" y1="-1.524" x2="1.016" y2="-1.524" width="0.1524" layer="21"/>
<wire x1="1.524" y1="1.778" x2="1.016" y2="1.778" width="0.1524" layer="21"/>
<wire x1="1.524" y1="2.413" x2="1.016" y2="2.413" width="0.1524" layer="21"/>
<wire x1="1.016" y1="2.54" x2="1.016" y2="2.413" width="0.1524" layer="21"/>
<wire x1="1.524" y1="2.54" x2="1.524" y2="2.413" width="0.1524" layer="21"/>
<wire x1="1.905" y1="-1.27" x2="3.175" y2="-1.27" width="0.1524" layer="21"/>
<pad name="1" x="-5.08" y="0" drill="0.9144" shape="long" rot="R90"/>
<pad name="2" x="-2.54" y="0" drill="0.9144" shape="long" rot="R90"/>
<pad name="3" x="0" y="0" drill="0.9144" shape="long" rot="R90"/>
<pad name="4" x="2.54" y="0" drill="0.9144" shape="long" rot="R90"/>
<pad name="5" x="5.08" y="0" drill="0.9144" shape="long" rot="R90"/>
<text x="-4.572" y="0.9398" size="0.9906" layer="21" ratio="12" rot="R90">1</text>
<text x="-6.096" y="2.9464" size="1.27" layer="25" ratio="10">&gt;NAME</text>
<text x="-6.096" y="-3.8354" size="1.27" layer="27" ratio="10">&gt;VALUE</text>
<rectangle x1="-5.4102" y1="-0.3302" x2="-4.7498" y2="0.3302" layer="51"/>
<rectangle x1="-2.8702" y1="-0.3302" x2="-2.2098" y2="0.3302" layer="51"/>
<rectangle x1="-0.3302" y1="-0.3302" x2="0.3302" y2="0.3302" layer="51"/>
<rectangle x1="2.2098" y1="-0.3302" x2="2.8702" y2="0.3302" layer="51"/>
<rectangle x1="4.7498" y1="-0.3302" x2="5.4102" y2="0.3302" layer="51"/>
</package>
</packages>
<packages3d>
<package3d name="02P" urn="urn:adsk.eagle:package:5956/1" type="box" library_version="1">
<description>AMP QUICK CONNECTOR</description>
<packageinstances>
<packageinstance name="02P"/>
</packageinstances>
</package3d>
<package3d name="03P" urn="urn:adsk.eagle:package:5957/1" type="box" library_version="1">
<description>AMP QUICK CONNECTOR</description>
<packageinstances>
<packageinstance name="03P"/>
</packageinstances>
</package3d>
<package3d name="05P" urn="urn:adsk.eagle:package:5961/1" type="box" library_version="1">
<description>AMP QUICK CONNECTOR</description>
<packageinstances>
<packageinstance name="05P"/>
</packageinstances>
</package3d>
</packages3d>
<symbols>
<symbol name="M02" urn="urn:adsk.eagle:symbol:5909/1" library_version="1">
<wire x1="3.81" y1="-2.54" x2="-2.54" y2="-2.54" width="0.4064" layer="94"/>
<wire x1="1.27" y1="2.54" x2="2.54" y2="2.54" width="0.6096" layer="94"/>
<wire x1="1.27" y1="0" x2="2.54" y2="0" width="0.6096" layer="94"/>
<wire x1="-2.54" y1="5.08" x2="-2.54" y2="-2.54" width="0.4064" layer="94"/>
<wire x1="3.81" y1="-2.54" x2="3.81" y2="5.08" width="0.4064" layer="94"/>
<wire x1="-2.54" y1="5.08" x2="3.81" y2="5.08" width="0.4064" layer="94"/>
<text x="-2.54" y="-5.08" size="1.778" layer="96">&gt;VALUE</text>
<text x="-2.54" y="5.842" size="1.778" layer="95">&gt;NAME</text>
<pin name="1" x="7.62" y="0" visible="pad" length="middle" direction="pas" swaplevel="1" rot="R180"/>
<pin name="2" x="7.62" y="2.54" visible="pad" length="middle" direction="pas" swaplevel="1" rot="R180"/>
</symbol>
<symbol name="M03" urn="urn:adsk.eagle:symbol:5911/1" library_version="1">
<wire x1="3.81" y1="-5.08" x2="-2.54" y2="-5.08" width="0.4064" layer="94"/>
<wire x1="1.27" y1="2.54" x2="2.54" y2="2.54" width="0.6096" layer="94"/>
<wire x1="1.27" y1="0" x2="2.54" y2="0" width="0.6096" layer="94"/>
<wire x1="1.27" y1="-2.54" x2="2.54" y2="-2.54" width="0.6096" layer="94"/>
<wire x1="-2.54" y1="5.08" x2="-2.54" y2="-5.08" width="0.4064" layer="94"/>
<wire x1="3.81" y1="-5.08" x2="3.81" y2="5.08" width="0.4064" layer="94"/>
<wire x1="-2.54" y1="5.08" x2="3.81" y2="5.08" width="0.4064" layer="94"/>
<text x="-2.54" y="-7.62" size="1.778" layer="96">&gt;VALUE</text>
<text x="-2.54" y="5.842" size="1.778" layer="95">&gt;NAME</text>
<pin name="1" x="7.62" y="-2.54" visible="pad" length="middle" direction="pas" swaplevel="1" rot="R180"/>
<pin name="2" x="7.62" y="0" visible="pad" length="middle" direction="pas" swaplevel="1" rot="R180"/>
<pin name="3" x="7.62" y="2.54" visible="pad" length="middle" direction="pas" swaplevel="1" rot="R180"/>
</symbol>
<symbol name="M05" urn="urn:adsk.eagle:symbol:5914/1" library_version="1">
<wire x1="3.81" y1="-7.62" x2="-2.54" y2="-7.62" width="0.4064" layer="94"/>
<wire x1="1.27" y1="0" x2="2.54" y2="0" width="0.6096" layer="94"/>
<wire x1="1.27" y1="-2.54" x2="2.54" y2="-2.54" width="0.6096" layer="94"/>
<wire x1="1.27" y1="-5.08" x2="2.54" y2="-5.08" width="0.6096" layer="94"/>
<wire x1="-2.54" y1="7.62" x2="-2.54" y2="-7.62" width="0.4064" layer="94"/>
<wire x1="3.81" y1="-7.62" x2="3.81" y2="7.62" width="0.4064" layer="94"/>
<wire x1="-2.54" y1="7.62" x2="3.81" y2="7.62" width="0.4064" layer="94"/>
<wire x1="1.27" y1="5.08" x2="2.54" y2="5.08" width="0.6096" layer="94"/>
<wire x1="1.27" y1="2.54" x2="2.54" y2="2.54" width="0.6096" layer="94"/>
<text x="-2.54" y="-10.16" size="1.778" layer="96">&gt;VALUE</text>
<text x="-2.54" y="8.382" size="1.778" layer="95">&gt;NAME</text>
<pin name="1" x="7.62" y="-5.08" visible="pad" length="middle" direction="pas" swaplevel="1" rot="R180"/>
<pin name="2" x="7.62" y="-2.54" visible="pad" length="middle" direction="pas" swaplevel="1" rot="R180"/>
<pin name="3" x="7.62" y="0" visible="pad" length="middle" direction="pas" swaplevel="1" rot="R180"/>
<pin name="4" x="7.62" y="2.54" visible="pad" length="middle" direction="pas" swaplevel="1" rot="R180"/>
<pin name="5" x="7.62" y="5.08" visible="pad" length="middle" direction="pas" swaplevel="1" rot="R180"/>
</symbol>
</symbols>
<devicesets>
<deviceset name="M02" urn="urn:adsk.eagle:component:5982/1" prefix="SL" uservalue="yes" library_version="1">
<description>&lt;b&gt;AMP QUICK CONNECTOR&lt;/b&gt;</description>
<gates>
<gate name="G$1" symbol="M02" x="-2.54" y="0"/>
</gates>
<devices>
<device name="" package="02P">
<connects>
<connect gate="G$1" pin="1" pad="1"/>
<connect gate="G$1" pin="2" pad="2"/>
</connects>
<package3dinstances>
<package3dinstance package3d_urn="urn:adsk.eagle:package:5956/1"/>
</package3dinstances>
<technologies>
<technology name="">
<attribute name="MF" value="" constant="no"/>
<attribute name="MPN" value="" constant="no"/>
<attribute name="OC_FARNELL" value="unknown" constant="no"/>
<attribute name="OC_NEWARK" value="unknown" constant="no"/>
</technology>
</technologies>
</device>
</devices>
</deviceset>
<deviceset name="M03" urn="urn:adsk.eagle:component:5984/1" prefix="SL" uservalue="yes" library_version="1">
<description>&lt;b&gt;AMP QUICK CONNECTOR&lt;/b&gt;</description>
<gates>
<gate name="G$1" symbol="M03" x="-2.54" y="0"/>
</gates>
<devices>
<device name="" package="03P">
<connects>
<connect gate="G$1" pin="1" pad="1"/>
<connect gate="G$1" pin="2" pad="2"/>
<connect gate="G$1" pin="3" pad="3"/>
</connects>
<package3dinstances>
<package3dinstance package3d_urn="urn:adsk.eagle:package:5957/1"/>
</package3dinstances>
<technologies>
<technology name="">
<attribute name="MF" value="" constant="no"/>
<attribute name="MPN" value="" constant="no"/>
<attribute name="OC_FARNELL" value="unknown" constant="no"/>
<attribute name="OC_NEWARK" value="unknown" constant="no"/>
</technology>
</technologies>
</device>
</devices>
</deviceset>
<deviceset name="M05" urn="urn:adsk.eagle:component:5996/1" prefix="SL" uservalue="yes" library_version="1">
<description>&lt;b&gt;AMP QUICK CONNECTOR&lt;/b&gt;</description>
<gates>
<gate name="G$1" symbol="M05" x="-2.54" y="0"/>
</gates>
<devices>
<device name="" package="05P">
<connects>
<connect gate="G$1" pin="1" pad="1"/>
<connect gate="G$1" pin="2" pad="2"/>
<connect gate="G$1" pin="3" pad="3"/>
<connect gate="G$1" pin="4" pad="4"/>
<connect gate="G$1" pin="5" pad="5"/>
</connects>
<package3dinstances>
<package3dinstance package3d_urn="urn:adsk.eagle:package:5961/1"/>
</package3dinstances>
<technologies>
<technology name="">
<attribute name="MF" value="" constant="no"/>
<attribute name="MPN" value="" constant="no"/>
<attribute name="OC_FARNELL" value="unknown" constant="no"/>
<attribute name="OC_NEWARK" value="unknown" constant="no"/>
</technology>
</technologies>
</device>
</devices>
</deviceset>
</devicesets>
</library>
</libraries>
<attributes>
</attributes>
<variantdefs>
</variantdefs>
<classes>
<class number="0" name="default" width="0" drill="0">
</class>
</classes>
<parts>
<part name="P+1" library="supply1" library_urn="urn:adsk.eagle:library:371" deviceset="VCC" device=""/>
<part name="GND1" library="supply1" library_urn="urn:adsk.eagle:library:371" deviceset="GND" device=""/>
<part name="MOSFET" library="con-amp-quick" library_urn="urn:adsk.eagle:library:125" deviceset="M03" device="" package3d_urn="urn:adsk.eagle:package:5957/1"/>
<part name="SL1" library="con-amp-quick" library_urn="urn:adsk.eagle:library:125" deviceset="M02" device="" package3d_urn="urn:adsk.eagle:package:5956/1"/>
<part name="SL2" library="con-amp-quick" library_urn="urn:adsk.eagle:library:125" deviceset="M05" device="" package3d_urn="urn:adsk.eagle:package:5961/1"/>
</parts>
<sheets>
<sheet>
<plain>
</plain>
<instances>
<instance part="P+1" gate="VCC" x="25.4" y="30.48" smashed="yes">
<attribute name="VALUE" x="22.86" y="27.94" size="1.778" layer="96" rot="R90"/>
</instance>
<instance part="GND1" gate="1" x="35.56" y="30.48" smashed="yes" rot="R180">
<attribute name="VALUE" x="38.1" y="33.02" size="1.778" layer="96" rot="R180"/>
</instance>
<instance part="MOSFET" gate="G$1" x="30.48" y="-5.08" smashed="yes" rot="R90">
<attribute name="VALUE" x="38.1" y="-7.62" size="1.778" layer="96" rot="R90"/>
<attribute name="NAME" x="24.638" y="-7.62" size="1.778" layer="95" rot="R90"/>
</instance>
<instance part="SL1" gate="G$1" x="73.66" y="2.54" smashed="yes">
<attribute name="VALUE" x="71.12" y="-2.54" size="1.778" layer="96"/>
<attribute name="NAME" x="71.12" y="8.382" size="1.778" layer="95"/>
</instance>
<instance part="SL2" gate="G$1" x="15.24" y="15.24" smashed="yes">
<attribute name="VALUE" x="12.7" y="5.08" size="1.778" layer="96"/>
<attribute name="NAME" x="12.7" y="23.622" size="1.778" layer="95"/>
</instance>
</instances>
<busses>
</busses>
<nets>
<net name="VCC" class="0">
<segment>
<pinref part="SL1" gate="G$1" pin="2"/>
<wire x1="81.28" y1="5.08" x2="86.36" y2="5.08" width="0.1524" layer="91"/>
<label x="86.36" y="5.08" size="1.778" layer="95" xref="yes"/>
</segment>
<segment>
<pinref part="SL2" gate="G$1" pin="5"/>
<wire x1="22.86" y1="20.32" x2="25.4" y2="20.32" width="0.1524" layer="91"/>
<pinref part="P+1" gate="VCC" pin="VCC"/>
<wire x1="25.4" y1="20.32" x2="25.4" y2="27.94" width="0.1524" layer="91"/>
</segment>
<segment>
<pinref part="SL2" gate="G$1" pin="3"/>
<wire x1="22.86" y1="15.24" x2="30.48" y2="15.24" width="0.1524" layer="91"/>
<label x="30.48" y="15.24" size="1.778" layer="95" xref="yes"/>
</segment>
</net>
<net name="GND" class="0">
<segment>
<pinref part="SL1" gate="G$1" pin="1"/>
<wire x1="81.28" y1="2.54" x2="86.36" y2="2.54" width="0.1524" layer="91"/>
<label x="86.36" y="2.54" size="1.778" layer="95" xref="yes"/>
</segment>
<segment>
<pinref part="SL2" gate="G$1" pin="4"/>
<pinref part="GND1" gate="1" pin="GND"/>
<wire x1="22.86" y1="17.78" x2="35.56" y2="17.78" width="0.1524" layer="91"/>
<wire x1="35.56" y1="17.78" x2="35.56" y2="22.86" width="0.1524" layer="91"/>
<pinref part="MOSFET" gate="G$1" pin="1"/>
<wire x1="35.56" y1="22.86" x2="35.56" y2="27.94" width="0.1524" layer="91"/>
<wire x1="33.02" y1="2.54" x2="40.64" y2="2.54" width="0.1524" layer="91"/>
<wire x1="40.64" y1="2.54" x2="40.64" y2="22.86" width="0.1524" layer="91"/>
<wire x1="40.64" y1="22.86" x2="35.56" y2="22.86" width="0.1524" layer="91"/>
<junction x="35.56" y="22.86"/>
</segment>
</net>
<net name="N$1" class="0">
<segment>
<pinref part="MOSFET" gate="G$1" pin="3"/>
<wire x1="27.94" y1="2.54" x2="27.94" y2="10.16" width="0.1524" layer="91"/>
<pinref part="SL2" gate="G$1" pin="1"/>
<wire x1="27.94" y1="10.16" x2="22.86" y2="10.16" width="0.1524" layer="91"/>
</segment>
</net>
<net name="N$3" class="0">
<segment>
<pinref part="MOSFET" gate="G$1" pin="2"/>
<pinref part="SL2" gate="G$1" pin="2"/>
<wire x1="30.48" y1="2.54" x2="30.48" y2="12.7" width="0.1524" layer="91"/>
<wire x1="30.48" y1="12.7" x2="22.86" y2="12.7" width="0.1524" layer="91"/>
</segment>
</net>
</nets>
</sheet>
</sheets>
</schematic>
</drawing>
<compatibility>
<note version="8.2" severity="warning">
Since Version 8.2, EAGLE supports online libraries. The ids
of those online libraries will not be understood (or retained)
with this version.
</note>
<note version="8.3" severity="warning">
Since Version 8.3, EAGLE supports URNs for individual library
assets (packages, symbols, and devices). The URNs of those assets
will not be understood (or retained) with this version.
</note>
<note version="8.3" severity="warning">
Since Version 8.3, EAGLE supports the association of 3D packages
with devices in libraries, schematics, and board files. Those 3D
packages will not be understood (or retained) with this version.
</note>
</compatibility>
</eagle>
