EESchema Schematic File Version 4
EELAYER 26 0
EELAYER END
$Descr A4 11693 8268
encoding utf-8
Sheet 1 1
Title ""
Date ""
Rev ""
Comp ""
Comment1 ""
Comment2 ""
Comment3 ""
Comment4 ""
$EndDescr
Wire Wire Line
	6700 3300 6200 3300
Wire Wire Line
	6700 3300 6700 3100
Wire Wire Line
	6900 3200 6900 3100
Wire Wire Line
	6900 3100 6700 3100
Wire Wire Line
	6900 3400 6900 3500
Wire Wire Line
	6900 3500 6700 3500
Wire Wire Line
	6700 3500 6700 3400
Wire Wire Line
	6700 3400 6200 3400
Wire Wire Line
	3900 4300 3800 4300
Wire Wire Line
	3800 4300 3800 3500
Wire Wire Line
	3800 3500 3800 2700
Wire Wire Line
	3800 2700 7100 2700
Wire Wire Line
	7100 2700 7600 2700
Wire Wire Line
	3700 3500 3800 3500
Wire Wire Line
	6900 3300 7100 3300
Wire Wire Line
	7100 3300 7100 2700
Wire Wire Line
	3800 2700 3400 2700
Connection ~ 3800 3500
Text Label 7600 2700 0    70   ~ 0
GND
Connection ~ 3800 2700
Wire Wire Line
	8200 4400 8600 4400
Text Label 8600 4400 0    70   ~ 0
GND
Wire Wire Line
	7200 5000 7000 5000
Text Label 7000 5000 2    70   ~ 0
GND
Wire Wire Line
	6200 3800 7200 3800
Text Label 7200 3800 0    70   ~ 0
MISO
Wire Wire Line
	7900 4200 7600 4200
Text Label 7600 4200 2    70   ~ 0
MISO
Wire Wire Line
	6200 3900 7200 3900
Text Label 7200 3900 0    70   ~ 0
SCK
Wire Wire Line
	7900 4300 7600 4300
Text Label 7600 4300 2    70   ~ 0
SCK
Wire Wire Line
	7900 4400 7600 4400
Text Label 7600 4400 2    70   ~ 0
RST
Wire Wire Line
	6600 3100 6600 2900
Wire Wire Line
	6200 3100 6600 3100
Wire Wire Line
	6600 2900 8300 2900
Wire Wire Line
	8300 2900 8300 3700
Text Label 8300 2900 0    70   ~ 0
RST
Wire Wire Line
	6200 3700 7200 3700
Text Label 7200 3700 0    70   ~ 0
MOSI
Wire Wire Line
	8200 4300 8600 4300
Text Label 8600 4300 0    70   ~ 0
MOSI
Wire Wire Line
	7200 5400 7000 5400
Text Label 7000 5400 2    70   ~ 0
TX
Wire Wire Line
	6200 4300 6300 4300
Text Label 6300 4300 0    70   ~ 0
TX
Wire Wire Line
	7200 5500 7000 5500
Text Label 7000 5500 2    70   ~ 0
RX
Wire Wire Line
	6200 4200 6300 4200
Text Label 6300 4200 0    70   ~ 0
RX
Wire Wire Line
	2300 3200 2500 3200
Text Label 2300 3200 2    70   ~ 0
BTN
Wire Wire Line
	6200 4000 6300 4000
Text Label 6300 4000 0    70   ~ 0
BTN
Wire Wire Line
	2300 2700 2600 2700
Text Label 2300 2700 2    70   ~ 0
LED
Wire Wire Line
	6200 3600 6300 3600
Text Label 6300 3600 0    70   ~ 0
LED
Wire Wire Line
	2900 2700 3000 2700
Wire Wire Line
	8700 3700 9200 3700
Wire Wire Line
	9200 3700 9200 4200
Wire Wire Line
	9200 4200 8200 4200
Wire Wire Line
	3200 3500 3200 3800
Wire Wire Line
	3200 3800 3200 4700
Wire Wire Line
	3200 4700 3200 5200
Wire Wire Line
	3400 3500 3200 3500
Wire Wire Line
	7200 5200 3200 5200
Wire Wire Line
	3900 3800 3200 3800
Wire Wire Line
	9200 4200 9200 4700
Wire Wire Line
	9200 4700 3200 4700
Text Label 9200 3700 0    70   ~ 0
VCC
Connection ~ 3200 3800
Connection ~ 9200 4200
Connection ~ 3200 4700
Wire Wire Line
	2900 3200 3100 3200
Text Label 3100 3200 0    70   ~ 0
VCC
$Comp
L hello-eagle-import:ATTINY44-SSU IC1
U 1 0 7C8C299E06F92037
P 4200 3700
F 0 "IC1" H 4100 4430 59  0000 L BNN
F 1 "ATTINY44-SSU" H 4100 2900 59  0000 L BNN
F 2 "hello:SOIC14" H 4200 3700 50  0001 C CNN
F 3 "" H 4200 3700 50  0001 C CNN
	1    4200 3700
	1    0    0    -1  
$EndComp
$Comp
L hello-eagle-import:AVRISPSMD U$1
U 1 0 850A8AB0BABD3B23
P 8000 4300
F 0 "U$1" H 7750 4525 59  0000 L BNN
F 1 "AVRISPSMD" H 7750 4000 59  0000 L BNN
F 2 "hello:2X03SMD" H 8000 4300 50  0001 C CNN
F 3 "" H 8000 4300 50  0001 C CNN
	1    8000 4300
	1    0    0    -1  
$EndComp
$Comp
L hello-eagle-import:UNPOLARIZED_CAPACITOR1206 C1
U 1 0 658E3D6CBA02A0BA
P 3600 3500
F 0 "C1" H 3450 3600 59  0000 L BNN
F 1 "1uF" H 3450 3350 59  0000 L BNN
F 2 "hello:1206" H 3600 3500 50  0001 C CNN
F 3 "" H 3600 3500 50  0001 C CNN
	1    3600 3500
	1    0    0    -1  
$EndComp
$Comp
L hello-eagle-import:CSM-7X-DU Q1
U 1 0 2ECDEBC713531EC9
P 6900 3300
F 0 "Q1" H 7000 3340 59  0000 L BNN
F 1 "20MHZ" H 7000 3200 59  0000 L BNN
F 2 "hello:CSM-7X-DU" H 6900 3300 50  0001 C CNN
F 3 "" H 6900 3300 50  0001 C CNN
	1    6900 3300
	0    1    1    0   
$EndComp
$Comp
L hello-eagle-import:3_PIN_HEADERHEADER U$2
U 1 0 AA898CC2A8B04D1A
P 7300 5200
F 0 "U$2" H 7100 5550 64  0000 L BNN
F 1 "3_PIN_HEADERHEADER" H 7300 5200 50  0001 C CNN
F 2 "hello:SMT_PINS_3" H 7300 5200 50  0001 C CNN
F 3 "" H 7300 5200 50  0001 C CNN
	1    7300 5200
	1    0    0    -1  
$EndComp
$Comp
L hello-eagle-import:3_PIN_HEADERHEADER U$3
U 1 0 93CD699454307519
P 7300 5600
F 0 "U$3" H 7100 5950 64  0000 L BNN
F 1 "3_PIN_HEADERHEADER" H 7300 5600 50  0001 C CNN
F 2 "hello:SMT_PINS_3" H 7300 5600 50  0001 C CNN
F 3 "" H 7300 5600 50  0001 C CNN
	1    7300 5600
	1    0    0    -1  
$EndComp
$Comp
L hello-eagle-import:RESISTOR1206 R1
U 1 0 154D678CB9BAFB95
P 8500 3700
F 0 "R1" H 8350 3759 59  0000 L BNN
F 1 "10k" H 8350 3570 59  0000 L BNN
F 2 "hello:1206" H 8500 3700 50  0001 C CNN
F 3 "" H 8500 3700 50  0001 C CNN
	1    8500 3700
	-1   0    0    1   
$EndComp
$Comp
L hello-eagle-import:6MM_SWITCH6MM_SWITCH S1
U 1 0 5FF56E21CEBFFD5E
P 2700 3200
F 0 "S1" V 2450 3100 59  0000 L BNN
F 1 "6MM_SWITCH6MM_SWITCH" V 2550 3325 59  0000 L BNN
F 2 "hello:6MM_SWITCH" H 2700 3200 50  0001 C CNN
F 3 "" H 2700 3200 50  0001 C CNN
	1    2700 3200
	0    1    1    0   
$EndComp
$Comp
L hello-eagle-import:LED1206 U$4
U 1 0 4E25407E84E86E02
P 2800 2700
F 0 "U$4" V 2940 2620 59  0000 L BNN
F 1 "LED1206" V 3025 2620 59  0000 L BNN
F 2 "hello:1206" H 2800 2700 50  0001 C CNN
F 3 "" H 2800 2700 50  0001 C CNN
	1    2800 2700
	0    -1   -1   0   
$EndComp
$Comp
L hello-eagle-import:RESISTOR1206 R3
U 1 0 E33E0F067F6489F
P 3200 2700
F 0 "R3" H 3050 2759 59  0000 L BNN
F 1 "499" H 3050 2570 59  0000 L BNN
F 2 "hello:1206" H 3200 2700 50  0001 C CNN
F 3 "" H 3200 2700 50  0001 C CNN
	1    3200 2700
	1    0    0    -1  
$EndComp
$EndSCHEMATC
